[
    {
        "nanopub": {
            "id": "shradha_pat4_v1_DGIdb_1",
            "type": {
                "name": "BEL",
                "version": "2.1.0"
            },
            "citation": {
                "uri": "https://www.ncbi.nlm.nih.gov/pubmed/27626067.0"
            },
            "assertions": [
                {
                    "subject": "a(CHEBI:CHEMBL1201585)",
                    "relation": "association",
                    "object": "p(HGNC:APC)"
                }
            ],
            "annotations": [
                {
                    "type": "Species",
                    "id": "TAX:9606",
                    "label": "human"
                }
            ],
            "database": {
                "uri_db": "http://www.dgidb.org/interactions/e58da6d3-dafa-4345-85ce-6cc7e0d0c5fb#_summary"
            },
            "metadata": {
                "project": "BMI593_BEL_NSCLC_Fall2019_pat4_v1",
                "gd_creator": "shradha_pat4_v1",
                "note": "CHEMBL1201585 acts as association of p(HGNC:APC). This relation may or may not hold true in the context of NSCLC."
            }
        }
    },
    {
        "nanopub": {
            "id": "shradha_pat4_v1_DGIdb_2",
            "type": {
                "name": "BEL",
                "version": "2.1.0"
            },
            "citation": {
                "uri": "https://www.ncbi.nlm.nih.gov/pubmed/20890287.0"
            },
            "assertions": [
                {
                    "subject": "a(CHEBI:CHEMBL1201303)",
                    "relation": "association",
                    "object": "p(HGNC:APC)"
                }
            ],
            "annotations": [
                {
                    "type": "Species",
                    "id": "TAX:9606",
                    "label": "human"
                }
            ],
            "database": {
                "uri_db": "http://www.dgidb.org/interactions/a64614f8-c974-470d-918f-d9e99ad03201#_summary"
            },
            "metadata": {
                "project": "BMI593_BEL_NSCLC_Fall2019_pat4_v1",
                "gd_creator": "shradha_pat4_v1",
                "note": "CHEMBL1201303 acts as association of p(HGNC:APC). This relation may or may not hold true in the context of NSCLC."
            }
        }
    },
    {
        "nanopub": {
            "id": "shradha_pat4_v1_DGIdb_3",
            "type": {
                "name": "BEL",
                "version": "2.1.0"
            },
            "citation": {
                "uri": "https://www.ncbi.nlm.nih.gov/pubmed/22753465.0"
            },
            "assertions": [
                {
                    "subject": "a(CHEBI:CHEMBL2364652)",
                    "relation": "association",
                    "object": "p(HGNC:APC)"
                }
            ],
            "annotations": [
                {
                    "type": "Species",
                    "id": "TAX:9606",
                    "label": "human"
                }
            ],
            "database": {
                "uri_db": "http://www.dgidb.org/interactions/d3de7def-d987-483c-8a0b-cc9bba02f7e6#_summary"
            },
            "metadata": {
                "project": "BMI593_BEL_NSCLC_Fall2019_pat4_v1",
                "gd_creator": "shradha_pat4_v1",
                "note": "CHEMBL2364652 acts as association of p(HGNC:APC). This relation may or may not hold true in the context of NSCLC."
            }
        }
    },
    {
        "nanopub": {
            "id": "shradha_pat4_v1_DGIdb_4",
            "type": {
                "name": "BEL",
                "version": "2.1.0"
            },
            "citation": {
                "uri": "https://www.ncbi.nlm.nih.gov/pubmed/21531761.0"
            },
            "assertions": [
                {
                    "subject": "a(CHEBI:CHEMBL1448)",
                    "relation": "association",
                    "object": "p(HGNC:APC)"
                }
            ],
            "annotations": [
                {
                    "type": "Species",
                    "id": "TAX:9606",
                    "label": "human"
                }
            ],
            "database": {
                "uri_db": "http://www.dgidb.org/interactions/1e332442-cd08-4f54-83b3-8bf45e38de41#_summary"
            },
            "metadata": {
                "project": "BMI593_BEL_NSCLC_Fall2019_pat4_v1",
                "gd_creator": "shradha_pat4_v1",
                "note": "CHEMBL1448 acts as association of p(HGNC:APC). This relation may or may not hold true in the context of NSCLC."
            }
        }
    },
    {
        "nanopub": {
            "id": "shradha_pat4_v1_DGIdb_5",
            "type": {
                "name": "BEL",
                "version": "2.1.0"
            },
            "citation": {
                "uri": "https://www.ncbi.nlm.nih.gov/pubmed/12856637.0"
            },
            "assertions": [
                {
                    "subject": "a(CHEBI:CHEMBL1201119)",
                    "relation": "association",
                    "object": "p(HGNC:APC)"
                }
            ],
            "annotations": [
                {
                    "type": "Species",
                    "id": "TAX:9606",
                    "label": "human"
                }
            ],
            "database": {
                "uri_db": "http://www.dgidb.org/interactions/c77b6658-8e85-49b8-8bad-50762aadc67a#_summary"
            },
            "metadata": {
                "project": "BMI593_BEL_NSCLC_Fall2019_pat4_v1",
                "gd_creator": "shradha_pat4_v1",
                "note": "CHEMBL1201119 acts as association of p(HGNC:APC). This relation may or may not hold true in the context of NSCLC."
            }
        }
    },
    {
        "nanopub": {
            "id": "shradha_pat4_v1_DGIdb_6",
            "type": {
                "name": "BEL",
                "version": "2.1.0"
            },
            "citation": {
                "uri": "https://www.ncbi.nlm.nih.gov/pubmed/18768809.0"
            },
            "assertions": [
                {
                    "subject": "a(CHEBI:CHEMBL413)",
                    "relation": "association",
                    "object": "p(HGNC:APC)"
                }
            ],
            "annotations": [
                {
                    "type": "Species",
                    "id": "TAX:9606",
                    "label": "human"
                }
            ],
            "database": {
                "uri_db": "http://www.dgidb.org/interactions/3522dc46-069f-419c-8e6e-2e70fb27e03c#_summary"
            },
            "metadata": {
                "project": "BMI593_BEL_NSCLC_Fall2019_pat4_v1",
                "gd_creator": "shradha_pat4_v1",
                "note": "CHEMBL413 acts as association of p(HGNC:APC). This relation may or may not hold true in the context of NSCLC."
            }
        }
    },
    {
        "nanopub": {
            "id": "shradha_pat4_v1_DGIdb_7",
            "type": {
                "name": "BEL",
                "version": "2.1.0"
            },
            "citation": {
                "uri": "https://www.ncbi.nlm.nih.gov/pubmed/15087381.0"
            },
            "assertions": [
                {
                    "subject": "a(CHEBI:CHEMBL1213492)",
                    "relation": "association",
                    "object": "p(HGNC:APC)"
                }
            ],
            "annotations": [
                {
                    "type": "Species",
                    "id": "TAX:9606",
                    "label": "human"
                }
            ],
            "database": {
                "uri_db": "http://www.dgidb.org/interactions/a1d36fb8-493a-49e8-9114-7fde5bfeb4a8#_summary"
            },
            "metadata": {
                "project": "BMI593_BEL_NSCLC_Fall2019_pat4_v1",
                "gd_creator": "shradha_pat4_v1",
                "note": "CHEMBL1213492 acts as association of p(HGNC:APC). This relation may or may not hold true in the context of NSCLC."
            }
        }
    },
    {
        "nanopub": {
            "id": "shradha_pat4_v1_DGIdb_8",
            "type": {
                "name": "BEL",
                "version": "2.1.0"
            },
            "citation": {
                "uri": "https://www.ncbi.nlm.nih.gov/pubmed/22399804.0"
            },
            "assertions": [
                {
                    "subject": "a(CHEBI:CHEMBL553025)",
                    "relation": "association",
                    "object": "p(HGNC:APC)"
                }
            ],
            "annotations": [
                {
                    "type": "Species",
                    "id": "TAX:9606",
                    "label": "human"
                }
            ],
            "database": {
                "uri_db": "http://www.dgidb.org/interactions/bd96ded3-f14c-4514-8fa1-650e55cdf730#_summary"
            },
            "metadata": {
                "project": "BMI593_BEL_NSCLC_Fall2019_pat4_v1",
                "gd_creator": "shradha_pat4_v1",
                "note": "CHEMBL553025 acts as association of p(HGNC:APC). This relation may or may not hold true in the context of NSCLC."
            }
        }
    },
    {
        "nanopub": {
            "id": "shradha_pat4_v1_DGIdb_9",
            "type": {
                "name": "BEL",
                "version": "2.1.0"
            },
            "citation": {
                "uri": "https://www.ncbi.nlm.nih.gov/pubmed/27004155.0"
            },
            "assertions": [
                {
                    "subject": "a(CHEBI:CHEMBL1946170)",
                    "relation": "association",
                    "object": "p(HGNC:APC)"
                }
            ],
            "annotations": [
                {
                    "type": "Species",
                    "id": "TAX:9606",
                    "label": "human"
                }
            ],
            "database": {
                "uri_db": "http://www.dgidb.org/interactions/3258e134-fa30-4a7b-ba94-8bd617d1da1f#_summary"
            },
            "metadata": {
                "project": "BMI593_BEL_NSCLC_Fall2019_pat4_v1",
                "gd_creator": "shradha_pat4_v1",
                "note": "CHEMBL1946170 acts as association of p(HGNC:APC). This relation may or may not hold true in the context of NSCLC."
            }
        }
    },
    {
        "nanopub": {
            "id": "shradha_pat4_v1_DGIdb_10",
            "type": {
                "name": "BEL",
                "version": "2.1.0"
            },
            "citation": {
                "uri": "https://www.ncbi.nlm.nih.gov/pubmed/17065059.0"
            },
            "assertions": [
                {
                    "subject": "a(CHEBI:CHEMBL1201129)",
                    "relation": "association",
                    "object": "p(HGNC:APC)"
                }
            ],
            "annotations": [
                {
                    "type": "Species",
                    "id": "TAX:9606",
                    "label": "human"
                }
            ],
            "database": {
                "uri_db": "http://www.dgidb.org/interactions/20ae9138-235a-4cc2-a072-8a92972d46c1#_summary"
            },
            "metadata": {
                "project": "BMI593_BEL_NSCLC_Fall2019_pat4_v1",
                "gd_creator": "shradha_pat4_v1",
                "note": "CHEMBL1201129 acts as association of p(HGNC:APC). This relation may or may not hold true in the context of NSCLC."
            }
        }
    },
    {
        "nanopub": {
            "id": "shradha_pat4_v1_DGIdb_11",
            "type": {
                "name": "BEL",
                "version": "2.1.0"
            },
            "citation": {
                "uri": "https://www.ncbi.nlm.nih.gov/pubmed/26206338.0"
            },
            "assertions": [
                {
                    "subject": "a(CHEBI:CHEMBL3187723)",
                    "relation": "association",
                    "object": "p(HGNC:APC)"
                }
            ],
            "annotations": [
                {
                    "type": "Species",
                    "id": "TAX:9606",
                    "label": "human"
                }
            ],
            "database": {
                "uri_db": "http://www.dgidb.org/interactions/3ba5ebec-e8f7-416d-88b5-ec5f68ff93e4#_summary"
            },
            "metadata": {
                "project": "BMI593_BEL_NSCLC_Fall2019_pat4_v1",
                "gd_creator": "shradha_pat4_v1",
                "note": "CHEMBL3187723 acts as association of p(HGNC:APC). This relation may or may not hold true in the context of NSCLC."
            }
        }
    },
    {
        "nanopub": {
            "id": "shradha_pat4_v1_DGIdb_12",
            "type": {
                "name": "BEL",
                "version": "2.1.0"
            },
            "citation": {
                "uri": "https://www.ncbi.nlm.nih.gov/pubmed/10766173.0"
            },
            "assertions": [
                {
                    "subject": "a(CHEBI:CHEMBL222838)",
                    "relation": "association",
                    "object": "p(HGNC:APC)"
                }
            ],
            "annotations": [
                {
                    "type": "Species",
                    "id": "TAX:9606",
                    "label": "human"
                }
            ],
            "database": {
                "uri_db": "http://www.dgidb.org/interactions/48b45081-8e63-4290-ab14-6d667e47a80d#_summary"
            },
            "metadata": {
                "project": "BMI593_BEL_NSCLC_Fall2019_pat4_v1",
                "gd_creator": "shradha_pat4_v1",
                "note": "CHEMBL222838 acts as association of p(HGNC:APC). This relation may or may not hold true in the context of NSCLC."
            }
        }
    },
    {
        "nanopub": {
            "id": "shradha_pat4_v1_DGIdb_13",
            "type": {
                "name": "BEL",
                "version": "2.1.0"
            },
            "citation": {
                "uri": "https://www.ncbi.nlm.nih.gov/pubmed/25261369.0"
            },
            "assertions": [
                {
                    "subject": "a(CHEBI:CHEMBL3545056)",
                    "relation": "association",
                    "object": "p(HGNC:APC)"
                }
            ],
            "annotations": [
                {
                    "type": "Species",
                    "id": "TAX:9606",
                    "label": "human"
                }
            ],
            "database": {
                "uri_db": "http://www.dgidb.org/interactions/b571e542-53e0-49e9-b9b4-fba4e7a8aecc#_summary"
            },
            "metadata": {
                "project": "BMI593_BEL_NSCLC_Fall2019_pat4_v1",
                "gd_creator": "shradha_pat4_v1",
                "note": "CHEMBL3545056 acts as association of p(HGNC:APC). This relation may or may not hold true in the context of NSCLC."
            }
        }
    },
    {
        "nanopub": {
            "id": "shradha_pat4_v1_DGIdb_14",
            "type": {
                "name": "BEL",
                "version": "2.1.0"
            },
            "citation": {
                "uri": "https://www.ncbi.nlm.nih.gov/pubmed/28179481.0"
            },
            "assertions": [
                {
                    "subject": "a(CHEBI:CHEMBL2325503)",
                    "relation": "association",
                    "object": "p(HGNC:APC)"
                }
            ],
            "annotations": [
                {
                    "type": "Species",
                    "id": "TAX:9606",
                    "label": "human"
                }
            ],
            "database": {
                "uri_db": "http://www.dgidb.org/interactions/c440f21e-5579-4c6f-91bb-5fb66265830e#_summary"
            },
            "metadata": {
                "project": "BMI593_BEL_NSCLC_Fall2019_pat4_v1",
                "gd_creator": "shradha_pat4_v1",
                "note": "CHEMBL2325503 acts as association of p(HGNC:APC). This relation may or may not hold true in the context of NSCLC."
            }
        }
    },
    {
        "nanopub": {
            "id": "shradha_pat4_v1_DGIdb_15",
            "type": {
                "name": "BEL",
                "version": "2.1.0"
            },
            "citation": {
                "uri": "https://www.ncbi.nlm.nih.gov/pubmed/17909047.0"
            },
            "assertions": [
                {
                    "subject": "a(CHEBI:CHEMBL553)",
                    "relation": "association",
                    "object": "p(HGNC:APC)"
                }
            ],
            "annotations": [
                {
                    "type": "Species",
                    "id": "TAX:9606",
                    "label": "human"
                }
            ],
            "database": {
                "uri_db": "http://www.dgidb.org/interactions/b38c8f96-5812-4162-a687-752e2d9a9b01#_summary"
            },
            "metadata": {
                "project": "BMI593_BEL_NSCLC_Fall2019_pat4_v1",
                "gd_creator": "shradha_pat4_v1",
                "note": "CHEMBL553 acts as association of p(HGNC:APC). This relation may or may not hold true in the context of NSCLC."
            }
        }
    },
    {
        "nanopub": {
            "id": "shradha_pat4_v1_DGIdb_16",
            "type": {
                "name": "BEL",
                "version": "2.1.0"
            },
            "citation": {
                "uri": "https://www.ncbi.nlm.nih.gov/pubmed/27626067.0"
            },
            "assertions": [
                {
                    "subject": "a(CHEBI:CHEMBL185)",
                    "relation": "association",
                    "object": "p(HGNC:APC)"
                }
            ],
            "annotations": [
                {
                    "type": "Species",
                    "id": "TAX:9606",
                    "label": "human"
                }
            ],
            "database": {
                "uri_db": "http://www.dgidb.org/interactions/b449bdd9-0c6b-4f28-a33d-3e3db4ee6b5e#_summary"
            },
            "metadata": {
                "project": "BMI593_BEL_NSCLC_Fall2019_pat4_v1",
                "gd_creator": "shradha_pat4_v1",
                "note": "CHEMBL185 acts as association of p(HGNC:APC). This relation may or may not hold true in the context of NSCLC."
            }
        }
    },
    {
        "nanopub": {
            "id": "shradha_pat4_v1_DGIdb_17",
            "type": {
                "name": "BEL",
                "version": "2.1.0"
            },
            "citation": {
                "uri": "https://www.ncbi.nlm.nih.gov/pubmed/17909047.0"
            },
            "assertions": [
                {
                    "subject": "a(CHEBI:CHEMBL521)",
                    "relation": "association",
                    "object": "p(HGNC:APC)"
                }
            ],
            "annotations": [
                {
                    "type": "Species",
                    "id": "TAX:9606",
                    "label": "human"
                }
            ],
            "database": {
                "uri_db": "http://www.dgidb.org/interactions/0cc4dcdb-5810-4b99-ae8b-7256979c6042#_summary"
            },
            "metadata": {
                "project": "BMI593_BEL_NSCLC_Fall2019_pat4_v1",
                "gd_creator": "shradha_pat4_v1",
                "note": "CHEMBL521 acts as association of p(HGNC:APC). This relation may or may not hold true in the context of NSCLC."
            }
        }
    },
    {
        "nanopub": {
            "id": "shradha_pat4_v1_DGIdb_18",
            "type": {
                "name": "BEL",
                "version": "2.1.0"
            },
            "citation": {
                "uri": "https://www.ncbi.nlm.nih.gov/pubmed/17909047.0"
            },
            "assertions": [
                {
                    "subject": "a(CHEBI:CHEMBL118)",
                    "relation": "association",
                    "object": "p(HGNC:APC)"
                }
            ],
            "annotations": [
                {
                    "type": "Species",
                    "id": "TAX:9606",
                    "label": "human"
                }
            ],
            "database": {
                "uri_db": "http://www.dgidb.org/interactions/1be74da6-bbec-40dd-bdbc-2173795ccdae#_summary"
            },
            "metadata": {
                "project": "BMI593_BEL_NSCLC_Fall2019_pat4_v1",
                "gd_creator": "shradha_pat4_v1",
                "note": "CHEMBL118 acts as association of p(HGNC:APC). This relation may or may not hold true in the context of NSCLC."
            }
        }
    },
    {
        "nanopub": {
            "id": "shradha_pat4_v1_DGIdb_19",
            "type": {
                "name": "BEL",
                "version": "2.1.0"
            },
            "citation": {
                "uri": "https://www.ncbi.nlm.nih.gov/pubmed/26206338.0"
            },
            "assertions": [
                {
                    "subject": "a(CHEBI:CHEMBL1879463)",
                    "relation": "association",
                    "object": "p(HGNC:APC)"
                }
            ],
            "annotations": [
                {
                    "type": "Species",
                    "id": "TAX:9606",
                    "label": "human"
                }
            ],
            "database": {
                "uri_db": "http://www.dgidb.org/interactions/6bab7b66-f1aa-4663-8a1d-10b637d28170#_summary"
            },
            "metadata": {
                "project": "BMI593_BEL_NSCLC_Fall2019_pat4_v1",
                "gd_creator": "shradha_pat4_v1",
                "note": "CHEMBL1879463 acts as association of p(HGNC:APC). This relation may or may not hold true in the context of NSCLC."
            }
        }
    },
    {
        "nanopub": {
            "id": "shradha_pat4_v1_DGIdb_20",
            "type": {
                "name": "BEL",
                "version": "2.1.0"
            },
            "citation": {
                "uri": "https://www.ncbi.nlm.nih.gov/pubmed/20811697.0"
            },
            "assertions": [
                {
                    "subject": "a(CHEBI:CHEMBL24828)",
                    "relation": "association",
                    "object": "p(HGNC:APC)"
                }
            ],
            "annotations": [
                {
                    "type": "Species",
                    "id": "TAX:9606",
                    "label": "human"
                }
            ],
            "database": {
                "uri_db": "http://www.dgidb.org/interactions/bdb5171a-3949-4494-b98e-d630902f76e8#_summary"
            },
            "metadata": {
                "project": "BMI593_BEL_NSCLC_Fall2019_pat4_v1",
                "gd_creator": "shradha_pat4_v1",
                "note": "CHEMBL24828 acts as association of p(HGNC:APC). This relation may or may not hold true in the context of NSCLC."
            }
        }
    },
    {
        "nanopub": {
            "id": "shradha_pat4_v1_DGIdb_21",
            "type": {
                "name": "BEL",
                "version": "2.1.0"
            },
            "citation": {
                "uri": "https://www.ncbi.nlm.nih.gov/pubmed/20473900.0"
            },
            "assertions": [
                {
                    "subject": "a(CHEBI:CHEMBL1421)",
                    "relation": "association",
                    "object": "p(HGNC:APC)"
                }
            ],
            "annotations": [
                {
                    "type": "Species",
                    "id": "TAX:9606",
                    "label": "human"
                }
            ],
            "database": {
                "uri_db": "http://www.dgidb.org/interactions/194dd8f6-61c5-4e34-b838-c171ce291c75#_summary"
            },
            "metadata": {
                "project": "BMI593_BEL_NSCLC_Fall2019_pat4_v1",
                "gd_creator": "shradha_pat4_v1",
                "note": "CHEMBL1421 acts as association of p(HGNC:APC). This relation may or may not hold true in the context of NSCLC."
            }
        }
    },
    {
        "nanopub": {
            "id": "shradha_pat4_v1_DGIdb_22",
            "type": {
                "name": "BEL",
                "version": "2.1.0"
            },
            "citation": {
                "uri": "https://www.ncbi.nlm.nih.gov/pubmed/19755659.0"
            },
            "assertions": [
                {
                    "subject": "a(CHEBI:CHEMBL15770)",
                    "relation": "association",
                    "object": "p(HGNC:APC)"
                }
            ],
            "annotations": [
                {
                    "type": "Species",
                    "id": "TAX:9606",
                    "label": "human"
                }
            ],
            "database": {
                "uri_db": "http://www.dgidb.org/interactions/080ee9ab-af3a-4a21-81e4-12d55c77ad5f#_summary"
            },
            "metadata": {
                "project": "BMI593_BEL_NSCLC_Fall2019_pat4_v1",
                "gd_creator": "shradha_pat4_v1",
                "note": "CHEMBL15770 acts as association of p(HGNC:APC). This relation may or may not hold true in the context of NSCLC."
            }
        }
    },
    {
        "nanopub": {
            "id": "shradha_pat4_v1_DGIdb_23",
            "type": {
                "name": "BEL",
                "version": "2.1.0"
            },
            "citation": {
                "uri": "https://www.ncbi.nlm.nih.gov/pubmed/27626067.0"
            },
            "assertions": [
                {
                    "subject": "a(CHEBI:CHEMBL1679)",
                    "relation": "association",
                    "object": "p(HGNC:APC)"
                }
            ],
            "annotations": [
                {
                    "type": "Species",
                    "id": "TAX:9606",
                    "label": "human"
                }
            ],
            "database": {
                "uri_db": "http://www.dgidb.org/interactions/10b44fe3-70b5-49a2-b73d-3044f3e6b56f#_summary"
            },
            "metadata": {
                "project": "BMI593_BEL_NSCLC_Fall2019_pat4_v1",
                "gd_creator": "shradha_pat4_v1",
                "note": "CHEMBL1679 acts as association of p(HGNC:APC). This relation may or may not hold true in the context of NSCLC."
            }
        }
    }
]