[
    {
        "nanopub": {
            "id": "shradha_pat11_v1_DGIdb_1",
            "type": {
                "name": "BEL",
                "version": "2.1.0"
            },
            "citation": {
                "uri": "https://www.ncbi.nlm.nih.gov/pubmed/nan"
            },
            "assertions": [
                {
                    "subject": "a(CHEBI:CHEMBL299763)",
                    "relation": "inhibitor",
                    "object": "p(HGNC:SETD2)"
                }
            ],
            "annotations": [
                {
                    "type": "Species",
                    "id": "TAX:9606",
                    "label": "human"
                }
            ],
            "database": {
                "uri_db": "http://www.dgidb.org/interactions/995ab600-23d9-454f-9746-94f82ea4b1d5#_summary"
            },
            "metadata": {
                "project": "BMI593_BEL_NSCLC_Fall2019_pat11_v1",
                "gd_creator": "shradha_pat11_v1",
                "note": "CHEMBL299763 acts as inhibitor of p(HGNC:SETD2). This relation may or may not hold true in the context of NSCLC."
            }
        }
    }
]