,subject,relation,obj,citations,db_url
108,CHEMBL298734,inhibitor,KRAS,https://www.ncbi.nlm.nih.gov/pubmed/nan,http://www.dgidb.org/interactions/46223e65-239f-42a0-9983-dbbb85a865d8#_summary
109,CHEMBL1946170,inhibitor,KRAS,https://www.ncbi.nlm.nih.gov/pubmed/21170960.0,http://www.dgidb.org/interactions/38b58615-a227-42c3-8904-765a3cf24d9c#_summary
110,CHEMBL1614701,inhibitor,KRAS,https://www.ncbi.nlm.nih.gov/pubmed/26272063.0,http://www.dgidb.org/interactions/5198a64e-2590-4bbf-9d31-9657b38355fa#_summary
111,CHEMBL481,association,KRAS,https://www.ncbi.nlm.nih.gov/pubmed/25567130.0,http://www.dgidb.org/interactions/3727535e-7c06-4915-9730-01b73f20eac3#_summary
112,CHEMBL1201827,association,KRAS,https://www.ncbi.nlm.nih.gov/pubmed/26812186.0,http://www.dgidb.org/interactions/de139144-3653-4e0f-878f-87330b02ab7b#_summary
113,CHEMBL1421,association,KRAS,https://www.ncbi.nlm.nih.gov/pubmed/26855149.0,http://www.dgidb.org/interactions/fb4209a2-310e-40cc-913b-77f5ba0b5e99#_summary
114,CHEMBL325041,association,KRAS,https://www.ncbi.nlm.nih.gov/pubmed/22541434.0,http://www.dgidb.org/interactions/3ad9fdd0-3d12-4095-9126-d2a499222d68#_summary
115,CHEMBL1614766,association,KRAS,https://www.ncbi.nlm.nih.gov/pubmed/26438159.0,http://www.dgidb.org/interactions/e37957a9-d805-4c70-ad0f-6603dcad6e1e#_summary
116,CHEMBL521851,association,KRAS,https://www.ncbi.nlm.nih.gov/pubmed/22084396.0,http://www.dgidb.org/interactions/f909a4e4-58bc-48a1-a5f1-d6504e081874#_summary
117,CHEMBL185,association,KRAS,https://www.ncbi.nlm.nih.gov/pubmed/26341920.0,http://www.dgidb.org/interactions/841e1dd6-fbb3-4e06-adea-dba1bcc3cccc#_summary
118,CHEMBL3707227,association,KRAS,https://www.ncbi.nlm.nih.gov/pubmed/25609064.0,http://www.dgidb.org/interactions/4ac52b92-5854-44c7-b3b8-12ee41b2d5bf#_summary
119,CHEMBL3184679,association,KRAS,https://www.ncbi.nlm.nih.gov/pubmed/27338794.0,http://www.dgidb.org/interactions/fa0b49ca-291a-4ed3-9f81-6f272783ad3a#_summary
120,CHEMBL3545154,association,KRAS,https://www.ncbi.nlm.nih.gov/pubmed/21306821.0,http://www.dgidb.org/interactions/742b30f8-717e-4ef4-8926-028b2e69fc73#_summary
121,CHEMBL3545245,association,KRAS,https://www.ncbi.nlm.nih.gov/pubmed/nan,http://www.dgidb.org/interactions/de29788c-c18e-46d9-b2f5-798ba8d86c0e#_summary
122,CHEMBL428462,association,KRAS,https://www.ncbi.nlm.nih.gov/pubmed/24978597.0,http://www.dgidb.org/interactions/4e68ef6b-b393-4b08-8873-3d478e1ff620#_summary
123,CHEMBL1879463,association,KRAS,https://www.ncbi.nlm.nih.gov/pubmed/26272063.0,http://www.dgidb.org/interactions/1cd42a00-24d4-4954-a50b-dc97fbbb4c58#_summary
124,CHEMBL1743047,association,KRAS,https://www.ncbi.nlm.nih.gov/pubmed/26766738.0,http://www.dgidb.org/interactions/0fd8e45c-0dc2-42d2-b145-8188845734ff#_summary
125,CHEMBL2108738,association,KRAS,https://www.ncbi.nlm.nih.gov/pubmed/28525386.0,http://www.dgidb.org/interactions/0867c6c0-535e-4222-aeb2-1217a462b528#_summary
126,CHEMBL1231206,association,KRAS,https://www.ncbi.nlm.nih.gov/pubmed/26140595.0,http://www.dgidb.org/interactions/89fbcdca-8615-44b7-8532-0d1ba3d65c3d#_summary
127,CHEMBL3545366,association,KRAS,https://www.ncbi.nlm.nih.gov/pubmed/24634413.0,http://www.dgidb.org/interactions/7787c5f2-4ce0-4c87-9e39-eb7fb09c17be#_summary
128,CHEMBL217354,association,KRAS,https://www.ncbi.nlm.nih.gov/pubmed/25665005.0,http://www.dgidb.org/interactions/ed2a447d-f5f4-4bd3-a24c-eb4e01a829e3#_summary
129,CHEMBL592445,association,KRAS,https://www.ncbi.nlm.nih.gov/pubmed/24042735.0,http://www.dgidb.org/interactions/bd8620a0-41a8-467e-b8fe-7d2a3178fc06#_summary
130,CHEMBL3137343,association,KRAS,https://www.ncbi.nlm.nih.gov/pubmed/28039262.0,http://www.dgidb.org/interactions/439348b3-ae5b-4030-b3fc-70deeb78015c#_summary
131,CHEMBL2103839,association,KRAS,https://www.ncbi.nlm.nih.gov/pubmed/26725216.0,http://www.dgidb.org/interactions/fa14f55f-fd38-44ac-b43f-7c3696374b9f#_summary
132,CHEMBL525191,association,KRAS,https://www.ncbi.nlm.nih.gov/pubmed/19276360.0,http://www.dgidb.org/interactions/2833e307-ce5f-4ae3-904c-f83c82550827#_summary
133,CHEMBL1743079,association,KRAS,https://www.ncbi.nlm.nih.gov/pubmed/21985784.0,http://www.dgidb.org/interactions/3dcae6ce-ba2f-4521-85bb-32851c02f785#_summary
134,CHEMBL2138601,association,KRAS,https://www.ncbi.nlm.nih.gov/pubmed/26582713.0,http://www.dgidb.org/interactions/d3db1f0b-533a-4cce-8c03-dc15dc29a21e#_summary
135,CHEMBL3545049,association,KRAS,https://www.ncbi.nlm.nih.gov/pubmed/27699769.0,http://www.dgidb.org/interactions/62d34cd6-1fa4-4540-930f-ba7a47665af6#_summary
136,CHEMBL2364626,association,KRAS,https://www.ncbi.nlm.nih.gov/pubmed/26725216.0,http://www.dgidb.org/interactions/07c94781-9f5d-4efd-bd7c-701db90b2d1d#_summary
137,CHEMBL483254,association,KRAS,https://www.ncbi.nlm.nih.gov/pubmed/22693356.0,http://www.dgidb.org/interactions/6cd836b5-c3d4-4cf2-a5c5-dc39ff01e435#_summary
138,CHEMBL2103840,association,KRAS,https://www.ncbi.nlm.nih.gov/pubmed/27550941.0,http://www.dgidb.org/interactions/f5ba4869-0615-4459-8a42-c9cef4b06bed#_summary
139,CHEMBL608533,association,KRAS,https://www.ncbi.nlm.nih.gov/pubmed/26725216.0,http://www.dgidb.org/interactions/a23ce324-fa05-4d9a-9884-2c79827dbe97#_summary
140,CHEMBL1351,association,KRAS,https://www.ncbi.nlm.nih.gov/pubmed/25637314.0,http://www.dgidb.org/interactions/aa03ae20-3810-4ffc-ae33-4b4a01440a2f#_summary
141,CHEMBL1200647,association,KRAS,https://www.ncbi.nlm.nih.gov/pubmed/26839307.0,http://www.dgidb.org/interactions/08f73c36-295b-4168-a83d-6a443f250888#_summary
142,CHEMBL443684,association,KRAS,https://www.ncbi.nlm.nih.gov/pubmed/27659046.0,http://www.dgidb.org/interactions/d54a5b2e-edb4-41a9-a20c-68d628ddff14#_summary
143,CHEMBL38380,association,KRAS,https://www.ncbi.nlm.nih.gov/pubmed/22541434.0,http://www.dgidb.org/interactions/0b575c87-c41f-4932-abbc-98e13a85b478#_summary
144,CHEMBL3545195,association,KRAS,https://www.ncbi.nlm.nih.gov/pubmed/26343583.0,http://www.dgidb.org/interactions/ae7369f5-40df-4999-bdff-c8f33b98c910#_summary
145,CHEMBL3545202,association,KRAS,https://www.ncbi.nlm.nih.gov/pubmed/28363999.0,http://www.dgidb.org/interactions/657e12f4-21e9-42cf-a3ac-5026027a0270#_summary
146,CHEMBL1233528,association,KRAS,https://www.ncbi.nlm.nih.gov/pubmed/26597303.0,http://www.dgidb.org/interactions/440b0e37-ef4f-4d4a-9cb2-585fbdb8f418#_summary
147,CHEMBL2387080,association,KRAS,https://www.ncbi.nlm.nih.gov/pubmed/28331003.0,http://www.dgidb.org/interactions/cbbf0ac3-c4fa-48fc-a174-b773f5adb477#_summary
148,CHEMBL2103875,association,KRAS,https://www.ncbi.nlm.nih.gov/pubmed/26343583.0,http://www.dgidb.org/interactions/91e3dff9-03ed-40ea-b200-5a7ad4af0030#_summary
149,CHEMBL1773,association,KRAS,https://www.ncbi.nlm.nih.gov/pubmed/nan,http://www.dgidb.org/interactions/8cbaa165-6a03-4835-aef0-6702f31c8c4c#_summary
150,CHEMBL3218575,association,KRAS,https://www.ncbi.nlm.nih.gov/pubmed/25637314.0,http://www.dgidb.org/interactions/727dc0a5-2ff2-42dd-ba2c-c6044f6c18c6#_summary
151,CHEMBL414804,association,KRAS,https://www.ncbi.nlm.nih.gov/pubmed/26540314.0,http://www.dgidb.org/interactions/c5642ea3-9894-40b7-88d2-08283babcc81#_summary
152,CHEMBL3545022,association,KRAS,https://www.ncbi.nlm.nih.gov/pubmed/26725216.0,http://www.dgidb.org/interactions/c15b5639-498d-45e5-8f1c-04d740505508#_summary
153,CHEMBL1091644,association,KRAS,https://www.ncbi.nlm.nih.gov/pubmed/26725216.0,http://www.dgidb.org/interactions/f6626ed1-0683-4765-ac65-c7fb7ba222d0#_summary
154,CHEMBL92,association,KRAS,https://www.ncbi.nlm.nih.gov/pubmed/24746704.0,http://www.dgidb.org/interactions/2fb6cfc5-f3d9-49c1-bd22-0906a0ccba79#_summary
155,CHEMBL24828,association,KRAS,https://www.ncbi.nlm.nih.gov/pubmed/nan,http://www.dgidb.org/interactions/86f14718-28c6-431f-9b49-891dee30f4f8#_summary
156,CHEMBL3545325,association,KRAS,https://www.ncbi.nlm.nih.gov/pubmed/25504634.0,http://www.dgidb.org/interactions/90c56468-0e73-42f5-a697-88a8ceb64b2c#_summary
157,CHEMBL1976040,association,KRAS,https://www.ncbi.nlm.nih.gov/pubmed/28652249.0,http://www.dgidb.org/interactions/953cfbae-c866-4843-9fb2-9376fffa1ab8#_summary
158,CHEMBL2109384,association,KRAS,https://www.ncbi.nlm.nih.gov/pubmed/26855149.0,http://www.dgidb.org/interactions/0d3975bd-0abb-43c9-8152-427ab816ec17#_summary
159,CHEMBL488436,association,KRAS,https://www.ncbi.nlm.nih.gov/pubmed/26881434.0,http://www.dgidb.org/interactions/2dddb2ef-9301-4742-a32d-2f60d990bb38#_summary
160,CHEMBL3301610,association,KRAS,https://www.ncbi.nlm.nih.gov/pubmed/24746704.0,http://www.dgidb.org/interactions/9e46dafc-d669-4e3b-a752-73950170b1ba#_summary
161,CHEMBL1201258,association,KRAS,https://www.ncbi.nlm.nih.gov/pubmed/27876675.0,http://www.dgidb.org/interactions/8b0cac01-ac47-4afa-bcdd-d0fcf31a5d7f#_summary
162,CHEMBL1336,association,KRAS,https://www.ncbi.nlm.nih.gov/pubmed/23629727.0,http://www.dgidb.org/interactions/7109cbf0-653b-40ea-8167-0b31d38b84e0#_summary
163,CHEMBL252164,association,KRAS,https://www.ncbi.nlm.nih.gov/pubmed/26832792.0,http://www.dgidb.org/interactions/2e552582-9597-4ae5-928a-beda51fb5950#_summary
164,CHEMBL1241855,association,KRAS,https://www.ncbi.nlm.nih.gov/pubmed/27104980.0,http://www.dgidb.org/interactions/103867c8-895b-4ffd-8d3b-59e04588d2b0#_summary
165,CHEMBL3137309,association,KRAS,https://www.ncbi.nlm.nih.gov/pubmed/27974663.0,http://www.dgidb.org/interactions/2e1a1e9e-9ef3-4bd4-9d22-d98b109ab319#_summary
166,CHEMBL69330,association,KRAS,https://www.ncbi.nlm.nih.gov/pubmed/10592235.0,http://www.dgidb.org/interactions/a9c6757e-0da5-4c33-8ee3-34a0822ef723#_summary
167,CHEMBL1852688,association,KRAS,https://www.ncbi.nlm.nih.gov/pubmed/27338794.0,http://www.dgidb.org/interactions/29a585fc-fee9-498d-9a55-5c14e60d9484#_summary
168,CHEMBL64130,association,KRAS,https://www.ncbi.nlm.nih.gov/pubmed/nan,http://www.dgidb.org/interactions/18fcaf86-e621-4068-8540-a193b32fc453#_summary
169,CHEMBL458997,association,KRAS,https://www.ncbi.nlm.nih.gov/pubmed/26090892.0,http://www.dgidb.org/interactions/93a50d8f-cbb3-4211-b9bd-8af27b68e67b#_summary
170,CHEMBL888,association,KRAS,https://www.ncbi.nlm.nih.gov/pubmed/26540314.0,http://www.dgidb.org/interactions/5369fcb6-26a4-4da6-82cb-079dc2be0389#_summary
171,CHEMBL1743063,association,KRAS,https://www.ncbi.nlm.nih.gov/pubmed/24919569.0,http://www.dgidb.org/interactions/76664d9f-4ee7-4f5e-a7e8-61f50be8949b#_summary
172,CHEMBL75133,association,KRAS,https://www.ncbi.nlm.nih.gov/pubmed/nan,http://www.dgidb.org/interactions/43ddf699-d1e5-4b70-bf63-b26a75da5216#_summary
173,CHEMBL402548,association,KRAS,https://www.ncbi.nlm.nih.gov/pubmed/26725216.0,http://www.dgidb.org/interactions/06dacb6c-c0d4-42a8-b0b5-db0b6c817a1b#_summary
174,CHEMBL3348923,association,KRAS,https://www.ncbi.nlm.nih.gov/pubmed/nan,http://www.dgidb.org/interactions/61f147b7-6cc8-401f-b24d-11c971557ebb#_summary
175,CHEMBL1922094,association,KRAS,https://www.ncbi.nlm.nih.gov/pubmed/25673820.0,http://www.dgidb.org/interactions/59ebed38-76ef-4fea-b27d-002be02e6a22#_summary
176,CHEMBL2178577,association,KRAS,https://www.ncbi.nlm.nih.gov/pubmed/19755509.0,http://www.dgidb.org/interactions/0b99854d-dc26-4e82-8efc-0977804250b9#_summary
177,CHEMBL941,association,KRAS,https://www.ncbi.nlm.nih.gov/pubmed/nan,http://www.dgidb.org/interactions/98a1f90c-a2f9-4c78-8719-564dd4eb9fc5#_summary
178,CHEMBL554,association,KRAS,https://www.ncbi.nlm.nih.gov/pubmed/27108243.0,http://www.dgidb.org/interactions/1519109d-f8b2-4670-9dcd-75a6cd11d435#_summary
179,CHEMBL848,association,KRAS,https://www.ncbi.nlm.nih.gov/pubmed/27458141.0,http://www.dgidb.org/interactions/d6cebd74-deeb-4f1a-8254-f463ff2d123f#_summary
180,CHEMBL939,association,KRAS,https://www.ncbi.nlm.nih.gov/pubmed/15696205.0,http://www.dgidb.org/interactions/c7e9be3b-5a6a-4bf0-a1e5-6fc49a9846cf#_summary
181,CHEMBL376408,association,KRAS,https://www.ncbi.nlm.nih.gov/pubmed/21468686.0,http://www.dgidb.org/interactions/1db67104-b7cb-4aa5-8509-b413f90a3e36#_summary
182,CHEMBL56543,association,KRAS,https://www.ncbi.nlm.nih.gov/pubmed/22159814.0,http://www.dgidb.org/interactions/0f58686d-8ccc-41b0-a6d7-c73b6e3823f4#_summary
183,CHEMBL1743062,association,KRAS,https://www.ncbi.nlm.nih.gov/pubmed/25877855.0,http://www.dgidb.org/interactions/f6bb6c54-dc7d-4a39-9beb-23bc8e9f7c9d#_summary
184,CHEMBL3545052,association,KRAS,https://www.ncbi.nlm.nih.gov/pubmed/22693356.0,http://www.dgidb.org/interactions/1db867d3-3553-4a13-a86e-32132f772658#_summary
185,CHEMBL1234354,association,KRAS,https://www.ncbi.nlm.nih.gov/pubmed/26725216.0,http://www.dgidb.org/interactions/96c91777-0e51-475c-a029-a0de836b164d#_summary
186,CHEMBL413,association,KRAS,https://www.ncbi.nlm.nih.gov/pubmed/26144316.0,http://www.dgidb.org/interactions/4f98b881-a416-47e6-84b8-a64b478bb312#_summary
187,CHEMBL2109389,association,KRAS,https://www.ncbi.nlm.nih.gov/pubmed/23209031.0,http://www.dgidb.org/interactions/5389db83-4a59-4ef8-9fcc-41989240fe04#_summary
188,CHEMBL180022,association,KRAS,https://www.ncbi.nlm.nih.gov/pubmed/26725216.0,http://www.dgidb.org/interactions/0b6b7fad-032d-459a-b65e-20714f20f6e9#_summary
189,CHEMBL3544960,association,KRAS,https://www.ncbi.nlm.nih.gov/pubmed/22781553.0,http://www.dgidb.org/interactions/4cdeb7a0-1fa5-438f-bd5a-2d368f6b8b9b#_summary
190,CHEMBL1201129,association,KRAS,https://www.ncbi.nlm.nih.gov/pubmed/25968887.0,http://www.dgidb.org/interactions/d8c9b809-b85b-478c-8f36-c6a71ca5310d#_summary
191,CHEMBL382590,association,KRAS,https://www.ncbi.nlm.nih.gov/pubmed/26842935.0,http://www.dgidb.org/interactions/6d96223a-7597-4ef7-9218-827c8cc899ee#_summary
192,CHEMBL3218576,association,KRAS,https://www.ncbi.nlm.nih.gov/pubmed/24170767.0,http://www.dgidb.org/interactions/d1de1c30-5145-4620-8931-5b431800fda6#_summary
193,CHEMBL558752,association,KRAS,https://www.ncbi.nlm.nih.gov/pubmed/25199829.0,http://www.dgidb.org/interactions/aec308be-9c36-499d-a162-65217ba68812#_summary
194,CHEMBL1201577,association,KRAS,https://www.ncbi.nlm.nih.gov/pubmed/26812186.0,http://www.dgidb.org/interactions/8f24cce4-f320-40c9-958e-2214ff291b07#_summary
195,CHEMBL1213490,association,KRAS,https://www.ncbi.nlm.nih.gov/pubmed/nan,http://www.dgidb.org/interactions/74a3d1a7-ebe3-42ba-a9d0-1801a7d34e56#_summary
196,CHEMBL589258,association,KRAS,https://www.ncbi.nlm.nih.gov/pubmed/20371716.0,http://www.dgidb.org/interactions/306f8bc8-21d8-4433-b7ae-5e0ec09b2c0e#_summary
197,CHEMBL1615025,association,KRAS,https://www.ncbi.nlm.nih.gov/pubmed/26439693.0,http://www.dgidb.org/interactions/577e121f-46c6-41f7-8121-13da86e41296#_summary
198,CHEMBL3187723,association,KRAS,https://www.ncbi.nlm.nih.gov/pubmed/25609064.0,http://www.dgidb.org/interactions/c721b473-779f-4491-a796-0bb6f23b25d3#_summary
199,CHEMBL2177390,association,KRAS,https://www.ncbi.nlm.nih.gov/pubmed/26725216.0,http://www.dgidb.org/interactions/c9cc8775-ba22-4504-8095-fc6e973f3498#_summary
200,CHEMBL1229517,association,KRAS,https://www.ncbi.nlm.nih.gov/pubmed/27312529.0,http://www.dgidb.org/interactions/0fe0ba38-161a-4bf2-a41b-50c90775a701#_summary
201,CHEMBL105442,association,KRAS,https://www.ncbi.nlm.nih.gov/pubmed/19018267.0,http://www.dgidb.org/interactions/09be45cb-0311-4d2f-ad21-6a5ff926c97e#_summary
202,CHEMBL189963,association,KRAS,https://www.ncbi.nlm.nih.gov/pubmed/25609064.0,http://www.dgidb.org/interactions/fbd5bc66-1f5c-40da-a73e-870fafebc412#_summary
203,CHEMBL393417,association,KRAS,https://www.ncbi.nlm.nih.gov/pubmed/24978597.0,http://www.dgidb.org/interactions/7b07681c-07a2-4508-9790-a16f2175a027#_summary
204,CHEMBL521686,association,KRAS,https://www.ncbi.nlm.nih.gov/pubmed/28363999.0,http://www.dgidb.org/interactions/282a1cea-e564-4259-b273-69bb375960ed#_summary
205,CHEMBL1908360,association,KRAS,https://www.ncbi.nlm.nih.gov/pubmed/23629727.0,http://www.dgidb.org/interactions/037da5c0-9e57-443a-8373-b8f0f413844c#_summary
206,CHEMBL3545151,association,KRAS,https://www.ncbi.nlm.nih.gov/pubmed/24978597.0,http://www.dgidb.org/interactions/3bae8a7f-8a6d-464f-b4b5-587d93ef28fc#_summary
207,CHEMBL3353410,association,KRAS,https://www.ncbi.nlm.nih.gov/pubmed/25870145.0,http://www.dgidb.org/interactions/d58c543c-7d85-46bd-ab3f-701a417169ff#_summary
208,CHEMBL217092,association,KRAS,https://www.ncbi.nlm.nih.gov/pubmed/27231123.0,http://www.dgidb.org/interactions/b47a68bc-cced-41ad-bf8e-5eea9940dd50#_summary
209,CHEMBL2105717,association,KRAS,https://www.ncbi.nlm.nih.gov/pubmed/21170960.0,http://www.dgidb.org/interactions/d915f827-a5ae-4540-9277-89d524abbb2e#_summary
210,CHEMBL1201583,association,KRAS,https://www.ncbi.nlm.nih.gov/pubmed/28632865.0,http://www.dgidb.org/interactions/fae516f4-e155-4c71-9fd3-0c1515565bad#_summary
211,CHEMBL1201752,association,KRAS,https://www.ncbi.nlm.nih.gov/pubmed/26864210.0,http://www.dgidb.org/interactions/ad9ec1e1-e22b-44ab-a6f2-2caa30f2ebe1#_summary
212,CHEMBL3545322,association,KRAS,https://www.ncbi.nlm.nih.gov/pubmed/nan,http://www.dgidb.org/interactions/dc7b47ab-8c0e-407b-8944-e8550632a107#_summary
213,CHEMBL477772,association,KRAS,https://www.ncbi.nlm.nih.gov/pubmed/26324075.0,http://www.dgidb.org/interactions/c2302af1-25c8-4c3e-9327-ca736f5a424d#_summary
214,CHEMBL1431,association,KRAS,https://www.ncbi.nlm.nih.gov/pubmed/24077915.0,http://www.dgidb.org/interactions/6e281998-a4df-477e-827e-7fe2df092088#_summary
215,CHEMBL23293,association,KRAS,https://www.ncbi.nlm.nih.gov/pubmed/21847063.0,http://www.dgidb.org/interactions/4e33a3c0-69fc-4883-aba0-58aed89a2b6b#_summary
216,CHEMBL3545246,association,KRAS,https://www.ncbi.nlm.nih.gov/pubmed/nan,http://www.dgidb.org/interactions/90eb0eab-4a4b-41ce-9dd8-f4055f77b7d4#_summary
217,CHEMBL1201182,association,KRAS,https://www.ncbi.nlm.nih.gov/pubmed/21216929.0,http://www.dgidb.org/interactions/027d2f94-6848-4fea-8240-1c7e21a04271#_summary
218,CHEMBL3545055,association,KRAS,https://www.ncbi.nlm.nih.gov/pubmed/nan,http://www.dgidb.org/interactions/b921268d-c108-4ab5-a700-a34baaa75c3d#_summary
219,CHEMBL3545248,association,KRAS,https://www.ncbi.nlm.nih.gov/pubmed/24504419.0,http://www.dgidb.org/interactions/d2d7bcaf-8e42-4da5-bf6e-ee3049f7d12a#_summary
220,CHEMBL392068,association,KRAS,https://www.ncbi.nlm.nih.gov/pubmed/26855149.0,http://www.dgidb.org/interactions/10a89c2b-f6a3-40a6-9be6-e3dba16a222b#_summary
221,CHEMBL2146883,association,KRAS,https://www.ncbi.nlm.nih.gov/pubmed/25609064.0,http://www.dgidb.org/interactions/da3d38ab-18ec-4a29-9d9e-92f0132c574f#_summary
222,CHEMBL3545137,association,KRAS,https://www.ncbi.nlm.nih.gov/pubmed/26140595.0,http://www.dgidb.org/interactions/a07a72ea-bec1-4bf8-a26d-d214ceffea4d#_summary
223,CHEMBL1173655,association,KRAS,https://www.ncbi.nlm.nih.gov/pubmed/26341921.0,http://www.dgidb.org/interactions/ed2a01fb-6edd-48af-9a9d-6cc0d71c4e13#_summary
224,CHEMBL2396661,association,KRAS,https://www.ncbi.nlm.nih.gov/pubmed/27659046.0,http://www.dgidb.org/interactions/6fed71b4-c110-4ac8-ae5f-9196248a55f7#_summary
225,CHEMBL601719,association,KRAS,https://www.ncbi.nlm.nih.gov/pubmed/27338794.0,http://www.dgidb.org/interactions/34170d68-cd7e-4994-9a81-d88704e05957#_summary
226,CHEMBL2017974,association,KRAS,https://www.ncbi.nlm.nih.gov/pubmed/26715098.0,http://www.dgidb.org/interactions/250d00d2-51ea-4376-ad70-f193e0c0d4a0#_summary
227,CHEMBL535,association,KRAS,https://www.ncbi.nlm.nih.gov/pubmed/26864210.0,http://www.dgidb.org/interactions/44a0a0ca-fe22-49f4-85d3-8745b2bd288d#_summary
228,CHEMBL170988,association,KRAS,https://www.ncbi.nlm.nih.gov/pubmed/26574479.0,http://www.dgidb.org/interactions/7a2ccd70-ea82-4fb5-b23a-ea8c366ca440#_summary
229,CHEMBL98350,association,KRAS,https://www.ncbi.nlm.nih.gov/pubmed/22871572.0,http://www.dgidb.org/interactions/49a3dc9b-80d5-4123-b264-1596adbe7b65#_summary
230,CHEMBL3545424,association,KRAS,https://www.ncbi.nlm.nih.gov/pubmed/26725216.0,http://www.dgidb.org/interactions/b4a87773-9da9-4a29-9618-9dc4598739b0#_summary
231,CHEMBL2107832,association,KRAS,https://www.ncbi.nlm.nih.gov/pubmed/23629727.0,http://www.dgidb.org/interactions/00dbff53-1b2b-45cb-83e2-9fe80ca35900#_summary
232,CHEMBL1171837,association,KRAS,https://www.ncbi.nlm.nih.gov/pubmed/27338794.0,http://www.dgidb.org/interactions/27ea90ac-31a7-441c-b518-1b51a99b176b#_summary
233,CHEMBL1374379,association,KRAS,https://www.ncbi.nlm.nih.gov/pubmed/26725216.0,http://www.dgidb.org/interactions/ae405b71-be70-4cde-94e1-d2efc3091195#_summary
234,CHEMBL428647,association,KRAS,https://www.ncbi.nlm.nih.gov/pubmed/16043828.0,http://www.dgidb.org/interactions/30fe3888-f0ec-40c4-ae91-d0e88806b30f#_summary
235,CHEMBL387187,association,KRAS,https://www.ncbi.nlm.nih.gov/pubmed/26739882.0,http://www.dgidb.org/interactions/a3f0061b-3d65-4edf-900e-c80f1d3e1ddf#_summary
236,CHEMBL1684984,association,KRAS,https://www.ncbi.nlm.nih.gov/pubmed/22159814.0,http://www.dgidb.org/interactions/3f360a88-55a0-4502-9e22-f8fbfa8fc005#_summary
237,CHEMBL3545376,association,KRAS,https://www.ncbi.nlm.nih.gov/pubmed/28341788.0,http://www.dgidb.org/interactions/4b605045-10c4-4746-b5b8-cbf1eac9a9d7#_summary
238,CHEMBL3545110,association,KRAS,https://www.ncbi.nlm.nih.gov/pubmed/25609064.0,http://www.dgidb.org/interactions/db1b1b0c-b088-456f-b68c-3218c7f5b46b#_summary
239,CHEMBL513909,association,KRAS,https://www.ncbi.nlm.nih.gov/pubmed/26597303.0,http://www.dgidb.org/interactions/42f7e35a-86f3-4a73-b819-8b09ee6c994d#_summary
240,CHEMBL411907,association,KRAS,https://www.ncbi.nlm.nih.gov/pubmed/18493606.0,http://www.dgidb.org/interactions/22be7ca7-f8f5-49dc-a15f-28b0835b2f3f#_summary
241,CHEMBL2028663,association,KRAS,https://www.ncbi.nlm.nih.gov/pubmed/27312529.0,http://www.dgidb.org/interactions/d0f8fa6e-40fb-43df-8654-a65a7b1e6fd3#_summary
242,CHEMBL255863,association,KRAS,https://www.ncbi.nlm.nih.gov/pubmed/26725216.0,http://www.dgidb.org/interactions/e60b6492-18a0-4cd9-91dd-5975f30c4493#_summary
243,CHEMBL3301612,association,KRAS,https://www.ncbi.nlm.nih.gov/pubmed/25673644.0,http://www.dgidb.org/interactions/748213ce-6b17-4769-9df4-ca9739aa1a33#_summary
244,CHEMBL1801204,association,KRAS,https://www.ncbi.nlm.nih.gov/pubmed/22271687.0,http://www.dgidb.org/interactions/204c2155-bf90-4b54-bffb-52ab234d2e41#_summary
245,CHEMBL65,association,KRAS,https://www.ncbi.nlm.nih.gov/pubmed/24042735.0,http://www.dgidb.org/interactions/84c8c5a5-a28c-43a2-8fca-b190d2b54927#_summary
246,CHEMBL3120215,association,KRAS,https://www.ncbi.nlm.nih.gov/pubmed/21673091.0,http://www.dgidb.org/interactions/35e57750-7b13-4119-ba28-5c38d7c08a7a#_summary
247,CHEMBL507361,association,KRAS,https://www.ncbi.nlm.nih.gov/pubmed/26272063.0,http://www.dgidb.org/interactions/93a7d872-ee08-4636-92f4-1fe52eb395a1#_summary
248,CHEMBL553,association,KRAS,https://www.ncbi.nlm.nih.gov/pubmed/27659046.0,http://www.dgidb.org/interactions/56d27b22-de6c-4b88-8b97-6f834ae2900f#_summary
249,CHEMBL1079175,association,KRAS,https://www.ncbi.nlm.nih.gov/pubmed/26676756.0,http://www.dgidb.org/interactions/8cd448ed-bbcb-4507-862d-dcb252224d42#_summary
250,CHEMBL3545056,association,KRAS,https://www.ncbi.nlm.nih.gov/pubmed/26272063.0,http://www.dgidb.org/interactions/e2ce4d20-d940-4762-9677-206579694373#_summary
251,CHEMBL575448,association,KRAS,https://www.ncbi.nlm.nih.gov/pubmed/26725216.0,http://www.dgidb.org/interactions/39fe521d-5d55-4757-8936-4dc30a9e456b#_summary
252,CHEMBL3544964,association,KRAS,https://www.ncbi.nlm.nih.gov/pubmed/15483017.0,http://www.dgidb.org/interactions/4ac9b596-9185-4ee7-8149-545c44718a2e#_summary
253,CHEMBL379300,association,KRAS,https://www.ncbi.nlm.nih.gov/pubmed/24978597.0,http://www.dgidb.org/interactions/20e8ab05-cdbb-41fd-b6e2-4b377c1ef0d6#_summary
254,CHEMBL3545212,association,KRAS,https://www.ncbi.nlm.nih.gov/pubmed/27196782.0,http://www.dgidb.org/interactions/a8bb959e-09d1-4c11-8fab-5243ff92d687#_summary
255,CHEMBL1201585,association,KRAS,https://www.ncbi.nlm.nih.gov/pubmed/27108243.0,http://www.dgidb.org/interactions/a0dc16ca-4b8e-4c4f-a6f3-07193d48ae15#_summary
441,CHEMBL2107333,binder,KEAP1,https://www.ncbi.nlm.nih.gov/pubmed/23056222.0,http://www.dgidb.org/interactions/828b8ca6-161a-4648-be9d-9e29b9a4c7c5#_summary
442,CHEMBL1762621,inhibitor,KEAP1,https://www.ncbi.nlm.nih.gov/pubmed/nan,http://www.dgidb.org/interactions/3f6e6aad-8ad3-4dc8-951e-f64134c5c21f#_summary
642,CHEMBL1743079,association,PTPRD,https://www.ncbi.nlm.nih.gov/pubmed/23800680.0,http://www.dgidb.org/interactions/3963f80b-5763-447d-8e4e-3db370b25dcf#_summary
643,CHEMBL387737,association,PTPRD,https://www.ncbi.nlm.nih.gov/pubmed/26267899.0,http://www.dgidb.org/interactions/565e6d2d-5034-43ea-b724-7564134cbb62#_summary
644,CHEMBL1743001,association,PTPRD,https://www.ncbi.nlm.nih.gov/pubmed/23800680.0,http://www.dgidb.org/interactions/a1d785ac-7581-475e-8f55-86dc6507d92b#_summary
771,CHEMBL3545359,inhibitor,MET,https://www.ncbi.nlm.nih.gov/pubmed/nan,http://www.dgidb.org/interactions/ca11edd1-51f4-419a-81c5-b46b197078ef#_summary
772,CHEMBL3545299,inhibitor,MET,https://www.ncbi.nlm.nih.gov/pubmed/nan,http://www.dgidb.org/interactions/e539adec-3350-4424-8016-b1839acba259#_summary
773,CHEMBL460702,inhibitor,MET,https://www.ncbi.nlm.nih.gov/pubmed/22286523.0,http://www.dgidb.org/interactions/aaca22d1-b161-476f-b167-eeb497d9938c#_summary
774,CHEMBL1230609,inhibitor,MET,https://www.ncbi.nlm.nih.gov/pubmed/23213094.0,http://www.dgidb.org/interactions/925920d6-40b0-4fbd-b4a6-225f09ef4d50#_summary
775,CHEMBL1822792,inhibitor,MET,https://www.ncbi.nlm.nih.gov/pubmed/nan,http://www.dgidb.org/interactions/f620a1d6-dc54-4a1e-bd7d-5d9024f46487#_summary
776,CHEMBL3545365,inhibitor,MET,https://www.ncbi.nlm.nih.gov/pubmed/26285778.0,http://www.dgidb.org/interactions/72a66aed-a043-49f2-8015-455a564483bb#_summary
777,CHEMBL2001019,inhibitor,MET,https://www.ncbi.nlm.nih.gov/pubmed/nan,http://www.dgidb.org/interactions/f10fa822-6bd6-4628-a222-a84dffb54fab#_summary
778,CHEMBL601719,inhibitor,MET,https://www.ncbi.nlm.nih.gov/pubmed/26729443.0,http://www.dgidb.org/interactions/3786cd3c-d5c7-452d-8791-82fd70b46947#_summary
779,CHEMBL2105717,antagonist,MET,https://www.ncbi.nlm.nih.gov/pubmed/27462141.0,http://www.dgidb.org/interactions/59630255-e74e-40a0-baf3-a70ceccec227#_summary
780,CHEMBL3301578,antibody,MET,https://www.ncbi.nlm.nih.gov/pubmed/27803065.0,http://www.dgidb.org/interactions/c26505e8-327f-4756-abc5-3d2cebcadddf#_summary
781,CHEMBL1743051,antibody,MET,https://www.ncbi.nlm.nih.gov/pubmed/24101053.0,http://www.dgidb.org/interactions/a91305c7-2469-4cb1-a1d7-d6f96ded064b#_summary
782,CHEMBL1738797,inhibitor,MET,https://www.ncbi.nlm.nih.gov/pubmed/nan,http://www.dgidb.org/interactions/c59fb7ce-08cc-4315-9f2b-6ce554ab3cc5#_summary
783,CHEMBL1082,inhibitor,MET,https://www.ncbi.nlm.nih.gov/pubmed/nan,http://www.dgidb.org/interactions/da0e2f17-8830-432a-b11c-a0d15407b947#_summary
784,CHEMBL3545212,inhibitor,MET,https://www.ncbi.nlm.nih.gov/pubmed/27196749.0,http://www.dgidb.org/interactions/a1795fd2-e986-4679-a9a7-7cdd60df221e#_summary
785,CHEMBL3188267,inhibitor,MET,https://www.ncbi.nlm.nih.gov/pubmed/28783719.0,http://www.dgidb.org/interactions/7cf8ed94-eebf-48a9-8c15-b3b18184cb74#_summary
786,CHEMBL565,inhibitor,MET,https://www.ncbi.nlm.nih.gov/pubmed/nan,http://www.dgidb.org/interactions/4f1b56d2-4cba-4f64-bace-66c2933b75ad#_summary
787,CHEMBL3039525,inhibitor,MET,https://www.ncbi.nlm.nih.gov/pubmed/19832844.0,http://www.dgidb.org/interactions/4d39f18b-f6ec-40aa-934e-92a9668623b9#_summary
788,CHEMBL450786,inhibitor,MET,https://www.ncbi.nlm.nih.gov/pubmed/24165158.0,http://www.dgidb.org/interactions/96b39fcd-23d0-489c-a508-1ada94056d25#_summary
789,CHEMBL1236107,inhibitor,MET,https://www.ncbi.nlm.nih.gov/pubmed/19934279.0,http://www.dgidb.org/interactions/c5b39bb7-d218-486a-b798-1e3693a426cd#_summary
790,CHEMBL614,inhibitor,MET,https://www.ncbi.nlm.nih.gov/pubmed/19783361.0,http://www.dgidb.org/interactions/80f9af39-1391-4f03-89cb-d3ff937a7271#_summary
791,CHEMBL109480,inhibitor,MET,https://www.ncbi.nlm.nih.gov/pubmed/nan,http://www.dgidb.org/interactions/25ed1d32-8515-4fba-bef7-651f2d8ac3b8#_summary
792,CHEMBL3402762,inhibitor,MET,https://www.ncbi.nlm.nih.gov/pubmed/26358474.0,http://www.dgidb.org/interactions/1553037c-1a6f-4d65-8bfd-b0e00f920ea6#_summary
793,CHEMBL2103882,inhibitor,MET,https://www.ncbi.nlm.nih.gov/pubmed/nan,http://www.dgidb.org/interactions/07f5671d-3f23-4017-9672-cea1ed77b9e9#_summary
794,CHEMBL254760,inhibitor,MET,https://www.ncbi.nlm.nih.gov/pubmed/27694386.0,http://www.dgidb.org/interactions/6e2c8017-a7d4-46f4-85ca-46a9f73077aa#_summary
795,CHEMBL496102,inhibitor,MET,https://www.ncbi.nlm.nih.gov/pubmed/nan,http://www.dgidb.org/interactions/640b3cf8-d20d-4284-a4f2-c7322ed7e9a7#_summary
796,CHEMBL2109517,antibody,MET,https://www.ncbi.nlm.nih.gov/pubmed/nan,http://www.dgidb.org/interactions/7b191c0c-d05e-4c5a-92e6-c637f1513e7f#_summary
797,CHEMBL2133806,inhibitor,MET,https://www.ncbi.nlm.nih.gov/pubmed/23729478.0,http://www.dgidb.org/interactions/c04bf6d0-52d0-4961-abf9-14f06c5bb2a7#_summary
798,CHEMBL3545119,inhibitor,MET,https://www.ncbi.nlm.nih.gov/pubmed/nan,http://www.dgidb.org/interactions/0ac4ca71-348b-4bb0-91dc-5cd593057316#_summary
799,CHEMBL3545419,inhibitor,MET,https://www.ncbi.nlm.nih.gov/pubmed/nan,http://www.dgidb.org/interactions/89a3285b-f034-4c97-9d0b-79ff31e78a0e#_summary
800,CHEMBL3545053,inhibitor,MET,https://www.ncbi.nlm.nih.gov/pubmed/25326232.0,http://www.dgidb.org/interactions/1fb13a6e-1b30-49ab-929a-a1839fc54b2d#_summary
801,CHEMBL3545307,inhibitor,MET,https://www.ncbi.nlm.nih.gov/pubmed/26757360.0,http://www.dgidb.org/interactions/0746b316-db26-4a0b-a1b5-05ea814d6570#_summary
802,CHEMBL2323775,inhibitor,MET,https://www.ncbi.nlm.nih.gov/pubmed/nan,http://www.dgidb.org/interactions/95ee434c-3006-480e-b38f-f093bf62083f#_summary
803,CHEMBL3545325,inhibitor,MET,https://www.ncbi.nlm.nih.gov/pubmed/25504634.0,http://www.dgidb.org/interactions/60ec7244-0311-47a6-8900-8568e5b0d4c1#_summary
804,CHEMBL3545236,inhibitor,MET,https://www.ncbi.nlm.nih.gov/pubmed/nan,http://www.dgidb.org/interactions/0acec31a-92c9-441b-9077-1736658f8b31#_summary
805,CHEMBL2103851,inhibitor,MET,https://www.ncbi.nlm.nih.gov/pubmed/24326130.0,http://www.dgidb.org/interactions/10d1f7e2-4219-427c-91e6-244c208f2d1e#_summary
806,CHEMBL1201830,stimulator,MET,https://www.ncbi.nlm.nih.gov/pubmed/nan,http://www.dgidb.org/interactions/afeb19f7-7992-47a6-bf73-1b74585c5d05#_summary
807,CHEMBL3545050,inhibitor,MET,https://www.ncbi.nlm.nih.gov/pubmed/nan,http://www.dgidb.org/interactions/a7ea6bb4-8dd5-48d1-b21e-56d83b4c8f8e#_summary
808,CHEMBL2103868,inhibitor,MET,https://www.ncbi.nlm.nih.gov/pubmed/nan,http://www.dgidb.org/interactions/51db0831-9562-4640-8753-5ef875d0fbd5#_summary
809,CHEMBL3545336,inhibitor,MET,https://www.ncbi.nlm.nih.gov/pubmed/28644771.0,http://www.dgidb.org/interactions/2b6e2947-37c8-4157-923b-cb3e63f24be5#_summary
810,CHEMBL3545144,inhibitor,MET,https://www.ncbi.nlm.nih.gov/pubmed/24140932.0,http://www.dgidb.org/interactions/9054679a-221c-4384-aa49-c598e4a89e7f#_summary
811,CHEMBL2105728,inhibitor,MET,https://www.ncbi.nlm.nih.gov/pubmed/nan,http://www.dgidb.org/interactions/0410ddfc-ca32-4054-bff6-fd214d9493c5#_summary
812,CHEMBL521686,association,MET,https://www.ncbi.nlm.nih.gov/pubmed/26779812.0,http://www.dgidb.org/interactions/dd218fb0-54a0-4268-8d88-8bde5ff618df#_summary
813,CHEMBL414804,association,MET,https://www.ncbi.nlm.nih.gov/pubmed/26432108.0,http://www.dgidb.org/interactions/59936142-2e3d-4ddf-9af1-90f7f3c848e4#_summary
814,CHEMBL1614701,association,MET,https://www.ncbi.nlm.nih.gov/pubmed/24939055.0,http://www.dgidb.org/interactions/19e58a91-d79c-4b5a-be10-e423a52213cc#_summary
815,CHEMBL281948,association,MET,https://www.ncbi.nlm.nih.gov/pubmed/12118367.0,http://www.dgidb.org/interactions/8e91e5b7-0cf7-49dc-bd25-e8e03ee30aad#_summary
816,CHEMBL462712,association,MET,https://www.ncbi.nlm.nih.gov/pubmed/10592235.0,http://www.dgidb.org/interactions/8044d4e4-62d3-4f5e-bfcf-199cedd0427d#_summary
817,CHEMBL1336,association,MET,https://www.ncbi.nlm.nih.gov/pubmed/25363205.0,http://www.dgidb.org/interactions/2a81ac48-bc9e-4761-97fc-20aa96b5afe8#_summary
818,CHEMBL509101,association,MET,https://www.ncbi.nlm.nih.gov/pubmed/10592235.0,http://www.dgidb.org/interactions/c14fc30f-4b37-46ad-ba55-9d7f2b848044#_summary
819,CHEMBL2103879,association,MET,https://www.ncbi.nlm.nih.gov/pubmed/26483207.0,http://www.dgidb.org/interactions/c29c739d-a562-4dda-b123-6b777704d495#_summary
820,CHEMBL1879463,association,MET,https://www.ncbi.nlm.nih.gov/pubmed/24939055.0,http://www.dgidb.org/interactions/fcd778d3-9a43-434f-86ad-da5a0383b7fa#_summary
821,CHEMBL941,association,MET,https://www.ncbi.nlm.nih.gov/pubmed/28514312.0,http://www.dgidb.org/interactions/da6bb25f-fa51-45a5-b9e2-4cacaf4597be#_summary
822,CHEMBL1743063,association,MET,https://www.ncbi.nlm.nih.gov/pubmed/nan,http://www.dgidb.org/interactions/d0bb5fe8-b259-4041-863c-b1d6e3e0e319#_summary
823,CHEMBL2103875,association,MET,https://www.ncbi.nlm.nih.gov/pubmed/28783719.0,http://www.dgidb.org/interactions/e7497333-ceb1-44d5-a55d-e5f04b4c9bc6#_summary
824,CHEMBL1171837,association,MET,https://www.ncbi.nlm.nih.gov/pubmed/25122427.0,http://www.dgidb.org/interactions/2dd03d38-65eb-455b-a350-e0655d3af451#_summary
825,CHEMBL1173655,association,MET,https://www.ncbi.nlm.nih.gov/pubmed/27694386.0,http://www.dgidb.org/interactions/a0a0b8a6-7539-4cfe-a702-51aeb023651d#_summary
826,CHEMBL3545308,association,MET,https://www.ncbi.nlm.nih.gov/pubmed/27252416.0,http://www.dgidb.org/interactions/2beccc97-1520-4980-97f3-149857158b1d#_summary
827,CHEMBL1229517,association,MET,https://www.ncbi.nlm.nih.gov/pubmed/27325282.0,http://www.dgidb.org/interactions/2875c754-5419-4e70-9322-cea18005fa1f#_summary
828,CHEMBL458997,association,MET,https://www.ncbi.nlm.nih.gov/pubmed/26090892.0,http://www.dgidb.org/interactions/6181b852-3c19-4b20-833e-70cea94b2db2#_summary
829,CHEMBL1773,association,MET,https://www.ncbi.nlm.nih.gov/pubmed/26432108.0,http://www.dgidb.org/interactions/7a442e8e-02d4-4426-b2e1-3994d767adb4#_summary
830,CHEMBL561660,association,MET,https://www.ncbi.nlm.nih.gov/pubmed/10592235.0,http://www.dgidb.org/interactions/921543dc-0325-4319-80a5-5607a71ebc0a#_summary
831,CHEMBL1201585,association,MET,https://www.ncbi.nlm.nih.gov/pubmed/22850551.0,http://www.dgidb.org/interactions/1055d767-10f5-470b-b566-cbeaad0f47e5#_summary
832,CHEMBL1081312,association,MET,https://www.ncbi.nlm.nih.gov/pubmed/26483207.0,http://www.dgidb.org/interactions/2dc35c5e-9481-4fba-bd82-2aae7f5ac8d5#_summary
833,CHEMBL527066,association,MET,https://www.ncbi.nlm.nih.gov/pubmed/10592235.0,http://www.dgidb.org/interactions/ab852e69-4664-4cec-915c-a3d5402119de#_summary
834,CHEMBL554,association,MET,https://www.ncbi.nlm.nih.gov/pubmed/27595477.0,http://www.dgidb.org/interactions/3235a9e9-3e8f-4181-9b68-8a5b98102345#_summary
835,CHEMBL503090,association,MET,https://www.ncbi.nlm.nih.gov/pubmed/10592235.0,http://www.dgidb.org/interactions/cbc39212-828c-495a-987d-8e2c794a4e14#_summary
836,CHEMBL553,association,MET,https://www.ncbi.nlm.nih.gov/pubmed/27694386.0,http://www.dgidb.org/interactions/70219ffb-e1dd-4870-8482-ae593c52b992#_summary
837,CHEMBL428647,association,MET,https://www.ncbi.nlm.nih.gov/pubmed/28514312.0,http://www.dgidb.org/interactions/b202609b-7f25-4990-9ccf-eb4467050017#_summary
838,CHEMBL1351,association,MET,https://www.ncbi.nlm.nih.gov/pubmed/28514312.0,http://www.dgidb.org/interactions/a9d1df6f-1e22-4897-bac8-94e57f5947a9#_summary
839,CHEMBL1421,association,MET,https://www.ncbi.nlm.nih.gov/pubmed/26483207.0,http://www.dgidb.org/interactions/703c8ca4-0b8d-4099-9ce1-f812bef31e18#_summary
840,CHEMBL939,association,MET,https://www.ncbi.nlm.nih.gov/pubmed/17463250.0,http://www.dgidb.org/interactions/9b59d3fc-1d96-41c9-b708-991e54ff2efb#_summary
841,CHEMBL1679,association,MET,https://www.ncbi.nlm.nih.gov/pubmed/26432108.0,http://www.dgidb.org/interactions/4a7a7c6b-3f87-40af-9870-17cb1be4b4c0#_summary
842,CHEMBL1201577,association,MET,https://www.ncbi.nlm.nih.gov/pubmed/23729478.0,http://www.dgidb.org/interactions/bbf08216-a84f-4152-b957-a90a34f09de3#_summary
843,CHEMBL506871,association,MET,https://www.ncbi.nlm.nih.gov/pubmed/26779812.0,http://www.dgidb.org/interactions/e2f3a3e6-048b-4994-8cd3-94d4b1ed7a2f#_summary
844,CHEMBL1743018,association,MET,https://www.ncbi.nlm.nih.gov/pubmed/24901237.0,http://www.dgidb.org/interactions/449073f2-c6a2-46d3-9f71-9ba87aab51a4#_summary
845,CHEMBL185,association,MET,https://www.ncbi.nlm.nih.gov/pubmed/26432108.0,http://www.dgidb.org/interactions/8fa0aece-063d-440c-ab38-12c8ea896b62#_summary
846,CHEMBL3353410,association,MET,https://www.ncbi.nlm.nih.gov/pubmed/27694386.0,http://www.dgidb.org/interactions/9085fb78-c2d4-4c36-be46-5ae478544baa#_summary
847,CHEMBL383824,association,MET,https://www.ncbi.nlm.nih.gov/pubmed/26483207.0,http://www.dgidb.org/interactions/21a04679-368e-4a77-b3e2-e4c17f17ec09#_summary
848,CHEMBL1173055,association,MET,https://www.ncbi.nlm.nih.gov/pubmed/26779812.0,http://www.dgidb.org/interactions/4237e466-c897-40db-b527-fcd2ca787941#_summary
849,CHEMBL1201583,association,MET,https://www.ncbi.nlm.nih.gov/pubmed/26965451.0,http://www.dgidb.org/interactions/5b185c97-5e7c-4481-92f9-f2889e742c26#_summary
850,CHEMBL3218575,association,MET,https://www.ncbi.nlm.nih.gov/pubmed/25637314.0,http://www.dgidb.org/interactions/27753a76-4f7e-4f19-83c2-db7c0e3d2026#_summary
851,CHEMBL1201827,association,MET,https://www.ncbi.nlm.nih.gov/pubmed/23729478.0,http://www.dgidb.org/interactions/26c4b639-5774-4f1d-950f-aaf138734d38#_summary
