,subject,relation,obj,citations,db_url
6,MET,increases,negative regulation of cell communication ,http://geneontology.org/docs/go-enrichment-analysis/,https://amp.pharm.mssm.edu/Enrichr/
7,EPHA3,increases,negative regulation of cell communication ,http://geneontology.org/docs/go-enrichment-analysis/,https://amp.pharm.mssm.edu/Enrichr/
11,TERT,increases,negative regulation of response to stimulus ,http://geneontology.org/docs/go-enrichment-analysis/,https://amp.pharm.mssm.edu/Enrichr/
16,MET,increases,negative regulation of response to stimulus ,http://geneontology.org/docs/go-enrichment-analysis/,https://amp.pharm.mssm.edu/Enrichr/
17,EPHA3,increases,negative regulation of response to stimulus ,http://geneontology.org/docs/go-enrichment-analysis/,https://amp.pharm.mssm.edu/Enrichr/
25,MET,increases,negative regulation of signaling ,http://geneontology.org/docs/go-enrichment-analysis/,https://amp.pharm.mssm.edu/Enrichr/
26,EPHA3,increases,negative regulation of signaling ,http://geneontology.org/docs/go-enrichment-analysis/,https://amp.pharm.mssm.edu/Enrichr/
34,MET,increases,regulation of kinase activity ,http://geneontology.org/docs/go-enrichment-analysis/,https://amp.pharm.mssm.edu/Enrichr/
35,EPHA3,increases,regulation of kinase activity ,http://geneontology.org/docs/go-enrichment-analysis/,https://amp.pharm.mssm.edu/Enrichr/
45,MET,increases,positive regulation of protein phosphorylation ,http://geneontology.org/docs/go-enrichment-analysis/,https://amp.pharm.mssm.edu/Enrichr/
46,TP53,increases,positive regulation of protein phosphorylation ,http://geneontology.org/docs/go-enrichment-analysis/,https://amp.pharm.mssm.edu/Enrichr/
47,EPHA3,increases,positive regulation of protein phosphorylation ,http://geneontology.org/docs/go-enrichment-analysis/,https://amp.pharm.mssm.edu/Enrichr/
56,MET,increases,regulation of ERK1 and ERK2 cascade ,http://geneontology.org/docs/go-enrichment-analysis/,https://amp.pharm.mssm.edu/Enrichr/
57,EPHA3,increases,regulation of ERK1 and ERK2 cascade ,http://geneontology.org/docs/go-enrichment-analysis/,https://amp.pharm.mssm.edu/Enrichr/
64,MET,increases,positive regulation of kinase activity ,http://geneontology.org/docs/go-enrichment-analysis/,https://amp.pharm.mssm.edu/Enrichr/
65,EPHA3,increases,positive regulation of kinase activity ,http://geneontology.org/docs/go-enrichment-analysis/,https://amp.pharm.mssm.edu/Enrichr/
73,MET,increases,positive regulation of ERK1 and ERK2 cascade ,http://geneontology.org/docs/go-enrichment-analysis/,https://amp.pharm.mssm.edu/Enrichr/
74,EPHA3,increases,positive regulation of ERK1 and ERK2 cascade ,http://geneontology.org/docs/go-enrichment-analysis/,https://amp.pharm.mssm.edu/Enrichr/
80,NF1,increases,regulation of MAPK cascade ,http://geneontology.org/docs/go-enrichment-analysis/,https://amp.pharm.mssm.edu/Enrichr/
82,MET,increases,regulation of MAPK cascade ,http://geneontology.org/docs/go-enrichment-analysis/,https://amp.pharm.mssm.edu/Enrichr/
83,EPHA3,increases,regulation of MAPK cascade ,http://geneontology.org/docs/go-enrichment-analysis/,https://amp.pharm.mssm.edu/Enrichr/
91,MET,increases,positive regulation of phosphorylation ,http://geneontology.org/docs/go-enrichment-analysis/,https://amp.pharm.mssm.edu/Enrichr/
92,EPHA3,increases,positive regulation of phosphorylation ,http://geneontology.org/docs/go-enrichment-analysis/,https://amp.pharm.mssm.edu/Enrichr/
99,MET,increases,positive regulation of transferase activity ,http://geneontology.org/docs/go-enrichment-analysis/,https://amp.pharm.mssm.edu/Enrichr/
100,EPHA3,increases,positive regulation of transferase activity ,http://geneontology.org/docs/go-enrichment-analysis/,https://amp.pharm.mssm.edu/Enrichr/
108,MET,increases,regulation of signal transduction ,http://geneontology.org/docs/go-enrichment-analysis/,https://amp.pharm.mssm.edu/Enrichr/
109,EPHA3,increases,regulation of signal transduction ,http://geneontology.org/docs/go-enrichment-analysis/,https://amp.pharm.mssm.edu/Enrichr/
118,NF1,increases,regulation of apoptotic process ,http://geneontology.org/docs/go-enrichment-analysis/,https://amp.pharm.mssm.edu/Enrichr/
121,MET,increases,regulation of apoptotic process ,http://geneontology.org/docs/go-enrichment-analysis/,https://amp.pharm.mssm.edu/Enrichr/
122,TP53,increases,regulation of apoptotic process ,http://geneontology.org/docs/go-enrichment-analysis/,https://amp.pharm.mssm.edu/Enrichr/
123,EPHA3,increases,regulation of apoptotic process ,http://geneontology.org/docs/go-enrichment-analysis/,https://amp.pharm.mssm.edu/Enrichr/
131,MET,increases,negative regulation of apoptotic process ,http://geneontology.org/docs/go-enrichment-analysis/,https://amp.pharm.mssm.edu/Enrichr/
132,TP53,increases,negative regulation of apoptotic process ,http://geneontology.org/docs/go-enrichment-analysis/,https://amp.pharm.mssm.edu/Enrichr/
133,EPHA3,increases,negative regulation of apoptotic process ,http://geneontology.org/docs/go-enrichment-analysis/,https://amp.pharm.mssm.edu/Enrichr/
141,MET,increases,negative regulation of signal transduction ,http://geneontology.org/docs/go-enrichment-analysis/,https://amp.pharm.mssm.edu/Enrichr/
142,EPHA3,increases,negative regulation of signal transduction ,http://geneontology.org/docs/go-enrichment-analysis/,https://amp.pharm.mssm.edu/Enrichr/
150,MET,increases,negative regulation of programmed cell death ,http://geneontology.org/docs/go-enrichment-analysis/,https://amp.pharm.mssm.edu/Enrichr/
151,TP53,increases,negative regulation of programmed cell death ,http://geneontology.org/docs/go-enrichment-analysis/,https://amp.pharm.mssm.edu/Enrichr/
152,EPHA3,increases,negative regulation of programmed cell death ,http://geneontology.org/docs/go-enrichment-analysis/,https://amp.pharm.mssm.edu/Enrichr/
160,MET,increases,positive regulation of MAPK cascade ,http://geneontology.org/docs/go-enrichment-analysis/,https://amp.pharm.mssm.edu/Enrichr/
161,EPHA3,increases,positive regulation of MAPK cascade ,http://geneontology.org/docs/go-enrichment-analysis/,https://amp.pharm.mssm.edu/Enrichr/
169,MET,increases,positive regulation of intracellular signal transduction ,http://geneontology.org/docs/go-enrichment-analysis/,https://amp.pharm.mssm.edu/Enrichr/
170,TP53,increases,positive regulation of intracellular signal transduction ,http://geneontology.org/docs/go-enrichment-analysis/,https://amp.pharm.mssm.edu/Enrichr/
171,EPHA3,increases,positive regulation of intracellular signal transduction ,http://geneontology.org/docs/go-enrichment-analysis/,https://amp.pharm.mssm.edu/Enrichr/
173,TERT,increases,replicative senescence ,http://geneontology.org/docs/go-enrichment-analysis/,https://amp.pharm.mssm.edu/Enrichr/
176,TP53,increases,replicative senescence ,http://geneontology.org/docs/go-enrichment-analysis/,https://amp.pharm.mssm.edu/Enrichr/
186,TP53,increases,regulation of cell proliferation ,http://geneontology.org/docs/go-enrichment-analysis/,https://amp.pharm.mssm.edu/Enrichr/
195,EPHA3,increases,protein phosphorylation ,http://geneontology.org/docs/go-enrichment-analysis/,https://amp.pharm.mssm.edu/Enrichr/
204,TP53,increases,positive regulation of gene expression ,http://geneontology.org/docs/go-enrichment-analysis/,https://amp.pharm.mssm.edu/Enrichr/
206,SMARCA4,increases,positive regulation of gene expression ,http://geneontology.org/docs/go-enrichment-analysis/,https://amp.pharm.mssm.edu/Enrichr/
208,NF1,increases,MAPK cascade ,http://geneontology.org/docs/go-enrichment-analysis/,https://amp.pharm.mssm.edu/Enrichr/
212,MET,increases,MAPK cascade ,http://geneontology.org/docs/go-enrichment-analysis/,https://amp.pharm.mssm.edu/Enrichr/
217,TERT,increases,regulation of gene expression ,http://geneontology.org/docs/go-enrichment-analysis/,https://amp.pharm.mssm.edu/Enrichr/
224,TP53,increases,regulation of gene expression ,http://geneontology.org/docs/go-enrichment-analysis/,https://amp.pharm.mssm.edu/Enrichr/
238,MET,increases,"positive regulation of transcription, DNA-templated ",http://geneontology.org/docs/go-enrichment-analysis/,https://amp.pharm.mssm.edu/Enrichr/
239,TP53,increases,"positive regulation of transcription, DNA-templated ",http://geneontology.org/docs/go-enrichment-analysis/,https://amp.pharm.mssm.edu/Enrichr/
241,SMARCA4,increases,"positive regulation of transcription, DNA-templated ",http://geneontology.org/docs/go-enrichment-analysis/,https://amp.pharm.mssm.edu/Enrichr/
248,NF1,increases,small GTPase mediated signal transduction ,http://geneontology.org/docs/go-enrichment-analysis/,https://amp.pharm.mssm.edu/Enrichr/
250,TP53,increases,small GTPase mediated signal transduction ,http://geneontology.org/docs/go-enrichment-analysis/,https://amp.pharm.mssm.edu/Enrichr/
254,TP53,increases,regulation of cell growth ,http://geneontology.org/docs/go-enrichment-analysis/,https://amp.pharm.mssm.edu/Enrichr/
256,SMARCA4,increases,regulation of cell growth ,http://geneontology.org/docs/go-enrichment-analysis/,https://amp.pharm.mssm.edu/Enrichr/
260,TP53,increases,negative regulation of cell growth ,http://geneontology.org/docs/go-enrichment-analysis/,https://amp.pharm.mssm.edu/Enrichr/
261,SMARCA4,increases,negative regulation of cell growth ,http://geneontology.org/docs/go-enrichment-analysis/,https://amp.pharm.mssm.edu/Enrichr/
268,TP53,increases,negative regulation of cellular process ,http://geneontology.org/docs/go-enrichment-analysis/,https://amp.pharm.mssm.edu/Enrichr/
269,SMARCA4,increases,negative regulation of cellular process ,http://geneontology.org/docs/go-enrichment-analysis/,https://amp.pharm.mssm.edu/Enrichr/
275,NF1,increases,negative regulation of cell proliferation ,http://geneontology.org/docs/go-enrichment-analysis/,https://amp.pharm.mssm.edu/Enrichr/
276,TP53,increases,negative regulation of cell proliferation ,http://geneontology.org/docs/go-enrichment-analysis/,https://amp.pharm.mssm.edu/Enrichr/
280,TP53,increases,negative regulation of growth ,http://geneontology.org/docs/go-enrichment-analysis/,https://amp.pharm.mssm.edu/Enrichr/
281,SMARCA4,increases,negative regulation of growth ,http://geneontology.org/docs/go-enrichment-analysis/,https://amp.pharm.mssm.edu/Enrichr/
284,EPHA3,increases,peptidyl-tyrosine modification ,http://geneontology.org/docs/go-enrichment-analysis/,https://amp.pharm.mssm.edu/Enrichr/
295,EPHA3,increases,transmembrane receptor protein tyrosine kinase signaling pathway ,http://geneontology.org/docs/go-enrichment-analysis/,https://amp.pharm.mssm.edu/Enrichr/
297,TERT,increases,positive regulation of cell proliferation ,http://geneontology.org/docs/go-enrichment-analysis/,https://amp.pharm.mssm.edu/Enrichr/
306,TERT,increases,positive regulation of transcription from RNA polymerase II promoter ,http://geneontology.org/docs/go-enrichment-analysis/,https://amp.pharm.mssm.edu/Enrichr/
308,MET,increases,positive regulation of transcription from RNA polymerase II promoter ,http://geneontology.org/docs/go-enrichment-analysis/,https://amp.pharm.mssm.edu/Enrichr/
309,TP53,increases,positive regulation of transcription from RNA polymerase II promoter ,http://geneontology.org/docs/go-enrichment-analysis/,https://amp.pharm.mssm.edu/Enrichr/
311,SMARCA4,increases,positive regulation of transcription from RNA polymerase II promoter ,http://geneontology.org/docs/go-enrichment-analysis/,https://amp.pharm.mssm.edu/Enrichr/
315,TERT,increases,positive regulation of pri-miRNA transcription from RNA polymerase II promoter ,http://geneontology.org/docs/go-enrichment-analysis/,https://amp.pharm.mssm.edu/Enrichr/
316,TP53,increases,positive regulation of pri-miRNA transcription from RNA polymerase II promoter ,http://geneontology.org/docs/go-enrichment-analysis/,https://amp.pharm.mssm.edu/Enrichr/
317,SMARCA4,increases,positive regulation of pri-miRNA transcription from RNA polymerase II promoter ,http://geneontology.org/docs/go-enrichment-analysis/,https://amp.pharm.mssm.edu/Enrichr/
329,SMARCA4,increases,nucleosome organization ,http://geneontology.org/docs/go-enrichment-analysis/,https://amp.pharm.mssm.edu/Enrichr/
332,EPHA3,increases,peptidyl-tyrosine phosphorylation ,http://geneontology.org/docs/go-enrichment-analysis/,https://amp.pharm.mssm.edu/Enrichr/
341,NF1,increases,regulation of cell migration ,http://geneontology.org/docs/go-enrichment-analysis/,https://amp.pharm.mssm.edu/Enrichr/
351,TP53,increases,positive regulation of nucleic acid-templated transcription ,http://geneontology.org/docs/go-enrichment-analysis/,https://amp.pharm.mssm.edu/Enrichr/
353,SMARCA4,increases,positive regulation of nucleic acid-templated transcription ,http://geneontology.org/docs/go-enrichment-analysis/,https://amp.pharm.mssm.edu/Enrichr/
354,TERT,increases,regulation of pri-miRNA transcription from RNA polymerase II promoter ,http://geneontology.org/docs/go-enrichment-analysis/,https://amp.pharm.mssm.edu/Enrichr/
355,TP53,increases,regulation of pri-miRNA transcription from RNA polymerase II promoter ,http://geneontology.org/docs/go-enrichment-analysis/,https://amp.pharm.mssm.edu/Enrichr/
356,SMARCA4,increases,regulation of pri-miRNA transcription from RNA polymerase II promoter ,http://geneontology.org/docs/go-enrichment-analysis/,https://amp.pharm.mssm.edu/Enrichr/
365,TERT,increases,beta-catenin-TCF complex assembly ,http://geneontology.org/docs/go-enrichment-analysis/,https://amp.pharm.mssm.edu/Enrichr/
366,SMARCA4,increases,beta-catenin-TCF complex assembly ,http://geneontology.org/docs/go-enrichment-analysis/,https://amp.pharm.mssm.edu/Enrichr/
369,NF1,increases,Ras protein signal transduction ,http://geneontology.org/docs/go-enrichment-analysis/,https://amp.pharm.mssm.edu/Enrichr/
371,TP53,increases,Ras protein signal transduction ,http://geneontology.org/docs/go-enrichment-analysis/,https://amp.pharm.mssm.edu/Enrichr/
375,SMARCA4,increases,chromatin remodeling ,http://geneontology.org/docs/go-enrichment-analysis/,https://amp.pharm.mssm.edu/Enrichr/
378,TERT,increases,negative regulation of gene expression ,http://geneontology.org/docs/go-enrichment-analysis/,https://amp.pharm.mssm.edu/Enrichr/
381,TP53,increases,negative regulation of gene expression ,http://geneontology.org/docs/go-enrichment-analysis/,https://amp.pharm.mssm.edu/Enrichr/
382,SMARCA4,increases,negative regulation of gene expression ,http://geneontology.org/docs/go-enrichment-analysis/,https://amp.pharm.mssm.edu/Enrichr/
385,TP53,increases,signal transduction by p53 class mediator ,http://geneontology.org/docs/go-enrichment-analysis/,https://amp.pharm.mssm.edu/Enrichr/
396,MET,increases,regulation of transcription from RNA polymerase II promoter ,http://geneontology.org/docs/go-enrichment-analysis/,https://amp.pharm.mssm.edu/Enrichr/
397,TP53,increases,regulation of transcription from RNA polymerase II promoter ,http://geneontology.org/docs/go-enrichment-analysis/,https://amp.pharm.mssm.edu/Enrichr/
399,SMARCA4,increases,regulation of transcription from RNA polymerase II promoter ,http://geneontology.org/docs/go-enrichment-analysis/,https://amp.pharm.mssm.edu/Enrichr/
402,MET,increases,positive regulation of protein kinase B signaling ,http://geneontology.org/docs/go-enrichment-analysis/,https://amp.pharm.mssm.edu/Enrichr/
413,MET,increases,positive regulation of chemotaxis ,http://geneontology.org/docs/go-enrichment-analysis/,https://amp.pharm.mssm.edu/Enrichr/
425,NF1,increases,regulation of cell-matrix adhesion ,http://geneontology.org/docs/go-enrichment-analysis/,https://amp.pharm.mssm.edu/Enrichr/
426,EPHA3,increases,regulation of cell-matrix adhesion ,http://geneontology.org/docs/go-enrichment-analysis/,https://amp.pharm.mssm.edu/Enrichr/
434,TP53,increases,"regulation of transcription, DNA-templated ",http://geneontology.org/docs/go-enrichment-analysis/,https://amp.pharm.mssm.edu/Enrichr/
436,SMARCA4,increases,"regulation of transcription, DNA-templated ",http://geneontology.org/docs/go-enrichment-analysis/,https://amp.pharm.mssm.edu/Enrichr/
449,MET,increases,regulation of protein kinase B signaling ,http://geneontology.org/docs/go-enrichment-analysis/,https://amp.pharm.mssm.edu/Enrichr/
456,NF1,increases,negative regulation of protein serine/threonine kinase activity ,http://geneontology.org/docs/go-enrichment-analysis/,https://amp.pharm.mssm.edu/Enrichr/
462,MET,increases,positive regulation of endothelial cell chemotaxis ,http://geneontology.org/docs/go-enrichment-analysis/,https://amp.pharm.mssm.edu/Enrichr/
465,TERT,increases,protein complex assembly ,http://geneontology.org/docs/go-enrichment-analysis/,https://amp.pharm.mssm.edu/Enrichr/
466,SMARCA4,increases,protein complex assembly ,http://geneontology.org/docs/go-enrichment-analysis/,https://amp.pharm.mssm.edu/Enrichr/
472,TP53,increases,response to ionizing radiation ,http://geneontology.org/docs/go-enrichment-analysis/,https://amp.pharm.mssm.edu/Enrichr/
476,TP53,increases,response to X-ray ,http://geneontology.org/docs/go-enrichment-analysis/,https://amp.pharm.mssm.edu/Enrichr/
477,TERT,increases,"protein localization to chromosome, telomeric region ",http://geneontology.org/docs/go-enrichment-analysis/,https://amp.pharm.mssm.edu/Enrichr/
485,NF1,increases,regulation of hydrolase activity ,http://geneontology.org/docs/go-enrichment-analysis/,https://amp.pharm.mssm.edu/Enrichr/
486,EPHA3,increases,regulation of hydrolase activity ,http://geneontology.org/docs/go-enrichment-analysis/,https://amp.pharm.mssm.edu/Enrichr/
496,TP53,increases,"DNA damage response, signal transduction by p53 class mediator ",http://geneontology.org/docs/go-enrichment-analysis/,https://amp.pharm.mssm.edu/Enrichr/
517,TP53,increases,cellular response to gamma radiation ,http://geneontology.org/docs/go-enrichment-analysis/,https://amp.pharm.mssm.edu/Enrichr/
518,NF1,increases,negative regulation of fibroblast proliferation ,http://geneontology.org/docs/go-enrichment-analysis/,https://amp.pharm.mssm.edu/Enrichr/
519,TP53,increases,negative regulation of fibroblast proliferation ,http://geneontology.org/docs/go-enrichment-analysis/,https://amp.pharm.mssm.edu/Enrichr/
521,SMARCA4,increases,nucleosome disassembly ,http://geneontology.org/docs/go-enrichment-analysis/,https://amp.pharm.mssm.edu/Enrichr/
523,SMARCA4,increases,chromatin disassembly ,http://geneontology.org/docs/go-enrichment-analysis/,https://amp.pharm.mssm.edu/Enrichr/
524,NF1,increases,positive regulation of neuron apoptotic process ,http://geneontology.org/docs/go-enrichment-analysis/,https://amp.pharm.mssm.edu/Enrichr/
525,TP53,increases,positive regulation of neuron apoptotic process ,http://geneontology.org/docs/go-enrichment-analysis/,https://amp.pharm.mssm.edu/Enrichr/
526,TP53,increases,positive regulation of protein localization to membrane ,http://geneontology.org/docs/go-enrichment-analysis/,https://amp.pharm.mssm.edu/Enrichr/
527,EPHA3,increases,positive regulation of protein localization to membrane ,http://geneontology.org/docs/go-enrichment-analysis/,https://amp.pharm.mssm.edu/Enrichr/
532,SMARCA4,increases,protein-DNA complex disassembly ,http://geneontology.org/docs/go-enrichment-analysis/,https://amp.pharm.mssm.edu/Enrichr/
535,NF1,increases,hepaticobiliary system development ,http://geneontology.org/docs/go-enrichment-analysis/,https://amp.pharm.mssm.edu/Enrichr/
536,MET,increases,hepaticobiliary system development ,http://geneontology.org/docs/go-enrichment-analysis/,https://amp.pharm.mssm.edu/Enrichr/
540,TP53,increases,negative regulation of nucleic acid-templated transcription ,http://geneontology.org/docs/go-enrichment-analysis/,https://amp.pharm.mssm.edu/Enrichr/
541,SMARCA4,increases,negative regulation of nucleic acid-templated transcription ,http://geneontology.org/docs/go-enrichment-analysis/,https://amp.pharm.mssm.edu/Enrichr/
544,NF1,increases,negative regulation of transcription factor import into nucleus ,http://geneontology.org/docs/go-enrichment-analysis/,https://amp.pharm.mssm.edu/Enrichr/
549,TP53,increases,protein deubiquitination ,http://geneontology.org/docs/go-enrichment-analysis/,https://amp.pharm.mssm.edu/Enrichr/
551,NF1,increases,positive regulation of programmed cell death ,http://geneontology.org/docs/go-enrichment-analysis/,https://amp.pharm.mssm.edu/Enrichr/
553,TP53,increases,positive regulation of programmed cell death ,http://geneontology.org/docs/go-enrichment-analysis/,https://amp.pharm.mssm.edu/Enrichr/
556,NF1,increases,circulatory system development ,http://geneontology.org/docs/go-enrichment-analysis/,https://amp.pharm.mssm.edu/Enrichr/
560,TP53,increases,protein modification by small protein removal ,http://geneontology.org/docs/go-enrichment-analysis/,https://amp.pharm.mssm.edu/Enrichr/
561,TERT,increases,regulation of cellular senescence ,http://geneontology.org/docs/go-enrichment-analysis/,https://amp.pharm.mssm.edu/Enrichr/
564,TP53,increases,signal transduction in response to DNA damage ,http://geneontology.org/docs/go-enrichment-analysis/,https://amp.pharm.mssm.edu/Enrichr/
568,TP53,increases,positive regulation of macromolecule metabolic process ,http://geneontology.org/docs/go-enrichment-analysis/,https://amp.pharm.mssm.edu/Enrichr/
570,EPHA3,increases,regulation of microtubule-based process ,http://geneontology.org/docs/go-enrichment-analysis/,https://amp.pharm.mssm.edu/Enrichr/
572,TP53,increases,response to gamma radiation ,http://geneontology.org/docs/go-enrichment-analysis/,https://amp.pharm.mssm.edu/Enrichr/
579,TERT,increases,negative regulation of macromolecule metabolic process ,http://geneontology.org/docs/go-enrichment-analysis/,https://amp.pharm.mssm.edu/Enrichr/
586,TP53,increases,negative regulation of cellular macromolecule biosynthetic process ,http://geneontology.org/docs/go-enrichment-analysis/,https://amp.pharm.mssm.edu/Enrichr/
587,SMARCA4,increases,negative regulation of cellular macromolecule biosynthetic process ,http://geneontology.org/docs/go-enrichment-analysis/,https://amp.pharm.mssm.edu/Enrichr/
589,NF1,increases,phosphatidylinositol 3-kinase signaling ,http://geneontology.org/docs/go-enrichment-analysis/,https://amp.pharm.mssm.edu/Enrichr/
591,TP53,increases,regulation of protein export from nucleus ,http://geneontology.org/docs/go-enrichment-analysis/,https://amp.pharm.mssm.edu/Enrichr/
592,NF1,increases,liver development ,http://geneontology.org/docs/go-enrichment-analysis/,https://amp.pharm.mssm.edu/Enrichr/
593,MET,increases,liver development ,http://geneontology.org/docs/go-enrichment-analysis/,https://amp.pharm.mssm.edu/Enrichr/
595,NF1,increases,positive regulation of apoptotic process ,http://geneontology.org/docs/go-enrichment-analysis/,https://amp.pharm.mssm.edu/Enrichr/
597,TP53,increases,positive regulation of apoptotic process ,http://geneontology.org/docs/go-enrichment-analysis/,https://amp.pharm.mssm.edu/Enrichr/
602,TP53,increases,regulation of signal transduction by p53 class mediator ,http://geneontology.org/docs/go-enrichment-analysis/,https://amp.pharm.mssm.edu/Enrichr/
603,TERT,increases,DNA metabolic process ,http://geneontology.org/docs/go-enrichment-analysis/,https://amp.pharm.mssm.edu/Enrichr/
606,TP53,increases,DNA metabolic process ,http://geneontology.org/docs/go-enrichment-analysis/,https://amp.pharm.mssm.edu/Enrichr/
