,subject,relation,obj,citations,db_url
419,KRAS,controls-phosphorylation-of,BRAF,https://www.ncbi.nlm.nih.gov/pubmed,https://www.ncbi.nlm.nih.gov/pubmed
420,KRAS,controls-state-change-of,BRAF,https://www.ncbi.nlm.nih.gov/pubmed,https://www.ncbi.nlm.nih.gov/pubmed
421,KRAS,controls-transport-of,BRAF,https://www.ncbi.nlm.nih.gov/pubmed,https://www.ncbi.nlm.nih.gov/pubmed
422,KRAS,in-complex-with,NF1,https://www.ncbi.nlm.nih.gov/pubmed,https://www.ncbi.nlm.nih.gov/pubmed
423,KRAS,controls-state-change-of,PIK3CA,https://www.ncbi.nlm.nih.gov/pubmed,https://www.ncbi.nlm.nih.gov/pubmed
424,KRAS,in-complex-with,PIK3CA,https://www.ncbi.nlm.nih.gov/pubmed,https://www.ncbi.nlm.nih.gov/pubmed
425,KRAS,controls-state-change-of,TP53,https://www.ncbi.nlm.nih.gov/pubmed,https://www.ncbi.nlm.nih.gov/pubmed
