,subject,relation,obj,citations,db_url
25,ANGPT1,controls-state-change-of,KRAS,https://www.ncbi.nlm.nih.gov/pubmed,https://www.ncbi.nlm.nih.gov/pubmed
28,ARAF,controls-phosphorylation-of,BRAF,https://www.ncbi.nlm.nih.gov/pubmed,https://www.ncbi.nlm.nih.gov/pubmed
29,ARAF,controls-state-change-of,BRAF,https://www.ncbi.nlm.nih.gov/pubmed,https://www.ncbi.nlm.nih.gov/pubmed
30,ARAF,controls-transport-of,BRAF,https://www.ncbi.nlm.nih.gov/pubmed,https://www.ncbi.nlm.nih.gov/pubmed
31,ARAF,in-complex-with,BRAF,https://www.ncbi.nlm.nih.gov/pubmed,https://www.ncbi.nlm.nih.gov/pubmed
32,ARAF,controls-state-change-of,KRAS,https://www.ncbi.nlm.nih.gov/pubmed,https://www.ncbi.nlm.nih.gov/pubmed
33,ARAF,in-complex-with,KRAS,https://www.ncbi.nlm.nih.gov/pubmed,https://www.ncbi.nlm.nih.gov/pubmed
120,CD86,in-complex-with,PIK3CA,https://www.ncbi.nlm.nih.gov/pubmed,https://www.ncbi.nlm.nih.gov/pubmed
179,CSF2RA,controls-state-change-of,KRAS,https://www.ncbi.nlm.nih.gov/pubmed,https://www.ncbi.nlm.nih.gov/pubmed
187,CUL3,in-complex-with,KEAP1,https://www.ncbi.nlm.nih.gov/pubmed,https://www.ncbi.nlm.nih.gov/pubmed
245,EPHA3,controls-state-change-of,PIK3CA,https://www.ncbi.nlm.nih.gov/pubmed,https://www.ncbi.nlm.nih.gov/pubmed
275,FGA,in-complex-with,KRAS,https://www.ncbi.nlm.nih.gov/pubmed,https://www.ncbi.nlm.nih.gov/pubmed
295,FGF2,controls-state-change-of,KRAS,https://www.ncbi.nlm.nih.gov/pubmed,https://www.ncbi.nlm.nih.gov/pubmed
296,FGF2,in-complex-with,PIK3CA,https://www.ncbi.nlm.nih.gov/pubmed,https://www.ncbi.nlm.nih.gov/pubmed
331,FRS3,controls-state-change-of,KRAS,https://www.ncbi.nlm.nih.gov/pubmed,https://www.ncbi.nlm.nih.gov/pubmed
342,GATAD2B,in-complex-with,SMARCA4,https://www.ncbi.nlm.nih.gov/pubmed,https://www.ncbi.nlm.nih.gov/pubmed
343,GDNF,controls-state-change-of,KRAS,https://www.ncbi.nlm.nih.gov/pubmed,https://www.ncbi.nlm.nih.gov/pubmed
355,GRIN1,controls-state-change-of,KRAS,https://www.ncbi.nlm.nih.gov/pubmed,https://www.ncbi.nlm.nih.gov/pubmed
367,HGF,controls-state-change-of,KRAS,https://www.ncbi.nlm.nih.gov/pubmed,https://www.ncbi.nlm.nih.gov/pubmed
368,HGF,in-complex-with,MET,https://www.ncbi.nlm.nih.gov/pubmed,https://www.ncbi.nlm.nih.gov/pubmed
369,HGF,controls-state-change-of,PIK3CA,https://www.ncbi.nlm.nih.gov/pubmed,https://www.ncbi.nlm.nih.gov/pubmed
370,HGF,in-complex-with,PIK3CA,https://www.ncbi.nlm.nih.gov/pubmed,https://www.ncbi.nlm.nih.gov/pubmed
400,ITGB3,in-complex-with,KRAS,https://www.ncbi.nlm.nih.gov/pubmed,https://www.ncbi.nlm.nih.gov/pubmed
406,JAK3,controls-state-change-of,KRAS,https://www.ncbi.nlm.nih.gov/pubmed,https://www.ncbi.nlm.nih.gov/pubmed
411,KIT,controls-state-change-of,KRAS,https://www.ncbi.nlm.nih.gov/pubmed,https://www.ncbi.nlm.nih.gov/pubmed
414,KIT,in-complex-with,PIK3CA,https://www.ncbi.nlm.nih.gov/pubmed,https://www.ncbi.nlm.nih.gov/pubmed
450,MET,controls-state-change-of,KRAS,https://www.ncbi.nlm.nih.gov/pubmed,https://www.ncbi.nlm.nih.gov/pubmed
451,MET,controls-state-change-of,PIK3CA,https://www.ncbi.nlm.nih.gov/pubmed,https://www.ncbi.nlm.nih.gov/pubmed
452,MET,in-complex-with,PIK3CA,https://www.ncbi.nlm.nih.gov/pubmed,https://www.ncbi.nlm.nih.gov/pubmed
463,NCAM1,controls-state-change-of,KRAS,https://www.ncbi.nlm.nih.gov/pubmed,https://www.ncbi.nlm.nih.gov/pubmed
467,NF1,controls-expression-of,ALK,https://www.ncbi.nlm.nih.gov/pubmed,https://www.ncbi.nlm.nih.gov/pubmed
468,NF1,controls-expression-of,EPHA3,https://www.ncbi.nlm.nih.gov/pubmed,https://www.ncbi.nlm.nih.gov/pubmed
469,NF1,controls-expression-of,EPHA5,https://www.ncbi.nlm.nih.gov/pubmed,https://www.ncbi.nlm.nih.gov/pubmed
470,NF1,controls-state-change-of,KRAS,https://www.ncbi.nlm.nih.gov/pubmed,https://www.ncbi.nlm.nih.gov/pubmed
471,NF1,controls-expression-of,NTRK3,https://www.ncbi.nlm.nih.gov/pubmed,https://www.ncbi.nlm.nih.gov/pubmed
472,NF1,in-complex-with,PIK3CA,https://www.ncbi.nlm.nih.gov/pubmed,https://www.ncbi.nlm.nih.gov/pubmed
542,RAPGEF2,controls-state-change-of,KRAS,https://www.ncbi.nlm.nih.gov/pubmed,https://www.ncbi.nlm.nih.gov/pubmed
574,RPA2,controls-phosphorylation-of,TP53,https://www.ncbi.nlm.nih.gov/pubmed,https://www.ncbi.nlm.nih.gov/pubmed
575,RPA2,controls-state-change-of,TP53,https://www.ncbi.nlm.nih.gov/pubmed,https://www.ncbi.nlm.nih.gov/pubmed
586,SIN3A,in-complex-with,SMARCA4,https://www.ncbi.nlm.nih.gov/pubmed,https://www.ncbi.nlm.nih.gov/pubmed
603,SMARCA4,in-complex-with,TERT,https://www.ncbi.nlm.nih.gov/pubmed,https://www.ncbi.nlm.nih.gov/pubmed
610,SPTBN2,controls-state-change-of,KRAS,https://www.ncbi.nlm.nih.gov/pubmed,https://www.ncbi.nlm.nih.gov/pubmed
637,TP53,controls-expression-of,APC,https://www.ncbi.nlm.nih.gov/pubmed,https://www.ncbi.nlm.nih.gov/pubmed
638,TP53,controls-expression-of,BRAF,https://www.ncbi.nlm.nih.gov/pubmed,https://www.ncbi.nlm.nih.gov/pubmed
639,TP53,controls-expression-of,CDKN2A,https://www.ncbi.nlm.nih.gov/pubmed,https://www.ncbi.nlm.nih.gov/pubmed
640,TP53,controls-expression-of,EGFR,https://www.ncbi.nlm.nih.gov/pubmed,https://www.ncbi.nlm.nih.gov/pubmed
641,TP53,controls-expression-of,MET,https://www.ncbi.nlm.nih.gov/pubmed,https://www.ncbi.nlm.nih.gov/pubmed
642,TP53,controls-expression-of,NTRK3,https://www.ncbi.nlm.nih.gov/pubmed,https://www.ncbi.nlm.nih.gov/pubmed
643,TP53,controls-expression-of,RB1,https://www.ncbi.nlm.nih.gov/pubmed,https://www.ncbi.nlm.nih.gov/pubmed
644,TP53,controls-expression-of,STK11,https://www.ncbi.nlm.nih.gov/pubmed,https://www.ncbi.nlm.nih.gov/pubmed
645,TP53,controls-expression-of,TERT,https://www.ncbi.nlm.nih.gov/pubmed,https://www.ncbi.nlm.nih.gov/pubmed
