[
    {
        "nanopub": {
            "id": "shradha_pat4_v1_PCViz_1",
            "type": {
                "name": "BEL",
                "version": "2.1.0"
            },
            "citation": {
                "uri": "https://www.ncbi.nlm.nih.gov/pubmed"
            },
            "assertions": [
                {
                    "subject": "p(HGNC:DLG1)",
                    "relation": "controls-state-change-of",
                    "object": "p(HGNC:KRAS)"
                }
            ],
            "annotations": [
                {
                    "type": "Species",
                    "id": "TAX:9606",
                    "label": "human"
                }
            ],
            "database": {
                "uri_db": "https://www.ncbi.nlm.nih.gov/pubmed"
            },
            "metadata": {
                "project": "BMI593_BEL_NSCLC_Fall2019_pat4_v1",
                "gd_creator": "shradha_pat4_v1",
                "note": "DLG1 acts as controls-state-change-of of p(HGNC:KRAS). This relation may or may not hold true in the context of NSCLC."
            }
        }
    }
]