,subject,relation,obj,citations,db_url
6,MET,increases,negative regulation of cell communication ,http://geneontology.org/docs/go-enrichment-analysis/,https://amp.pharm.mssm.edu/Enrichr/
16,MET,increases,negative regulation of response to stimulus ,http://geneontology.org/docs/go-enrichment-analysis/,https://amp.pharm.mssm.edu/Enrichr/
25,MET,increases,negative regulation of signaling ,http://geneontology.org/docs/go-enrichment-analysis/,https://amp.pharm.mssm.edu/Enrichr/
34,MET,increases,regulation of kinase activity ,http://geneontology.org/docs/go-enrichment-analysis/,https://amp.pharm.mssm.edu/Enrichr/
44,KRAS,increases,positive regulation of protein phosphorylation ,http://geneontology.org/docs/go-enrichment-analysis/,https://amp.pharm.mssm.edu/Enrichr/
45,MET,increases,positive regulation of protein phosphorylation ,http://geneontology.org/docs/go-enrichment-analysis/,https://amp.pharm.mssm.edu/Enrichr/
56,MET,increases,regulation of ERK1 and ERK2 cascade ,http://geneontology.org/docs/go-enrichment-analysis/,https://amp.pharm.mssm.edu/Enrichr/
64,MET,increases,positive regulation of kinase activity ,http://geneontology.org/docs/go-enrichment-analysis/,https://amp.pharm.mssm.edu/Enrichr/
73,MET,increases,positive regulation of ERK1 and ERK2 cascade ,http://geneontology.org/docs/go-enrichment-analysis/,https://amp.pharm.mssm.edu/Enrichr/
82,MET,increases,regulation of MAPK cascade ,http://geneontology.org/docs/go-enrichment-analysis/,https://amp.pharm.mssm.edu/Enrichr/
90,KRAS,increases,positive regulation of phosphorylation ,http://geneontology.org/docs/go-enrichment-analysis/,https://amp.pharm.mssm.edu/Enrichr/
91,MET,increases,positive regulation of phosphorylation ,http://geneontology.org/docs/go-enrichment-analysis/,https://amp.pharm.mssm.edu/Enrichr/
99,MET,increases,positive regulation of transferase activity ,http://geneontology.org/docs/go-enrichment-analysis/,https://amp.pharm.mssm.edu/Enrichr/
108,MET,increases,regulation of signal transduction ,http://geneontology.org/docs/go-enrichment-analysis/,https://amp.pharm.mssm.edu/Enrichr/
121,MET,increases,regulation of apoptotic process ,http://geneontology.org/docs/go-enrichment-analysis/,https://amp.pharm.mssm.edu/Enrichr/
131,MET,increases,negative regulation of apoptotic process ,http://geneontology.org/docs/go-enrichment-analysis/,https://amp.pharm.mssm.edu/Enrichr/
141,MET,increases,negative regulation of signal transduction ,http://geneontology.org/docs/go-enrichment-analysis/,https://amp.pharm.mssm.edu/Enrichr/
150,MET,increases,negative regulation of programmed cell death ,http://geneontology.org/docs/go-enrichment-analysis/,https://amp.pharm.mssm.edu/Enrichr/
160,MET,increases,positive regulation of MAPK cascade ,http://geneontology.org/docs/go-enrichment-analysis/,https://amp.pharm.mssm.edu/Enrichr/
169,MET,increases,positive regulation of intracellular signal transduction ,http://geneontology.org/docs/go-enrichment-analysis/,https://amp.pharm.mssm.edu/Enrichr/
185,KRAS,increases,regulation of cell proliferation ,http://geneontology.org/docs/go-enrichment-analysis/,https://amp.pharm.mssm.edu/Enrichr/
202,KRAS,increases,positive regulation of gene expression ,http://geneontology.org/docs/go-enrichment-analysis/,https://amp.pharm.mssm.edu/Enrichr/
211,KRAS,increases,MAPK cascade ,http://geneontology.org/docs/go-enrichment-analysis/,https://amp.pharm.mssm.edu/Enrichr/
212,MET,increases,MAPK cascade ,http://geneontology.org/docs/go-enrichment-analysis/,https://amp.pharm.mssm.edu/Enrichr/
223,KRAS,increases,regulation of gene expression ,http://geneontology.org/docs/go-enrichment-analysis/,https://amp.pharm.mssm.edu/Enrichr/
238,MET,increases,"positive regulation of transcription, DNA-templated ",http://geneontology.org/docs/go-enrichment-analysis/,https://amp.pharm.mssm.edu/Enrichr/
244,KRAS,increases,ERBB2 signaling pathway ,http://geneontology.org/docs/go-enrichment-analysis/,https://amp.pharm.mssm.edu/Enrichr/
249,KRAS,increases,small GTPase mediated signal transduction ,http://geneontology.org/docs/go-enrichment-analysis/,https://amp.pharm.mssm.edu/Enrichr/
301,KRAS,increases,positive regulation of cell proliferation ,http://geneontology.org/docs/go-enrichment-analysis/,https://amp.pharm.mssm.edu/Enrichr/
308,MET,increases,positive regulation of transcription from RNA polymerase II promoter ,http://geneontology.org/docs/go-enrichment-analysis/,https://amp.pharm.mssm.edu/Enrichr/
324,KRAS,increases,positive regulation of protein modification process ,http://geneontology.org/docs/go-enrichment-analysis/,https://amp.pharm.mssm.edu/Enrichr/
336,KRAS,increases,ERBB signaling pathway ,http://geneontology.org/docs/go-enrichment-analysis/,https://amp.pharm.mssm.edu/Enrichr/
362,KRAS,increases,positive regulation of cellular process ,http://geneontology.org/docs/go-enrichment-analysis/,https://amp.pharm.mssm.edu/Enrichr/
370,KRAS,increases,Ras protein signal transduction ,http://geneontology.org/docs/go-enrichment-analysis/,https://amp.pharm.mssm.edu/Enrichr/
386,PTPRD,increases,enzyme linked receptor protein signaling pathway ,http://geneontology.org/docs/go-enrichment-analysis/,https://amp.pharm.mssm.edu/Enrichr/
396,MET,increases,regulation of transcription from RNA polymerase II promoter ,http://geneontology.org/docs/go-enrichment-analysis/,https://amp.pharm.mssm.edu/Enrichr/
402,MET,increases,positive regulation of protein kinase B signaling ,http://geneontology.org/docs/go-enrichment-analysis/,https://amp.pharm.mssm.edu/Enrichr/
407,KRAS,increases,regulation of protein phosphorylation ,http://geneontology.org/docs/go-enrichment-analysis/,https://amp.pharm.mssm.edu/Enrichr/
413,MET,increases,positive regulation of chemotaxis ,http://geneontology.org/docs/go-enrichment-analysis/,https://amp.pharm.mssm.edu/Enrichr/
419,PTPRD,increases,neuron differentiation ,http://geneontology.org/docs/go-enrichment-analysis/,https://amp.pharm.mssm.edu/Enrichr/
443,KRAS,increases,epidermal growth factor receptor signaling pathway ,http://geneontology.org/docs/go-enrichment-analysis/,https://amp.pharm.mssm.edu/Enrichr/
449,MET,increases,regulation of protein kinase B signaling ,http://geneontology.org/docs/go-enrichment-analysis/,https://amp.pharm.mssm.edu/Enrichr/
462,MET,increases,positive regulation of endothelial cell chemotaxis ,http://geneontology.org/docs/go-enrichment-analysis/,https://amp.pharm.mssm.edu/Enrichr/
536,MET,increases,hepaticobiliary system development ,http://geneontology.org/docs/go-enrichment-analysis/,https://amp.pharm.mssm.edu/Enrichr/
545,KEAP1,increases,negative regulation of transcription factor import into nucleus ,http://geneontology.org/docs/go-enrichment-analysis/,https://amp.pharm.mssm.edu/Enrichr/
548,KEAP1,increases,protein deubiquitination ,http://geneontology.org/docs/go-enrichment-analysis/,https://amp.pharm.mssm.edu/Enrichr/
559,KEAP1,increases,protein modification by small protein removal ,http://geneontology.org/docs/go-enrichment-analysis/,https://amp.pharm.mssm.edu/Enrichr/
567,KRAS,increases,positive regulation of macromolecule metabolic process ,http://geneontology.org/docs/go-enrichment-analysis/,https://amp.pharm.mssm.edu/Enrichr/
593,MET,increases,liver development ,http://geneontology.org/docs/go-enrichment-analysis/,https://amp.pharm.mssm.edu/Enrichr/
609,KEAP1,increases,negative regulation of sequence-specific DNA binding transcription factor activity ,http://geneontology.org/docs/go-enrichment-analysis/,https://amp.pharm.mssm.edu/Enrichr/
