,subject,relation,obj,citations,db_url
256,CHEMBL1201577,antagonist,EGFR,https://www.ncbi.nlm.nih.gov/pubmed/26619011.0,http://www.dgidb.org/interactions/e9e57b7c-5449-44c7-ab25-a5bd55c15f4f#_summary
257,CHEMBL939,antagonist,EGFR,https://www.ncbi.nlm.nih.gov/pubmed/24533047.0,http://www.dgidb.org/interactions/29ec3979-6960-42d6-8389-00809918252c#_summary
258,CHEMBL553,antagonist,EGFR,https://www.ncbi.nlm.nih.gov/pubmed/26619011.0,http://www.dgidb.org/interactions/b50f8eb6-e736-4d55-a2a4-9d9b8bacb2fd#_summary
259,CHEMBL1201827,agonist,EGFR,https://www.ncbi.nlm.nih.gov/pubmed/17355997.0,http://www.dgidb.org/interactions/387c93be-c64d-4bf6-93fa-383ffec7df04#_summary
260,CHEMBL1743047,antibody,EGFR,https://www.ncbi.nlm.nih.gov/pubmed/20197484.0,http://www.dgidb.org/interactions/8f17843c-0104-4363-b620-eb540da4005c#_summary
261,CHEMBL3707348,inhibitor,EGFR,https://www.ncbi.nlm.nih.gov/pubmed/nan,http://www.dgidb.org/interactions/336eb289-2362-4455-961b-09eff1b4a180#_summary
262,CHEMBL587723,inhibitor,EGFR,https://www.ncbi.nlm.nih.gov/pubmed/18227510.0,http://www.dgidb.org/interactions/8824166d-92a6-4f64-844b-c6f0637749a4#_summary
263,CHEMBL1173655,inhibitor,EGFR,https://www.ncbi.nlm.nih.gov/pubmed/26619011.0,http://www.dgidb.org/interactions/bc17a027-1798-44c7-8b75-33fc62017aaf#_summary
264,CHEMBL7917,inhibitor,EGFR,https://www.ncbi.nlm.nih.gov/pubmed/nan,http://www.dgidb.org/interactions/728d31ed-8e25-4d15-a5fd-17477274f9a2#_summary
265,CHEMBL56543,inhibitor,EGFR,https://www.ncbi.nlm.nih.gov/pubmed/nan,http://www.dgidb.org/interactions/51e1b665-bb5d-416f-818e-c1056afd6bb3#_summary
266,CHEMBL3545246,inhibitor,EGFR,https://www.ncbi.nlm.nih.gov/pubmed/26208524.0,http://www.dgidb.org/interactions/208b6288-5522-4f80-8321-3c1a7f9a78f8#_summary
267,CHEMBL1645462,inhibitor,EGFR,https://www.ncbi.nlm.nih.gov/pubmed/21576284.0,http://www.dgidb.org/interactions/15361d8c-44df-4a17-850b-87ecccece0d8#_summary
268,CHEMBL3545396,inhibitor,EGFR,https://www.ncbi.nlm.nih.gov/pubmed/23490650.0,http://www.dgidb.org/interactions/d53b2492-3d94-472b-936d-2bcfcfb1950e#_summary
269,CHEMBL174426,inhibitor,EGFR,https://www.ncbi.nlm.nih.gov/pubmed/nan,http://www.dgidb.org/interactions/1bc5b3fe-5acb-494e-bd58-8658cc2f718e#_summary
270,CHEMBL3545311,inhibitor,EGFR,https://www.ncbi.nlm.nih.gov/pubmed/27836716.0,http://www.dgidb.org/interactions/f2a71cd1-6f25-47e0-8065-3ba8a54bc7d8#_summary
271,CHEMBL31965,inhibitor,EGFR,https://www.ncbi.nlm.nih.gov/pubmed/nan,http://www.dgidb.org/interactions/c05eb2ac-9004-488c-814c-0cadcdf02b77#_summary
272,CHEMBL1908309,inhibitor,EGFR,https://www.ncbi.nlm.nih.gov/pubmed/nan,http://www.dgidb.org/interactions/3e1fbb61-7cad-4edc-95b6-9b92c4aea778#_summary
273,CHEMBL598797,inhibitor,EGFR,https://www.ncbi.nlm.nih.gov/pubmed/20388807.0,http://www.dgidb.org/interactions/52c05225-1481-4a65-98eb-ee0802aed93f#_summary
274,CHEMBL2110732,inhibitor,EGFR,https://www.ncbi.nlm.nih.gov/pubmed/24857124.0,http://www.dgidb.org/interactions/e86d80ec-ead5-4ace-beca-fad6e24e63b8#_summary
275,CHEMBL522892,inhibitor,EGFR,https://www.ncbi.nlm.nih.gov/pubmed/nan,http://www.dgidb.org/interactions/9659d54a-995e-46b0-bdbc-2a8d711ee35d#_summary
276,CHEMBL387187,inhibitor,EGFR,https://www.ncbi.nlm.nih.gov/pubmed/22056021.0,http://www.dgidb.org/interactions/cf78a994-88e7-4c58-8641-e1b90e6aed57#_summary
277,CHEMBL258940,inhibitor,EGFR,https://www.ncbi.nlm.nih.gov/pubmed/nan,http://www.dgidb.org/interactions/123e7584-194d-478e-9c52-18ff2280a48a#_summary
278,CHEMBL1873475,inhibitor,EGFR,https://www.ncbi.nlm.nih.gov/pubmed/nan,http://www.dgidb.org/interactions/babdb39b-ab88-4c6b-b87e-145fa03b48b9#_summary
279,CHEMBL2087361,inhibitor,EGFR,https://www.ncbi.nlm.nih.gov/pubmed/24533047.0,http://www.dgidb.org/interactions/0aeda734-e402-4d29-a248-a45ef837c1b5#_summary
280,CHEMBL554,inhibitor,EGFR,https://www.ncbi.nlm.nih.gov/pubmed/27595477.0,http://www.dgidb.org/interactions/1a3b5239-b3a3-4b53-a243-95629e87e97e#_summary
281,CHEMBL3663929,inhibitor,EGFR,https://www.ncbi.nlm.nih.gov/pubmed/nan,http://www.dgidb.org/interactions/bbf21d5b-722b-46cd-a2dc-24d857d6458a#_summary
282,CHEMBL180022,inhibitor,EGFR,https://www.ncbi.nlm.nih.gov/pubmed/20479403.0,http://www.dgidb.org/interactions/8bc04ebd-a849-4db9-9022-a2fafcf1c5ba#_summary
283,CHEMBL3786343,inhibitor,EGFR,https://www.ncbi.nlm.nih.gov/pubmed/nan,http://www.dgidb.org/interactions/2eb4df95-6c78-4a66-9ac3-f5d2e1251f52#_summary
284,CHEMBL274654,inhibitor,EGFR,https://www.ncbi.nlm.nih.gov/pubmed/nan,http://www.dgidb.org/interactions/f8076459-d906-4c81-be42-8290e75a808c#_summary
285,CHEMBL3353410,inhibitor,EGFR,https://www.ncbi.nlm.nih.gov/pubmed/26522274.0,http://www.dgidb.org/interactions/3091c68e-a193-488b-8b58-802e9a1ab585#_summary
286,CHEMBL53753,inhibitor,EGFR,https://www.ncbi.nlm.nih.gov/pubmed/nan,http://www.dgidb.org/interactions/72852c70-b5f3-4b09-aadb-90cb8b00f5ef#_summary
287,CHEMBL607707,inhibitor,EGFR,https://www.ncbi.nlm.nih.gov/pubmed/16710023.0,http://www.dgidb.org/interactions/05cc0a4e-261e-4185-8e11-2fe0f326b2b1#_summary
288,CHEMBL1951415,inhibitor,EGFR,https://www.ncbi.nlm.nih.gov/pubmed/nan,http://www.dgidb.org/interactions/e248b0f5-9511-42b8-a25d-b074bcc75b62#_summary
289,CHEMBL1963502,inhibitor,EGFR,https://www.ncbi.nlm.nih.gov/pubmed/nan,http://www.dgidb.org/interactions/307bf84e-2777-4cc7-be10-8d490efdaab5#_summary
290,CHEMBL3545154,inhibitor,EGFR,https://www.ncbi.nlm.nih.gov/pubmed/nan,http://www.dgidb.org/interactions/5e92e7e3-4037-4743-ac02-08e476c38b80#_summary
291,CHEMBL306380,inhibitor,EGFR,https://www.ncbi.nlm.nih.gov/pubmed/nan,http://www.dgidb.org/interactions/422f6d72-5028-42b7-8e0c-3c038387bc5c#_summary
292,CHEMBL1081312,inhibitor,EGFR,https://www.ncbi.nlm.nih.gov/pubmed/nan,http://www.dgidb.org/interactions/3537bdd1-a75d-4f5d-ba20-a291a4dbec61#_summary
293,CHEMBL3545308,inhibitor,EGFR,https://www.ncbi.nlm.nih.gov/pubmed/24065731.0,http://www.dgidb.org/interactions/46f50fab-2466-4df6-a5e5-0b33c70c0a04#_summary
294,CHEMBL2408045,inhibitor,EGFR,https://www.ncbi.nlm.nih.gov/pubmed/24886365.0,http://www.dgidb.org/interactions/20381c9b-979c-4d0b-924f-213fdeb61326#_summary
295,CHEMBL3544983,inhibitor,EGFR,https://www.ncbi.nlm.nih.gov/pubmed/22722787.0,http://www.dgidb.org/interactions/5ea75ca1-3fd8-430e-b07e-43a3475f3a09#_summary
296,CHEMBL24828,inhibitor,EGFR,https://www.ncbi.nlm.nih.gov/pubmed/25910950.0,http://www.dgidb.org/interactions/d7e34c43-e88c-44f7-b2de-985f674e8465#_summary
297,CHEMBL1229592,inhibitor,EGFR,https://www.ncbi.nlm.nih.gov/pubmed/25964297.0,http://www.dgidb.org/interactions/26790ff0-97bf-45c0-a7a2-9f03be9c3e75#_summary
298,CHEMBL2141478,inhibitor,EGFR,https://www.ncbi.nlm.nih.gov/pubmed/nan,http://www.dgidb.org/interactions/2e257443-9df1-4acc-9ccc-64b61df79a9e#_summary
299,CHEMBL3137345,antibody,EGFR,https://www.ncbi.nlm.nih.gov/pubmed/nan,http://www.dgidb.org/interactions/7d82eab8-957e-453c-9d1f-6c3f391dc754#_summary
300,CHEMBL2109388,antibody,EGFR,https://www.ncbi.nlm.nih.gov/pubmed/26888827.0,http://www.dgidb.org/interactions/f673c6b4-98ef-4658-8691-123e3d0ec503#_summary
301,CHEMBL2108359,antibody,EGFR,https://www.ncbi.nlm.nih.gov/pubmed/25185971.0,http://www.dgidb.org/interactions/7a548843-bb03-48b7-a2b0-8d68ebcb06f3#_summary
302,CHEMBL2109389,antibody,EGFR,https://www.ncbi.nlm.nih.gov/pubmed/23209031.0,http://www.dgidb.org/interactions/a5d34045-fcac-44ed-b2d0-3c2281022346#_summary
303,CHEMBL1078178,inhibitor,EGFR,https://www.ncbi.nlm.nih.gov/pubmed/nan,http://www.dgidb.org/interactions/0d4ca3c8-c6b2-430d-9797-484425269137#_summary
304,CHEMBL2107861,antibody,EGFR,https://www.ncbi.nlm.nih.gov/pubmed/nan,http://www.dgidb.org/interactions/d71496f6-61c4-4b19-b7b6-8942bb165248#_summary
305,CHEMBL1079742,inhibitor,EGFR,https://www.ncbi.nlm.nih.gov/pubmed/nan,http://www.dgidb.org/interactions/16333dab-78a3-47d5-84c7-f722d0f05621#_summary
306,CHEMBL1201179,inhibitor,EGFR,https://www.ncbi.nlm.nih.gov/pubmed/nan,http://www.dgidb.org/interactions/22a671ae-5ca8-473a-8675-b1256f30374a#_summary
307,CHEMBL3707294,antibody,EGFR,https://www.ncbi.nlm.nih.gov/pubmed/25895099.0,http://www.dgidb.org/interactions/bd28c3ac-2557-449b-85cd-7c7e1d379252#_summary
308,CHEMBL3545200,inhibitor,EGFR,https://www.ncbi.nlm.nih.gov/pubmed/24837299.0,http://www.dgidb.org/interactions/148e1829-60a8-4995-8e30-c45579ef4d99#_summary
309,CHEMBL14460,inhibitor,EGFR,https://www.ncbi.nlm.nih.gov/pubmed/nan,http://www.dgidb.org/interactions/0c133079-a9f5-4159-b1e8-965d1206d72f#_summary
310,CHEMBL422872,inhibitor,EGFR,https://www.ncbi.nlm.nih.gov/pubmed/nan,http://www.dgidb.org/interactions/134ded47-914b-4a7c-b411-f7a0ad3ffb0d#_summary
311,CHEMBL730,activator,EGFR,https://www.ncbi.nlm.nih.gov/pubmed/nan,http://www.dgidb.org/interactions/0fc08769-0e01-48e6-b53b-f05d2876a102#_summary
312,CHEMBL2108314,activator,EGFR,https://www.ncbi.nlm.nih.gov/pubmed/nan,http://www.dgidb.org/interactions/e66d529d-6272-4ff7-923f-8e62d9ebbfa1#_summary
313,CHEMBL1614707,inhibitor,EGFR,https://www.ncbi.nlm.nih.gov/pubmed/nan,http://www.dgidb.org/interactions/dfde5fb4-18d6-46c4-bf2b-d68c400a96a2#_summary
314,CHEMBL2105712,inhibitor,EGFR,https://www.ncbi.nlm.nih.gov/pubmed/nan,http://www.dgidb.org/interactions/04f6584e-1f31-4bc0-b658-8fe8b8c6a025#_summary
315,CHEMBL3545063,inhibitor,EGFR,https://www.ncbi.nlm.nih.gov/pubmed/nan,http://www.dgidb.org/interactions/525101ab-a1d5-42f1-93dc-0ac608016c5e#_summary
316,CHEMBL3545244,inhibitor,EGFR,https://www.ncbi.nlm.nih.gov/pubmed/nan,http://www.dgidb.org/interactions/e2279078-db92-4b8d-a28d-19c1e76a7ddd#_summary
317,CHEMBL2029988,inhibitor,EGFR,https://www.ncbi.nlm.nih.gov/pubmed/nan,http://www.dgidb.org/interactions/1d35a087-632e-44b4-a0f4-84cf280482a6#_summary
318,CHEMBL3545430,inhibitor,EGFR,https://www.ncbi.nlm.nih.gov/pubmed/nan,http://www.dgidb.org/interactions/0d54ce33-701e-41d6-880b-59ad2fde9dbc#_summary
319,CHEMBL3545121,inhibitor,EGFR,https://www.ncbi.nlm.nih.gov/pubmed/nan,http://www.dgidb.org/interactions/fe1ce77c-7886-4246-aa8b-d53b80ca3045#_summary
320,CHEMBL3545002,inhibitor,EGFR,https://www.ncbi.nlm.nih.gov/pubmed/nan,http://www.dgidb.org/interactions/54e4719b-9ab6-4db4-a359-f446a67d342c#_summary
321,CHEMBL3545196,inhibitor,EGFR,https://www.ncbi.nlm.nih.gov/pubmed/nan,http://www.dgidb.org/interactions/435b7ab1-cf26-438f-be38-3568c2e74c29#_summary
322,CHEMBL1614725,inhibitor,EGFR,https://www.ncbi.nlm.nih.gov/pubmed/23983820.0,http://www.dgidb.org/interactions/ec02f4ab-db8f-4a6a-acd0-d3f65ba9d046#_summary
323,CHEMBL3544956,inhibitor,EGFR,https://www.ncbi.nlm.nih.gov/pubmed/nan,http://www.dgidb.org/interactions/45f4ef1a-04ea-41fb-b972-1940087bf7b1#_summary
324,CHEMBL2103842,inhibitor,EGFR,https://www.ncbi.nlm.nih.gov/pubmed/nan,http://www.dgidb.org/interactions/c093183a-d90f-4f9c-b4e4-783e9be1af8f#_summary
325,CHEMBL3545234,inhibitor,EGFR,https://www.ncbi.nlm.nih.gov/pubmed/26825170.0,http://www.dgidb.org/interactions/f1aea8dc-cdd6-4252-a415-0b217ddd89b8#_summary
326,CHEMBL545315,inhibitor,EGFR,https://www.ncbi.nlm.nih.gov/pubmed/nan,http://www.dgidb.org/interactions/839bc421-4119-4670-89f9-ebd7b8afed96#_summary
327,CHEMBL2105719,inhibitor,EGFR,https://www.ncbi.nlm.nih.gov/pubmed/nan,http://www.dgidb.org/interactions/8627fe7a-e671-4328-9450-7332d0b98ba4#_summary
328,CHEMBL3545235,inhibitor,EGFR,https://www.ncbi.nlm.nih.gov/pubmed/nan,http://www.dgidb.org/interactions/9c2d02ef-a3b6-4070-8681-433f5482a488#_summary
329,CHEMBL2109390,inhibitor,EGFR,https://www.ncbi.nlm.nih.gov/pubmed/nan,http://www.dgidb.org/interactions/e138b341-0bf8-4042-9137-58c1f737ea09#_summary
330,CHEMBL2109393,antagonist,EGFR,https://www.ncbi.nlm.nih.gov/pubmed/nan,http://www.dgidb.org/interactions/f35c9db7-283a-4234-94a6-864a1f00394c#_summary
331,CHEMBL3545088,inhibitor,EGFR,https://www.ncbi.nlm.nih.gov/pubmed/nan,http://www.dgidb.org/interactions/f1bc8712-364e-4cae-ad66-69b4bd3eafc7#_summary
332,CHEMBL3545180,inhibitor,EGFR,https://www.ncbi.nlm.nih.gov/pubmed/nan,http://www.dgidb.org/interactions/32e8470a-b0a0-40a7-a1bd-373d85e6c516#_summary
333,CHEMBL3545133,inhibitor,EGFR,https://www.ncbi.nlm.nih.gov/pubmed/nan,http://www.dgidb.org/interactions/6d4cb4be-f4b1-4574-bd89-0f0cc836ca1c#_summary
334,CHEMBL2108038,inhibitor,EGFR,https://www.ncbi.nlm.nih.gov/pubmed/nan,http://www.dgidb.org/interactions/b180b58b-5a28-4779-acff-08256f8f9a2d#_summary
335,CHEMBL3184679,association,EGFR,https://www.ncbi.nlm.nih.gov/pubmed/26936917.0,http://www.dgidb.org/interactions/3b9b9b34-d848-4aa6-810a-37878868faad#_summary
336,CHEMBL1200731,association,EGFR,https://www.ncbi.nlm.nih.gov/pubmed/nan,http://www.dgidb.org/interactions/323ae02a-e0c4-4667-8a4f-838ed4817e35#_summary
337,CHEMBL1171837,association,EGFR,https://www.ncbi.nlm.nih.gov/pubmed/22238366.0,http://www.dgidb.org/interactions/94f21d19-7e5c-4d05-aae3-03451963931c#_summary
338,CHEMBL1879463,association,EGFR,https://www.ncbi.nlm.nih.gov/pubmed/23629727.0,http://www.dgidb.org/interactions/92458c67-a13c-4380-a396-de9229d343dd#_summary
339,CHEMBL2103879,association,EGFR,https://www.ncbi.nlm.nih.gov/pubmed/25077897.0,http://www.dgidb.org/interactions/c8d73545-c875-4d3e-b356-0720cb9bbccb#_summary
340,CHEMBL3707227,association,EGFR,https://www.ncbi.nlm.nih.gov/pubmed/27225694.0,http://www.dgidb.org/interactions/cf9a3801-b252-48ec-82b2-5dc5707e721a#_summary
341,CHEMBL1231206,association,EGFR,https://www.ncbi.nlm.nih.gov/pubmed/26140595.0,http://www.dgidb.org/interactions/3c878b46-cdaf-4aa4-89c8-9af7c529c8cd#_summary
342,CHEMBL428647,association,EGFR,https://www.ncbi.nlm.nih.gov/pubmed/24886365.0,http://www.dgidb.org/interactions/926b65ba-17a2-40a0-b348-feef7d309547#_summary
343,CHEMBL3039525,association,EGFR,https://www.ncbi.nlm.nih.gov/pubmed/22789825.0,http://www.dgidb.org/interactions/dfebe309-7c16-4db7-8f91-3d6ce24d763a#_summary
344,CHEMBL1421,association,EGFR,https://www.ncbi.nlm.nih.gov/pubmed/28416483.0,http://www.dgidb.org/interactions/7fd7301d-899f-4c3c-934d-0dd366dce8f5#_summary
345,CHEMBL1765740,association,EGFR,https://www.ncbi.nlm.nih.gov/pubmed/28416483.0,http://www.dgidb.org/interactions/125f7b3b-5b35-4143-9390-ca77570b7edf#_summary
346,CHEMBL2105737,association,EGFR,https://www.ncbi.nlm.nih.gov/pubmed/26124204.0,http://www.dgidb.org/interactions/7297271c-f014-4638-bd8b-bbb256fc3ebf#_summary
347,CHEMBL1614701,association,EGFR,https://www.ncbi.nlm.nih.gov/pubmed/24939055.0,http://www.dgidb.org/interactions/0454f0fd-511b-4734-a900-e74a7343cd77#_summary
348,CHEMBL1229517,association,EGFR,https://www.ncbi.nlm.nih.gov/pubmed/27312529.0,http://www.dgidb.org/interactions/54c5fb80-66be-4bc4-b9ad-6d9329f7d74e#_summary
349,CHEMBL1201585,association,EGFR,https://www.ncbi.nlm.nih.gov/pubmed/11752352.0,http://www.dgidb.org/interactions/0a531b94-0cef-4a94-a1d7-462f6e42354e#_summary
350,CHEMBL1091644,association,EGFR,https://www.ncbi.nlm.nih.gov/pubmed/26561558.0,http://www.dgidb.org/interactions/3493cea7-7d83-454f-90d7-9e2da74b5282#_summary
351,CHEMBL3301612,association,EGFR,https://www.ncbi.nlm.nih.gov/pubmed/27312529.0,http://www.dgidb.org/interactions/e12c9faa-d4bc-41bc-aa33-cd58b4c07512#_summary
352,CHEMBL428690,association,EGFR,https://www.ncbi.nlm.nih.gov/pubmed/11752352.0,http://www.dgidb.org/interactions/0d4c666e-e3c0-4679-9154-7e6a3bed4220#_summary
353,CHEMBL450786,association,EGFR,https://www.ncbi.nlm.nih.gov/pubmed/24165158.0,http://www.dgidb.org/interactions/e16ef134-d6cb-4070-9776-178686b5a646#_summary
354,CHEMBL3545376,association,EGFR,https://www.ncbi.nlm.nih.gov/pubmed/28341788.0,http://www.dgidb.org/interactions/350aef73-e491-40dd-ba4e-226d8b2e4eaa#_summary
355,CHEMBL2221250,association,EGFR,https://www.ncbi.nlm.nih.gov/pubmed/nan,http://www.dgidb.org/interactions/b8de7db7-e9ac-4e7c-8b60-fa0e725adbc5#_summary
356,CHEMBL1201129,association,EGFR,https://www.ncbi.nlm.nih.gov/pubmed/24874286.0,http://www.dgidb.org/interactions/f16b3aea-ae48-4550-bc82-ff086f95d848#_summary
357,CHEMBL1079175,association,EGFR,https://www.ncbi.nlm.nih.gov/pubmed/26106072.0,http://www.dgidb.org/interactions/bf7da1eb-d80b-46fe-8d85-67819d5b4052#_summary
358,CHEMBL2109501,association,EGFR,https://www.ncbi.nlm.nih.gov/pubmed/16963623.0,http://www.dgidb.org/interactions/084866f0-e201-43dc-b755-177ebcfd10b1#_summary
359,CHEMBL160519,association,EGFR,https://www.ncbi.nlm.nih.gov/pubmed/nan,http://www.dgidb.org/interactions/8aa8c27b-7347-471a-bd7d-989f4710d013#_summary
360,CHEMBL3545336,association,EGFR,https://www.ncbi.nlm.nih.gov/pubmed/27694386.0,http://www.dgidb.org/interactions/57cf9a2f-1e83-442e-8214-4e1dfb10cb4c#_summary
361,CHEMBL2028663,association,EGFR,https://www.ncbi.nlm.nih.gov/pubmed/27312529.0,http://www.dgidb.org/interactions/ae458076-975e-4cd1-bd77-00d291c5ea5d#_summary
362,CHEMBL252164,association,EGFR,https://www.ncbi.nlm.nih.gov/pubmed/25870087.0,http://www.dgidb.org/interactions/b95258a4-a3f8-4382-8d9a-cbc789d6b915#_summary
363,CHEMBL278315,association,EGFR,https://www.ncbi.nlm.nih.gov/pubmed/nan,http://www.dgidb.org/interactions/0f8d482d-5dc4-4465-9d75-7dfa7bc92ba2#_summary
364,CHEMBL941,association,EGFR,https://www.ncbi.nlm.nih.gov/pubmed/22323597.0,http://www.dgidb.org/interactions/5db8cf4d-f7bb-4618-875f-5b5d86459dc6#_summary
365,CHEMBL3545025,association,EGFR,https://www.ncbi.nlm.nih.gov/pubmed/nan,http://www.dgidb.org/interactions/b19edced-e21b-475f-aa96-8897d4e6c564#_summary
366,CHEMBL2103875,association,EGFR,https://www.ncbi.nlm.nih.gov/pubmed/28783719.0,http://www.dgidb.org/interactions/672d887b-b656-4781-a936-24be15433e8a#_summary
367,CHEMBL2107832,association,EGFR,https://www.ncbi.nlm.nih.gov/pubmed/23629727.0,http://www.dgidb.org/interactions/bff000e1-0406-4990-82ea-dd63e8ec1b4f#_summary
368,CHEMBL254760,association,EGFR,https://www.ncbi.nlm.nih.gov/pubmed/nan,http://www.dgidb.org/interactions/ea0c5b5f-f219-484c-b5dd-da5b724702df#_summary
369,CHEMBL545,association,EGFR,https://www.ncbi.nlm.nih.gov/pubmed/10092515.0,http://www.dgidb.org/interactions/d8c7e0df-b222-41a0-88ea-2ffe3fa87168#_summary
370,CHEMBL1946170,association,EGFR,https://www.ncbi.nlm.nih.gov/pubmed/23629727.0,http://www.dgidb.org/interactions/53d92867-9c1d-472e-98e7-1c28986eb701#_summary
371,CHEMBL601719,association,EGFR,https://www.ncbi.nlm.nih.gov/pubmed/27595477.0,http://www.dgidb.org/interactions/5747221f-05b6-4ed7-9323-7a5361c429ed#_summary
372,CHEMBL1908360,association,EGFR,https://www.ncbi.nlm.nih.gov/pubmed/23629727.0,http://www.dgidb.org/interactions/b81326b0-3eb5-40b8-b134-5504adb1aee2#_summary
373,CHEMBL2109391,association,EGFR,https://www.ncbi.nlm.nih.gov/pubmed/nan,http://www.dgidb.org/interactions/4089ebfd-26fd-4095-a8bd-a3098ffd912b#_summary
374,CHEMBL1336,association,EGFR,https://www.ncbi.nlm.nih.gov/pubmed/23629727.0,http://www.dgidb.org/interactions/017466b5-c0eb-48d8-969f-1c6112c2af4c#_summary
375,CHEMBL3137343,association,EGFR,https://www.ncbi.nlm.nih.gov/pubmed/27225694.0,http://www.dgidb.org/interactions/24d4dc6d-8b98-486f-b865-ef2fba596699#_summary
376,CHEMBL1096,association,EGFR,https://www.ncbi.nlm.nih.gov/pubmed/27287717.0,http://www.dgidb.org/interactions/cf1d95a9-aa5d-4320-9766-caebc794b87b#_summary
377,CHEMBL79,association,EGFR,https://www.ncbi.nlm.nih.gov/pubmed/nan,http://www.dgidb.org/interactions/15ab41a5-ba89-48ea-a5c3-5194fd47dcbd#_summary
378,CHEMBL2107863,association,EGFR,https://www.ncbi.nlm.nih.gov/pubmed/25586468.0,http://www.dgidb.org/interactions/f7d719da-cd33-4812-8582-4e5d2cf4c1d8#_summary
379,CHEMBL1201583,association,EGFR,https://www.ncbi.nlm.nih.gov/pubmed/28408243.0,http://www.dgidb.org/interactions/ba388a44-3102-40f7-8333-808d7df11dff#_summary
380,CHEMBL2017974,association,EGFR,https://www.ncbi.nlm.nih.gov/pubmed/28416483.0,http://www.dgidb.org/interactions/07cbe8d4-bbaa-4d74-b9ac-f3c80dc90bb7#_summary
381,CHEMBL481,association,EGFR,https://www.ncbi.nlm.nih.gov/pubmed/23209031.0,http://www.dgidb.org/interactions/fdf14583-1b6e-476f-b9d0-9f5b2b465232#_summary
382,CHEMBL3545137,association,EGFR,https://www.ncbi.nlm.nih.gov/pubmed/26140595.0,http://www.dgidb.org/interactions/1240e2ef-0849-4437-b571-c9ddfc785295#_summary
383,CHEMBL288441,association,EGFR,https://www.ncbi.nlm.nih.gov/pubmed/28416483.0,http://www.dgidb.org/interactions/133abe52-0fbf-470c-ab17-cf3b72a6a696#_summary
384,CHEMBL592445,association,EGFR,https://www.ncbi.nlm.nih.gov/pubmed/16731747.0,http://www.dgidb.org/interactions/c1340e52-3f43-4a4f-a77b-00606e81e728#_summary
385,CHEMBL1201258,association,EGFR,https://www.ncbi.nlm.nih.gov/pubmed/24636847.0,http://www.dgidb.org/interactions/518ef4b3-b509-4cfe-989c-6f4d5de54137#_summary
386,CHEMBL3188267,association,EGFR,https://www.ncbi.nlm.nih.gov/pubmed/28783719.0,http://www.dgidb.org/interactions/0195126b-5aae-40ba-a5a1-7fd1e4563433#_summary
387,CHEMBL413,association,EGFR,https://www.ncbi.nlm.nih.gov/pubmed/24934779.0,http://www.dgidb.org/interactions/3ee45b15-1291-403e-a938-869a0af16c7a#_summary
388,CHEMBL3545212,association,EGFR,https://www.ncbi.nlm.nih.gov/pubmed/26432108.0,http://www.dgidb.org/interactions/0669ab78-3f55-49bd-8b6a-264c35b3c587#_summary
389,CHEMBL285063,association,EGFR,https://www.ncbi.nlm.nih.gov/pubmed/10592235.0,http://www.dgidb.org/interactions/e8b45903-f60e-4a05-8f29-172732192587#_summary
390,CHEMBL810,association,EGFR,https://www.ncbi.nlm.nih.gov/pubmed/25910950.0,http://www.dgidb.org/interactions/77c90353-79c9-44e4-89a5-6416c9ffaa1d#_summary
391,CHEMBL1201182,association,EGFR,https://www.ncbi.nlm.nih.gov/pubmed/24470557.0,http://www.dgidb.org/interactions/22d0d3d3-d773-4f54-ab9f-b32c7707b000#_summary
392,CHEMBL535,association,EGFR,https://www.ncbi.nlm.nih.gov/pubmed/27149458.0,http://www.dgidb.org/interactions/6d4d7117-2454-41e4-b9ad-1d930d5b189e#_summary
393,CHEMBL3707277,association,EGFR,https://www.ncbi.nlm.nih.gov/pubmed/26846818.0,http://www.dgidb.org/interactions/1018861d-047e-4509-87fe-256495b86178#_summary
394,CHEMBL217092,association,EGFR,https://www.ncbi.nlm.nih.gov/pubmed/28416483.0,http://www.dgidb.org/interactions/c7e341be-a6aa-42b8-bc78-e6d9e33906e1#_summary
395,CHEMBL3301587,association,EGFR,https://www.ncbi.nlm.nih.gov/pubmed/27225694.0,http://www.dgidb.org/interactions/2e39c53d-5d1d-44df-b1b4-b28446a7d383#_summary
396,CHEMBL458997,association,EGFR,https://www.ncbi.nlm.nih.gov/pubmed/26090892.0,http://www.dgidb.org/interactions/b4cc0b7b-73e9-4eb2-8a22-7ae61f8fa82d#_summary
397,CHEMBL1351,association,EGFR,https://www.ncbi.nlm.nih.gov/pubmed/22139083.0,http://www.dgidb.org/interactions/5f22943f-0ec1-40b6-8b36-bb2dbd2f0258#_summary
398,CHEMBL575448,association,EGFR,https://www.ncbi.nlm.nih.gov/pubmed/26561558.0,http://www.dgidb.org/interactions/88afffc7-576c-4558-a81d-fc5f1ed35fe7#_summary
399,CHEMBL44657,association,EGFR,https://www.ncbi.nlm.nih.gov/pubmed/27216155.0,http://www.dgidb.org/interactions/b1f0bfad-b3ba-42ef-aae0-693db2e5f241#_summary
400,CHEMBL2105717,association,EGFR,https://www.ncbi.nlm.nih.gov/pubmed/27694386.0,http://www.dgidb.org/interactions/d5c70287-37e5-4ccf-9d42-c92e8e7f47fa#_summary
401,CHEMBL2108738,association,EGFR,https://www.ncbi.nlm.nih.gov/pubmed/27225694.0,http://www.dgidb.org/interactions/5687003c-1d92-4a42-8be2-e9ba5b235246#_summary
