,subject,variant,relation,obj,citations,db_url
36,EGFR,NM_005228.4(EGFR):c.2156G>C (p.Gly719Ala),increases,"MESH:""Carcinoma, Non-Small-Cell Lung""","<a href=""https://www.ncbi.nlm.nih.gov/clinvar/variation/45225"" target=""_blank"">45225</a>","<a href=""https://www.ncbi.nlm.nih.gov/clinvar/variation/45225"" target=""_blank"">45225</a>"
39,EGFR,NM_005228.4(EGFR):c.2303G>T (p.Ser768Ile),increases,"MESH:""Carcinoma, Non-Small-Cell Lung""","<a href=""https://www.ncbi.nlm.nih.gov/clinvar/variation/45251"" target=""_blank"">45251</a>","<a href=""https://www.ncbi.nlm.nih.gov/clinvar/variation/45251"" target=""_blank"">45251</a>"
40,EGFR,NM_005228.4(EGFR):c.2500G>T (p.Val834Leu),increases,"MESH:""Carcinoma, Non-Small-Cell Lung""","<a href=""https://www.ncbi.nlm.nih.gov/clinvar/variation/45279"" target=""_blank"">45279</a>","<a href=""https://www.ncbi.nlm.nih.gov/clinvar/variation/45279"" target=""_blank"">45279</a>"
82,EGFR,NM_005228.4(EGFR):c.2127_2129del (p.Glu709_Thr710delinsAsp),increases,"MESH:""Carcinoma, Non-Small-Cell Lung""","<a href=""https://www.ncbi.nlm.nih.gov/clinvar/variation/45220"" target=""_blank"">45220</a>","<a href=""https://www.ncbi.nlm.nih.gov/clinvar/variation/45220"" target=""_blank"">45220</a>"
85,EGFR,NM_005228.4(EGFR):c.2303_2304delGCinsTT (p.Ser768Ile),increases,"MESH:""Carcinoma, Non-Small-Cell Lung""","<a href=""https://www.ncbi.nlm.nih.gov/clinvar/variation/45252"" target=""_blank"">45252</a>","<a href=""https://www.ncbi.nlm.nih.gov/clinvar/variation/45252"" target=""_blank"">45252</a>"
87,EGFR,NM_005228.4(EGFR):c.2310_2311insGGGTTG (p.Asp770_Asn771insGlyLeu),increases,"MESH:""Carcinoma, Non-Small-Cell Lung""","<a href=""https://www.ncbi.nlm.nih.gov/clinvar/variation/45257"" target=""_blank"">45257</a>","<a href=""https://www.ncbi.nlm.nih.gov/clinvar/variation/45257"" target=""_blank"">45257</a>"
88,EGFR,NM_005228.4(EGFR):c.2312_2314dupACC (p.Asn771_Pro772insHis),increases,"MESH:""Carcinoma, Non-Small-Cell Lung""","<a href=""https://www.ncbi.nlm.nih.gov/clinvar/variation/45258"" target=""_blank"">45258</a>","<a href=""https://www.ncbi.nlm.nih.gov/clinvar/variation/45258"" target=""_blank"">45258</a>"
96,EGFR,NM_005228.4:c.2303_2305delGCGinsTCT,increases,"MESH:""Carcinoma, Non-Small-Cell Lung""","<a href=""https://www.ncbi.nlm.nih.gov/clinvar/variation/638163"" target=""_blank"">638163</a>","<a href=""https://www.ncbi.nlm.nih.gov/clinvar/variation/638163"" target=""_blank"">638163</a>"
