[
    {
        "nanopub": {
            "id": "shradha_pat18_v1_enrichR_GO_1",
            "type": {
                "name": "BEL",
                "version": "2.1.0"
            },
            "citation": {
                "uri": "http://geneontology.org/docs/go-enrichment-analysis/"
            },
            "assertions": [
                {
                    "subject": "p(HGNC:EPHA3)",
                    "relation": "increases",
                    "object": "bp(GO:negative regulation of cell communication )"
                }
            ],
            "annotations": [
                {
                    "type": "Species",
                    "id": "TAX:9606",
                    "label": "human"
                }
            ],
            "database": {
                "uri_db": "https://amp.pharm.mssm.edu/Enrichr/"
            },
            "metadata": {
                "project": "BMI593_BEL_NSCLC_Fall2019_pat18_v1",
                "gd_creator": "shradha_pat18_v1",
                "note": "EPHA3 acts as increases of bp(GO:negative regulation of cell communication ). This relation may or may not hold true in the context of NSCLC."
            }
        }
    },
    {
        "nanopub": {
            "id": "shradha_pat18_v1_enrichR_GO_2",
            "type": {
                "name": "BEL",
                "version": "2.1.0"
            },
            "citation": {
                "uri": "http://geneontology.org/docs/go-enrichment-analysis/"
            },
            "assertions": [
                {
                    "subject": "p(HGNC:EPHA3)",
                    "relation": "increases",
                    "object": "bp(GO:negative regulation of response to stimulus )"
                }
            ],
            "annotations": [
                {
                    "type": "Species",
                    "id": "TAX:9606",
                    "label": "human"
                }
            ],
            "database": {
                "uri_db": "https://amp.pharm.mssm.edu/Enrichr/"
            },
            "metadata": {
                "project": "BMI593_BEL_NSCLC_Fall2019_pat18_v1",
                "gd_creator": "shradha_pat18_v1",
                "note": "EPHA3 acts as increases of bp(GO:negative regulation of response to stimulus ). This relation may or may not hold true in the context of NSCLC."
            }
        }
    },
    {
        "nanopub": {
            "id": "shradha_pat18_v1_enrichR_GO_3",
            "type": {
                "name": "BEL",
                "version": "2.1.0"
            },
            "citation": {
                "uri": "http://geneontology.org/docs/go-enrichment-analysis/"
            },
            "assertions": [
                {
                    "subject": "p(HGNC:EPHA3)",
                    "relation": "increases",
                    "object": "bp(GO:negative regulation of signaling )"
                }
            ],
            "annotations": [
                {
                    "type": "Species",
                    "id": "TAX:9606",
                    "label": "human"
                }
            ],
            "database": {
                "uri_db": "https://amp.pharm.mssm.edu/Enrichr/"
            },
            "metadata": {
                "project": "BMI593_BEL_NSCLC_Fall2019_pat18_v1",
                "gd_creator": "shradha_pat18_v1",
                "note": "EPHA3 acts as increases of bp(GO:negative regulation of signaling ). This relation may or may not hold true in the context of NSCLC."
            }
        }
    },
    {
        "nanopub": {
            "id": "shradha_pat18_v1_enrichR_GO_4",
            "type": {
                "name": "BEL",
                "version": "2.1.0"
            },
            "citation": {
                "uri": "http://geneontology.org/docs/go-enrichment-analysis/"
            },
            "assertions": [
                {
                    "subject": "p(HGNC:EPHA3)",
                    "relation": "increases",
                    "object": "bp(GO:regulation of kinase activity )"
                }
            ],
            "annotations": [
                {
                    "type": "Species",
                    "id": "TAX:9606",
                    "label": "human"
                }
            ],
            "database": {
                "uri_db": "https://amp.pharm.mssm.edu/Enrichr/"
            },
            "metadata": {
                "project": "BMI593_BEL_NSCLC_Fall2019_pat18_v1",
                "gd_creator": "shradha_pat18_v1",
                "note": "EPHA3 acts as increases of bp(GO:regulation of kinase activity ). This relation may or may not hold true in the context of NSCLC."
            }
        }
    },
    {
        "nanopub": {
            "id": "shradha_pat18_v1_enrichR_GO_5",
            "type": {
                "name": "BEL",
                "version": "2.1.0"
            },
            "citation": {
                "uri": "http://geneontology.org/docs/go-enrichment-analysis/"
            },
            "assertions": [
                {
                    "subject": "p(HGNC:TP53)",
                    "relation": "increases",
                    "object": "bp(GO:positive regulation of protein phosphorylation )"
                }
            ],
            "annotations": [
                {
                    "type": "Species",
                    "id": "TAX:9606",
                    "label": "human"
                }
            ],
            "database": {
                "uri_db": "https://amp.pharm.mssm.edu/Enrichr/"
            },
            "metadata": {
                "project": "BMI593_BEL_NSCLC_Fall2019_pat18_v1",
                "gd_creator": "shradha_pat18_v1",
                "note": "TP53 acts as increases of bp(GO:positive regulation of protein phosphorylation ). This relation may or may not hold true in the context of NSCLC."
            }
        }
    },
    {
        "nanopub": {
            "id": "shradha_pat18_v1_enrichR_GO_6",
            "type": {
                "name": "BEL",
                "version": "2.1.0"
            },
            "citation": {
                "uri": "http://geneontology.org/docs/go-enrichment-analysis/"
            },
            "assertions": [
                {
                    "subject": "p(HGNC:EPHA3)",
                    "relation": "increases",
                    "object": "bp(GO:positive regulation of protein phosphorylation )"
                }
            ],
            "annotations": [
                {
                    "type": "Species",
                    "id": "TAX:9606",
                    "label": "human"
                }
            ],
            "database": {
                "uri_db": "https://amp.pharm.mssm.edu/Enrichr/"
            },
            "metadata": {
                "project": "BMI593_BEL_NSCLC_Fall2019_pat18_v1",
                "gd_creator": "shradha_pat18_v1",
                "note": "EPHA3 acts as increases of bp(GO:positive regulation of protein phosphorylation ). This relation may or may not hold true in the context of NSCLC."
            }
        }
    },
    {
        "nanopub": {
            "id": "shradha_pat18_v1_enrichR_GO_7",
            "type": {
                "name": "BEL",
                "version": "2.1.0"
            },
            "citation": {
                "uri": "http://geneontology.org/docs/go-enrichment-analysis/"
            },
            "assertions": [
                {
                    "subject": "p(HGNC:EPHA3)",
                    "relation": "increases",
                    "object": "bp(GO:regulation of ERK1 and ERK2 cascade )"
                }
            ],
            "annotations": [
                {
                    "type": "Species",
                    "id": "TAX:9606",
                    "label": "human"
                }
            ],
            "database": {
                "uri_db": "https://amp.pharm.mssm.edu/Enrichr/"
            },
            "metadata": {
                "project": "BMI593_BEL_NSCLC_Fall2019_pat18_v1",
                "gd_creator": "shradha_pat18_v1",
                "note": "EPHA3 acts as increases of bp(GO:regulation of ERK1 and ERK2 cascade ). This relation may or may not hold true in the context of NSCLC."
            }
        }
    },
    {
        "nanopub": {
            "id": "shradha_pat18_v1_enrichR_GO_8",
            "type": {
                "name": "BEL",
                "version": "2.1.0"
            },
            "citation": {
                "uri": "http://geneontology.org/docs/go-enrichment-analysis/"
            },
            "assertions": [
                {
                    "subject": "p(HGNC:EPHA3)",
                    "relation": "increases",
                    "object": "bp(GO:positive regulation of kinase activity )"
                }
            ],
            "annotations": [
                {
                    "type": "Species",
                    "id": "TAX:9606",
                    "label": "human"
                }
            ],
            "database": {
                "uri_db": "https://amp.pharm.mssm.edu/Enrichr/"
            },
            "metadata": {
                "project": "BMI593_BEL_NSCLC_Fall2019_pat18_v1",
                "gd_creator": "shradha_pat18_v1",
                "note": "EPHA3 acts as increases of bp(GO:positive regulation of kinase activity ). This relation may or may not hold true in the context of NSCLC."
            }
        }
    },
    {
        "nanopub": {
            "id": "shradha_pat18_v1_enrichR_GO_9",
            "type": {
                "name": "BEL",
                "version": "2.1.0"
            },
            "citation": {
                "uri": "http://geneontology.org/docs/go-enrichment-analysis/"
            },
            "assertions": [
                {
                    "subject": "p(HGNC:EPHA3)",
                    "relation": "increases",
                    "object": "bp(GO:positive regulation of ERK1 and ERK2 cascade )"
                }
            ],
            "annotations": [
                {
                    "type": "Species",
                    "id": "TAX:9606",
                    "label": "human"
                }
            ],
            "database": {
                "uri_db": "https://amp.pharm.mssm.edu/Enrichr/"
            },
            "metadata": {
                "project": "BMI593_BEL_NSCLC_Fall2019_pat18_v1",
                "gd_creator": "shradha_pat18_v1",
                "note": "EPHA3 acts as increases of bp(GO:positive regulation of ERK1 and ERK2 cascade ). This relation may or may not hold true in the context of NSCLC."
            }
        }
    },
    {
        "nanopub": {
            "id": "shradha_pat18_v1_enrichR_GO_10",
            "type": {
                "name": "BEL",
                "version": "2.1.0"
            },
            "citation": {
                "uri": "http://geneontology.org/docs/go-enrichment-analysis/"
            },
            "assertions": [
                {
                    "subject": "p(HGNC:EPHA3)",
                    "relation": "increases",
                    "object": "bp(GO:regulation of MAPK cascade )"
                }
            ],
            "annotations": [
                {
                    "type": "Species",
                    "id": "TAX:9606",
                    "label": "human"
                }
            ],
            "database": {
                "uri_db": "https://amp.pharm.mssm.edu/Enrichr/"
            },
            "metadata": {
                "project": "BMI593_BEL_NSCLC_Fall2019_pat18_v1",
                "gd_creator": "shradha_pat18_v1",
                "note": "EPHA3 acts as increases of bp(GO:regulation of MAPK cascade ). This relation may or may not hold true in the context of NSCLC."
            }
        }
    },
    {
        "nanopub": {
            "id": "shradha_pat18_v1_enrichR_GO_11",
            "type": {
                "name": "BEL",
                "version": "2.1.0"
            },
            "citation": {
                "uri": "http://geneontology.org/docs/go-enrichment-analysis/"
            },
            "assertions": [
                {
                    "subject": "p(HGNC:EPHA3)",
                    "relation": "increases",
                    "object": "bp(GO:positive regulation of phosphorylation )"
                }
            ],
            "annotations": [
                {
                    "type": "Species",
                    "id": "TAX:9606",
                    "label": "human"
                }
            ],
            "database": {
                "uri_db": "https://amp.pharm.mssm.edu/Enrichr/"
            },
            "metadata": {
                "project": "BMI593_BEL_NSCLC_Fall2019_pat18_v1",
                "gd_creator": "shradha_pat18_v1",
                "note": "EPHA3 acts as increases of bp(GO:positive regulation of phosphorylation ). This relation may or may not hold true in the context of NSCLC."
            }
        }
    },
    {
        "nanopub": {
            "id": "shradha_pat18_v1_enrichR_GO_12",
            "type": {
                "name": "BEL",
                "version": "2.1.0"
            },
            "citation": {
                "uri": "http://geneontology.org/docs/go-enrichment-analysis/"
            },
            "assertions": [
                {
                    "subject": "p(HGNC:EPHA3)",
                    "relation": "increases",
                    "object": "bp(GO:positive regulation of transferase activity )"
                }
            ],
            "annotations": [
                {
                    "type": "Species",
                    "id": "TAX:9606",
                    "label": "human"
                }
            ],
            "database": {
                "uri_db": "https://amp.pharm.mssm.edu/Enrichr/"
            },
            "metadata": {
                "project": "BMI593_BEL_NSCLC_Fall2019_pat18_v1",
                "gd_creator": "shradha_pat18_v1",
                "note": "EPHA3 acts as increases of bp(GO:positive regulation of transferase activity ). This relation may or may not hold true in the context of NSCLC."
            }
        }
    },
    {
        "nanopub": {
            "id": "shradha_pat18_v1_enrichR_GO_13",
            "type": {
                "name": "BEL",
                "version": "2.1.0"
            },
            "citation": {
                "uri": "http://geneontology.org/docs/go-enrichment-analysis/"
            },
            "assertions": [
                {
                    "subject": "p(HGNC:EPHA3)",
                    "relation": "increases",
                    "object": "bp(GO:regulation of signal transduction )"
                }
            ],
            "annotations": [
                {
                    "type": "Species",
                    "id": "TAX:9606",
                    "label": "human"
                }
            ],
            "database": {
                "uri_db": "https://amp.pharm.mssm.edu/Enrichr/"
            },
            "metadata": {
                "project": "BMI593_BEL_NSCLC_Fall2019_pat18_v1",
                "gd_creator": "shradha_pat18_v1",
                "note": "EPHA3 acts as increases of bp(GO:regulation of signal transduction ). This relation may or may not hold true in the context of NSCLC."
            }
        }
    },
    {
        "nanopub": {
            "id": "shradha_pat18_v1_enrichR_GO_14",
            "type": {
                "name": "BEL",
                "version": "2.1.0"
            },
            "citation": {
                "uri": "http://geneontology.org/docs/go-enrichment-analysis/"
            },
            "assertions": [
                {
                    "subject": "p(HGNC:TP53)",
                    "relation": "increases",
                    "object": "bp(GO:regulation of apoptotic process )"
                }
            ],
            "annotations": [
                {
                    "type": "Species",
                    "id": "TAX:9606",
                    "label": "human"
                }
            ],
            "database": {
                "uri_db": "https://amp.pharm.mssm.edu/Enrichr/"
            },
            "metadata": {
                "project": "BMI593_BEL_NSCLC_Fall2019_pat18_v1",
                "gd_creator": "shradha_pat18_v1",
                "note": "TP53 acts as increases of bp(GO:regulation of apoptotic process ). This relation may or may not hold true in the context of NSCLC."
            }
        }
    },
    {
        "nanopub": {
            "id": "shradha_pat18_v1_enrichR_GO_15",
            "type": {
                "name": "BEL",
                "version": "2.1.0"
            },
            "citation": {
                "uri": "http://geneontology.org/docs/go-enrichment-analysis/"
            },
            "assertions": [
                {
                    "subject": "p(HGNC:EPHA3)",
                    "relation": "increases",
                    "object": "bp(GO:regulation of apoptotic process )"
                }
            ],
            "annotations": [
                {
                    "type": "Species",
                    "id": "TAX:9606",
                    "label": "human"
                }
            ],
            "database": {
                "uri_db": "https://amp.pharm.mssm.edu/Enrichr/"
            },
            "metadata": {
                "project": "BMI593_BEL_NSCLC_Fall2019_pat18_v1",
                "gd_creator": "shradha_pat18_v1",
                "note": "EPHA3 acts as increases of bp(GO:regulation of apoptotic process ). This relation may or may not hold true in the context of NSCLC."
            }
        }
    },
    {
        "nanopub": {
            "id": "shradha_pat18_v1_enrichR_GO_16",
            "type": {
                "name": "BEL",
                "version": "2.1.0"
            },
            "citation": {
                "uri": "http://geneontology.org/docs/go-enrichment-analysis/"
            },
            "assertions": [
                {
                    "subject": "p(HGNC:TP53)",
                    "relation": "increases",
                    "object": "bp(GO:negative regulation of apoptotic process )"
                }
            ],
            "annotations": [
                {
                    "type": "Species",
                    "id": "TAX:9606",
                    "label": "human"
                }
            ],
            "database": {
                "uri_db": "https://amp.pharm.mssm.edu/Enrichr/"
            },
            "metadata": {
                "project": "BMI593_BEL_NSCLC_Fall2019_pat18_v1",
                "gd_creator": "shradha_pat18_v1",
                "note": "TP53 acts as increases of bp(GO:negative regulation of apoptotic process ). This relation may or may not hold true in the context of NSCLC."
            }
        }
    },
    {
        "nanopub": {
            "id": "shradha_pat18_v1_enrichR_GO_17",
            "type": {
                "name": "BEL",
                "version": "2.1.0"
            },
            "citation": {
                "uri": "http://geneontology.org/docs/go-enrichment-analysis/"
            },
            "assertions": [
                {
                    "subject": "p(HGNC:EPHA3)",
                    "relation": "increases",
                    "object": "bp(GO:negative regulation of apoptotic process )"
                }
            ],
            "annotations": [
                {
                    "type": "Species",
                    "id": "TAX:9606",
                    "label": "human"
                }
            ],
            "database": {
                "uri_db": "https://amp.pharm.mssm.edu/Enrichr/"
            },
            "metadata": {
                "project": "BMI593_BEL_NSCLC_Fall2019_pat18_v1",
                "gd_creator": "shradha_pat18_v1",
                "note": "EPHA3 acts as increases of bp(GO:negative regulation of apoptotic process ). This relation may or may not hold true in the context of NSCLC."
            }
        }
    },
    {
        "nanopub": {
            "id": "shradha_pat18_v1_enrichR_GO_18",
            "type": {
                "name": "BEL",
                "version": "2.1.0"
            },
            "citation": {
                "uri": "http://geneontology.org/docs/go-enrichment-analysis/"
            },
            "assertions": [
                {
                    "subject": "p(HGNC:EPHA3)",
                    "relation": "increases",
                    "object": "bp(GO:negative regulation of signal transduction )"
                }
            ],
            "annotations": [
                {
                    "type": "Species",
                    "id": "TAX:9606",
                    "label": "human"
                }
            ],
            "database": {
                "uri_db": "https://amp.pharm.mssm.edu/Enrichr/"
            },
            "metadata": {
                "project": "BMI593_BEL_NSCLC_Fall2019_pat18_v1",
                "gd_creator": "shradha_pat18_v1",
                "note": "EPHA3 acts as increases of bp(GO:negative regulation of signal transduction ). This relation may or may not hold true in the context of NSCLC."
            }
        }
    },
    {
        "nanopub": {
            "id": "shradha_pat18_v1_enrichR_GO_19",
            "type": {
                "name": "BEL",
                "version": "2.1.0"
            },
            "citation": {
                "uri": "http://geneontology.org/docs/go-enrichment-analysis/"
            },
            "assertions": [
                {
                    "subject": "p(HGNC:TP53)",
                    "relation": "increases",
                    "object": "bp(GO:negative regulation of programmed cell death )"
                }
            ],
            "annotations": [
                {
                    "type": "Species",
                    "id": "TAX:9606",
                    "label": "human"
                }
            ],
            "database": {
                "uri_db": "https://amp.pharm.mssm.edu/Enrichr/"
            },
            "metadata": {
                "project": "BMI593_BEL_NSCLC_Fall2019_pat18_v1",
                "gd_creator": "shradha_pat18_v1",
                "note": "TP53 acts as increases of bp(GO:negative regulation of programmed cell death ). This relation may or may not hold true in the context of NSCLC."
            }
        }
    },
    {
        "nanopub": {
            "id": "shradha_pat18_v1_enrichR_GO_20",
            "type": {
                "name": "BEL",
                "version": "2.1.0"
            },
            "citation": {
                "uri": "http://geneontology.org/docs/go-enrichment-analysis/"
            },
            "assertions": [
                {
                    "subject": "p(HGNC:EPHA3)",
                    "relation": "increases",
                    "object": "bp(GO:negative regulation of programmed cell death )"
                }
            ],
            "annotations": [
                {
                    "type": "Species",
                    "id": "TAX:9606",
                    "label": "human"
                }
            ],
            "database": {
                "uri_db": "https://amp.pharm.mssm.edu/Enrichr/"
            },
            "metadata": {
                "project": "BMI593_BEL_NSCLC_Fall2019_pat18_v1",
                "gd_creator": "shradha_pat18_v1",
                "note": "EPHA3 acts as increases of bp(GO:negative regulation of programmed cell death ). This relation may or may not hold true in the context of NSCLC."
            }
        }
    },
    {
        "nanopub": {
            "id": "shradha_pat18_v1_enrichR_GO_21",
            "type": {
                "name": "BEL",
                "version": "2.1.0"
            },
            "citation": {
                "uri": "http://geneontology.org/docs/go-enrichment-analysis/"
            },
            "assertions": [
                {
                    "subject": "p(HGNC:EPHA3)",
                    "relation": "increases",
                    "object": "bp(GO:positive regulation of MAPK cascade )"
                }
            ],
            "annotations": [
                {
                    "type": "Species",
                    "id": "TAX:9606",
                    "label": "human"
                }
            ],
            "database": {
                "uri_db": "https://amp.pharm.mssm.edu/Enrichr/"
            },
            "metadata": {
                "project": "BMI593_BEL_NSCLC_Fall2019_pat18_v1",
                "gd_creator": "shradha_pat18_v1",
                "note": "EPHA3 acts as increases of bp(GO:positive regulation of MAPK cascade ). This relation may or may not hold true in the context of NSCLC."
            }
        }
    },
    {
        "nanopub": {
            "id": "shradha_pat18_v1_enrichR_GO_22",
            "type": {
                "name": "BEL",
                "version": "2.1.0"
            },
            "citation": {
                "uri": "http://geneontology.org/docs/go-enrichment-analysis/"
            },
            "assertions": [
                {
                    "subject": "p(HGNC:TP53)",
                    "relation": "increases",
                    "object": "bp(GO:positive regulation of intracellular signal transduction )"
                }
            ],
            "annotations": [
                {
                    "type": "Species",
                    "id": "TAX:9606",
                    "label": "human"
                }
            ],
            "database": {
                "uri_db": "https://amp.pharm.mssm.edu/Enrichr/"
            },
            "metadata": {
                "project": "BMI593_BEL_NSCLC_Fall2019_pat18_v1",
                "gd_creator": "shradha_pat18_v1",
                "note": "TP53 acts as increases of bp(GO:positive regulation of intracellular signal transduction ). This relation may or may not hold true in the context of NSCLC."
            }
        }
    },
    {
        "nanopub": {
            "id": "shradha_pat18_v1_enrichR_GO_23",
            "type": {
                "name": "BEL",
                "version": "2.1.0"
            },
            "citation": {
                "uri": "http://geneontology.org/docs/go-enrichment-analysis/"
            },
            "assertions": [
                {
                    "subject": "p(HGNC:EPHA3)",
                    "relation": "increases",
                    "object": "bp(GO:positive regulation of intracellular signal transduction )"
                }
            ],
            "annotations": [
                {
                    "type": "Species",
                    "id": "TAX:9606",
                    "label": "human"
                }
            ],
            "database": {
                "uri_db": "https://amp.pharm.mssm.edu/Enrichr/"
            },
            "metadata": {
                "project": "BMI593_BEL_NSCLC_Fall2019_pat18_v1",
                "gd_creator": "shradha_pat18_v1",
                "note": "EPHA3 acts as increases of bp(GO:positive regulation of intracellular signal transduction ). This relation may or may not hold true in the context of NSCLC."
            }
        }
    },
    {
        "nanopub": {
            "id": "shradha_pat18_v1_enrichR_GO_24",
            "type": {
                "name": "BEL",
                "version": "2.1.0"
            },
            "citation": {
                "uri": "http://geneontology.org/docs/go-enrichment-analysis/"
            },
            "assertions": [
                {
                    "subject": "p(HGNC:TP53)",
                    "relation": "increases",
                    "object": "bp(GO:replicative senescence )"
                }
            ],
            "annotations": [
                {
                    "type": "Species",
                    "id": "TAX:9606",
                    "label": "human"
                }
            ],
            "database": {
                "uri_db": "https://amp.pharm.mssm.edu/Enrichr/"
            },
            "metadata": {
                "project": "BMI593_BEL_NSCLC_Fall2019_pat18_v1",
                "gd_creator": "shradha_pat18_v1",
                "note": "TP53 acts as increases of bp(GO:replicative senescence ). This relation may or may not hold true in the context of NSCLC."
            }
        }
    },
    {
        "nanopub": {
            "id": "shradha_pat18_v1_enrichR_GO_25",
            "type": {
                "name": "BEL",
                "version": "2.1.0"
            },
            "citation": {
                "uri": "http://geneontology.org/docs/go-enrichment-analysis/"
            },
            "assertions": [
                {
                    "subject": "p(HGNC:TP53)",
                    "relation": "increases",
                    "object": "bp(GO:regulation of cell proliferation )"
                }
            ],
            "annotations": [
                {
                    "type": "Species",
                    "id": "TAX:9606",
                    "label": "human"
                }
            ],
            "database": {
                "uri_db": "https://amp.pharm.mssm.edu/Enrichr/"
            },
            "metadata": {
                "project": "BMI593_BEL_NSCLC_Fall2019_pat18_v1",
                "gd_creator": "shradha_pat18_v1",
                "note": "TP53 acts as increases of bp(GO:regulation of cell proliferation ). This relation may or may not hold true in the context of NSCLC."
            }
        }
    },
    {
        "nanopub": {
            "id": "shradha_pat18_v1_enrichR_GO_26",
            "type": {
                "name": "BEL",
                "version": "2.1.0"
            },
            "citation": {
                "uri": "http://geneontology.org/docs/go-enrichment-analysis/"
            },
            "assertions": [
                {
                    "subject": "p(HGNC:EPHA3)",
                    "relation": "increases",
                    "object": "bp(GO:protein phosphorylation )"
                }
            ],
            "annotations": [
                {
                    "type": "Species",
                    "id": "TAX:9606",
                    "label": "human"
                }
            ],
            "database": {
                "uri_db": "https://amp.pharm.mssm.edu/Enrichr/"
            },
            "metadata": {
                "project": "BMI593_BEL_NSCLC_Fall2019_pat18_v1",
                "gd_creator": "shradha_pat18_v1",
                "note": "EPHA3 acts as increases of bp(GO:protein phosphorylation ). This relation may or may not hold true in the context of NSCLC."
            }
        }
    },
    {
        "nanopub": {
            "id": "shradha_pat18_v1_enrichR_GO_27",
            "type": {
                "name": "BEL",
                "version": "2.1.0"
            },
            "citation": {
                "uri": "http://geneontology.org/docs/go-enrichment-analysis/"
            },
            "assertions": [
                {
                    "subject": "p(HGNC:TP53)",
                    "relation": "increases",
                    "object": "bp(GO:positive regulation of gene expression )"
                }
            ],
            "annotations": [
                {
                    "type": "Species",
                    "id": "TAX:9606",
                    "label": "human"
                }
            ],
            "database": {
                "uri_db": "https://amp.pharm.mssm.edu/Enrichr/"
            },
            "metadata": {
                "project": "BMI593_BEL_NSCLC_Fall2019_pat18_v1",
                "gd_creator": "shradha_pat18_v1",
                "note": "TP53 acts as increases of bp(GO:positive regulation of gene expression ). This relation may or may not hold true in the context of NSCLC."
            }
        }
    },
    {
        "nanopub": {
            "id": "shradha_pat18_v1_enrichR_GO_28",
            "type": {
                "name": "BEL",
                "version": "2.1.0"
            },
            "citation": {
                "uri": "http://geneontology.org/docs/go-enrichment-analysis/"
            },
            "assertions": [
                {
                    "subject": "p(HGNC:TP53)",
                    "relation": "increases",
                    "object": "bp(GO:regulation of gene expression )"
                }
            ],
            "annotations": [
                {
                    "type": "Species",
                    "id": "TAX:9606",
                    "label": "human"
                }
            ],
            "database": {
                "uri_db": "https://amp.pharm.mssm.edu/Enrichr/"
            },
            "metadata": {
                "project": "BMI593_BEL_NSCLC_Fall2019_pat18_v1",
                "gd_creator": "shradha_pat18_v1",
                "note": "TP53 acts as increases of bp(GO:regulation of gene expression ). This relation may or may not hold true in the context of NSCLC."
            }
        }
    },
    {
        "nanopub": {
            "id": "shradha_pat18_v1_enrichR_GO_29",
            "type": {
                "name": "BEL",
                "version": "2.1.0"
            },
            "citation": {
                "uri": "http://geneontology.org/docs/go-enrichment-analysis/"
            },
            "assertions": [
                {
                    "subject": "p(HGNC:TP53)",
                    "relation": "increases",
                    "object": "bp(GO:positive regulation of transcription, DNA-templated )"
                }
            ],
            "annotations": [
                {
                    "type": "Species",
                    "id": "TAX:9606",
                    "label": "human"
                }
            ],
            "database": {
                "uri_db": "https://amp.pharm.mssm.edu/Enrichr/"
            },
            "metadata": {
                "project": "BMI593_BEL_NSCLC_Fall2019_pat18_v1",
                "gd_creator": "shradha_pat18_v1",
                "note": "TP53 acts as increases of bp(GO:positive regulation of transcription, DNA-templated ). This relation may or may not hold true in the context of NSCLC."
            }
        }
    },
    {
        "nanopub": {
            "id": "shradha_pat18_v1_enrichR_GO_30",
            "type": {
                "name": "BEL",
                "version": "2.1.0"
            },
            "citation": {
                "uri": "http://geneontology.org/docs/go-enrichment-analysis/"
            },
            "assertions": [
                {
                    "subject": "p(HGNC:TP53)",
                    "relation": "increases",
                    "object": "bp(GO:small GTPase mediated signal transduction )"
                }
            ],
            "annotations": [
                {
                    "type": "Species",
                    "id": "TAX:9606",
                    "label": "human"
                }
            ],
            "database": {
                "uri_db": "https://amp.pharm.mssm.edu/Enrichr/"
            },
            "metadata": {
                "project": "BMI593_BEL_NSCLC_Fall2019_pat18_v1",
                "gd_creator": "shradha_pat18_v1",
                "note": "TP53 acts as increases of bp(GO:small GTPase mediated signal transduction ). This relation may or may not hold true in the context of NSCLC."
            }
        }
    },
    {
        "nanopub": {
            "id": "shradha_pat18_v1_enrichR_GO_31",
            "type": {
                "name": "BEL",
                "version": "2.1.0"
            },
            "citation": {
                "uri": "http://geneontology.org/docs/go-enrichment-analysis/"
            },
            "assertions": [
                {
                    "subject": "p(HGNC:TP53)",
                    "relation": "increases",
                    "object": "bp(GO:regulation of cell growth )"
                }
            ],
            "annotations": [
                {
                    "type": "Species",
                    "id": "TAX:9606",
                    "label": "human"
                }
            ],
            "database": {
                "uri_db": "https://amp.pharm.mssm.edu/Enrichr/"
            },
            "metadata": {
                "project": "BMI593_BEL_NSCLC_Fall2019_pat18_v1",
                "gd_creator": "shradha_pat18_v1",
                "note": "TP53 acts as increases of bp(GO:regulation of cell growth ). This relation may or may not hold true in the context of NSCLC."
            }
        }
    },
    {
        "nanopub": {
            "id": "shradha_pat18_v1_enrichR_GO_32",
            "type": {
                "name": "BEL",
                "version": "2.1.0"
            },
            "citation": {
                "uri": "http://geneontology.org/docs/go-enrichment-analysis/"
            },
            "assertions": [
                {
                    "subject": "p(HGNC:TP53)",
                    "relation": "increases",
                    "object": "bp(GO:negative regulation of cell growth )"
                }
            ],
            "annotations": [
                {
                    "type": "Species",
                    "id": "TAX:9606",
                    "label": "human"
                }
            ],
            "database": {
                "uri_db": "https://amp.pharm.mssm.edu/Enrichr/"
            },
            "metadata": {
                "project": "BMI593_BEL_NSCLC_Fall2019_pat18_v1",
                "gd_creator": "shradha_pat18_v1",
                "note": "TP53 acts as increases of bp(GO:negative regulation of cell growth ). This relation may or may not hold true in the context of NSCLC."
            }
        }
    },
    {
        "nanopub": {
            "id": "shradha_pat18_v1_enrichR_GO_33",
            "type": {
                "name": "BEL",
                "version": "2.1.0"
            },
            "citation": {
                "uri": "http://geneontology.org/docs/go-enrichment-analysis/"
            },
            "assertions": [
                {
                    "subject": "p(HGNC:TP53)",
                    "relation": "increases",
                    "object": "bp(GO:negative regulation of cellular process )"
                }
            ],
            "annotations": [
                {
                    "type": "Species",
                    "id": "TAX:9606",
                    "label": "human"
                }
            ],
            "database": {
                "uri_db": "https://amp.pharm.mssm.edu/Enrichr/"
            },
            "metadata": {
                "project": "BMI593_BEL_NSCLC_Fall2019_pat18_v1",
                "gd_creator": "shradha_pat18_v1",
                "note": "TP53 acts as increases of bp(GO:negative regulation of cellular process ). This relation may or may not hold true in the context of NSCLC."
            }
        }
    },
    {
        "nanopub": {
            "id": "shradha_pat18_v1_enrichR_GO_34",
            "type": {
                "name": "BEL",
                "version": "2.1.0"
            },
            "citation": {
                "uri": "http://geneontology.org/docs/go-enrichment-analysis/"
            },
            "assertions": [
                {
                    "subject": "p(HGNC:TP53)",
                    "relation": "increases",
                    "object": "bp(GO:negative regulation of cell proliferation )"
                }
            ],
            "annotations": [
                {
                    "type": "Species",
                    "id": "TAX:9606",
                    "label": "human"
                }
            ],
            "database": {
                "uri_db": "https://amp.pharm.mssm.edu/Enrichr/"
            },
            "metadata": {
                "project": "BMI593_BEL_NSCLC_Fall2019_pat18_v1",
                "gd_creator": "shradha_pat18_v1",
                "note": "TP53 acts as increases of bp(GO:negative regulation of cell proliferation ). This relation may or may not hold true in the context of NSCLC."
            }
        }
    },
    {
        "nanopub": {
            "id": "shradha_pat18_v1_enrichR_GO_35",
            "type": {
                "name": "BEL",
                "version": "2.1.0"
            },
            "citation": {
                "uri": "http://geneontology.org/docs/go-enrichment-analysis/"
            },
            "assertions": [
                {
                    "subject": "p(HGNC:TP53)",
                    "relation": "increases",
                    "object": "bp(GO:negative regulation of growth )"
                }
            ],
            "annotations": [
                {
                    "type": "Species",
                    "id": "TAX:9606",
                    "label": "human"
                }
            ],
            "database": {
                "uri_db": "https://amp.pharm.mssm.edu/Enrichr/"
            },
            "metadata": {
                "project": "BMI593_BEL_NSCLC_Fall2019_pat18_v1",
                "gd_creator": "shradha_pat18_v1",
                "note": "TP53 acts as increases of bp(GO:negative regulation of growth ). This relation may or may not hold true in the context of NSCLC."
            }
        }
    },
    {
        "nanopub": {
            "id": "shradha_pat18_v1_enrichR_GO_36",
            "type": {
                "name": "BEL",
                "version": "2.1.0"
            },
            "citation": {
                "uri": "http://geneontology.org/docs/go-enrichment-analysis/"
            },
            "assertions": [
                {
                    "subject": "p(HGNC:EPHA3)",
                    "relation": "increases",
                    "object": "bp(GO:peptidyl-tyrosine modification )"
                }
            ],
            "annotations": [
                {
                    "type": "Species",
                    "id": "TAX:9606",
                    "label": "human"
                }
            ],
            "database": {
                "uri_db": "https://amp.pharm.mssm.edu/Enrichr/"
            },
            "metadata": {
                "project": "BMI593_BEL_NSCLC_Fall2019_pat18_v1",
                "gd_creator": "shradha_pat18_v1",
                "note": "EPHA3 acts as increases of bp(GO:peptidyl-tyrosine modification ). This relation may or may not hold true in the context of NSCLC."
            }
        }
    },
    {
        "nanopub": {
            "id": "shradha_pat18_v1_enrichR_GO_37",
            "type": {
                "name": "BEL",
                "version": "2.1.0"
            },
            "citation": {
                "uri": "http://geneontology.org/docs/go-enrichment-analysis/"
            },
            "assertions": [
                {
                    "subject": "p(HGNC:EPHA3)",
                    "relation": "increases",
                    "object": "bp(GO:transmembrane receptor protein tyrosine kinase signaling pathway )"
                }
            ],
            "annotations": [
                {
                    "type": "Species",
                    "id": "TAX:9606",
                    "label": "human"
                }
            ],
            "database": {
                "uri_db": "https://amp.pharm.mssm.edu/Enrichr/"
            },
            "metadata": {
                "project": "BMI593_BEL_NSCLC_Fall2019_pat18_v1",
                "gd_creator": "shradha_pat18_v1",
                "note": "EPHA3 acts as increases of bp(GO:transmembrane receptor protein tyrosine kinase signaling pathway ). This relation may or may not hold true in the context of NSCLC."
            }
        }
    },
    {
        "nanopub": {
            "id": "shradha_pat18_v1_enrichR_GO_38",
            "type": {
                "name": "BEL",
                "version": "2.1.0"
            },
            "citation": {
                "uri": "http://geneontology.org/docs/go-enrichment-analysis/"
            },
            "assertions": [
                {
                    "subject": "p(HGNC:TP53)",
                    "relation": "increases",
                    "object": "bp(GO:positive regulation of transcription from RNA polymerase II promoter )"
                }
            ],
            "annotations": [
                {
                    "type": "Species",
                    "id": "TAX:9606",
                    "label": "human"
                }
            ],
            "database": {
                "uri_db": "https://amp.pharm.mssm.edu/Enrichr/"
            },
            "metadata": {
                "project": "BMI593_BEL_NSCLC_Fall2019_pat18_v1",
                "gd_creator": "shradha_pat18_v1",
                "note": "TP53 acts as increases of bp(GO:positive regulation of transcription from RNA polymerase II promoter ). This relation may or may not hold true in the context of NSCLC."
            }
        }
    },
    {
        "nanopub": {
            "id": "shradha_pat18_v1_enrichR_GO_39",
            "type": {
                "name": "BEL",
                "version": "2.1.0"
            },
            "citation": {
                "uri": "http://geneontology.org/docs/go-enrichment-analysis/"
            },
            "assertions": [
                {
                    "subject": "p(HGNC:TP53)",
                    "relation": "increases",
                    "object": "bp(GO:positive regulation of pri-miRNA transcription from RNA polymerase II promoter )"
                }
            ],
            "annotations": [
                {
                    "type": "Species",
                    "id": "TAX:9606",
                    "label": "human"
                }
            ],
            "database": {
                "uri_db": "https://amp.pharm.mssm.edu/Enrichr/"
            },
            "metadata": {
                "project": "BMI593_BEL_NSCLC_Fall2019_pat18_v1",
                "gd_creator": "shradha_pat18_v1",
                "note": "TP53 acts as increases of bp(GO:positive regulation of pri-miRNA transcription from RNA polymerase II promoter ). This relation may or may not hold true in the context of NSCLC."
            }
        }
    },
    {
        "nanopub": {
            "id": "shradha_pat18_v1_enrichR_GO_40",
            "type": {
                "name": "BEL",
                "version": "2.1.0"
            },
            "citation": {
                "uri": "http://geneontology.org/docs/go-enrichment-analysis/"
            },
            "assertions": [
                {
                    "subject": "p(HGNC:EPHA3)",
                    "relation": "increases",
                    "object": "bp(GO:peptidyl-tyrosine phosphorylation )"
                }
            ],
            "annotations": [
                {
                    "type": "Species",
                    "id": "TAX:9606",
                    "label": "human"
                }
            ],
            "database": {
                "uri_db": "https://amp.pharm.mssm.edu/Enrichr/"
            },
            "metadata": {
                "project": "BMI593_BEL_NSCLC_Fall2019_pat18_v1",
                "gd_creator": "shradha_pat18_v1",
                "note": "EPHA3 acts as increases of bp(GO:peptidyl-tyrosine phosphorylation ). This relation may or may not hold true in the context of NSCLC."
            }
        }
    },
    {
        "nanopub": {
            "id": "shradha_pat18_v1_enrichR_GO_41",
            "type": {
                "name": "BEL",
                "version": "2.1.0"
            },
            "citation": {
                "uri": "http://geneontology.org/docs/go-enrichment-analysis/"
            },
            "assertions": [
                {
                    "subject": "p(HGNC:TP53)",
                    "relation": "increases",
                    "object": "bp(GO:positive regulation of nucleic acid-templated transcription )"
                }
            ],
            "annotations": [
                {
                    "type": "Species",
                    "id": "TAX:9606",
                    "label": "human"
                }
            ],
            "database": {
                "uri_db": "https://amp.pharm.mssm.edu/Enrichr/"
            },
            "metadata": {
                "project": "BMI593_BEL_NSCLC_Fall2019_pat18_v1",
                "gd_creator": "shradha_pat18_v1",
                "note": "TP53 acts as increases of bp(GO:positive regulation of nucleic acid-templated transcription ). This relation may or may not hold true in the context of NSCLC."
            }
        }
    },
    {
        "nanopub": {
            "id": "shradha_pat18_v1_enrichR_GO_42",
            "type": {
                "name": "BEL",
                "version": "2.1.0"
            },
            "citation": {
                "uri": "http://geneontology.org/docs/go-enrichment-analysis/"
            },
            "assertions": [
                {
                    "subject": "p(HGNC:TP53)",
                    "relation": "increases",
                    "object": "bp(GO:regulation of pri-miRNA transcription from RNA polymerase II promoter )"
                }
            ],
            "annotations": [
                {
                    "type": "Species",
                    "id": "TAX:9606",
                    "label": "human"
                }
            ],
            "database": {
                "uri_db": "https://amp.pharm.mssm.edu/Enrichr/"
            },
            "metadata": {
                "project": "BMI593_BEL_NSCLC_Fall2019_pat18_v1",
                "gd_creator": "shradha_pat18_v1",
                "note": "TP53 acts as increases of bp(GO:regulation of pri-miRNA transcription from RNA polymerase II promoter ). This relation may or may not hold true in the context of NSCLC."
            }
        }
    },
    {
        "nanopub": {
            "id": "shradha_pat18_v1_enrichR_GO_43",
            "type": {
                "name": "BEL",
                "version": "2.1.0"
            },
            "citation": {
                "uri": "http://geneontology.org/docs/go-enrichment-analysis/"
            },
            "assertions": [
                {
                    "subject": "p(HGNC:TP53)",
                    "relation": "increases",
                    "object": "bp(GO:Ras protein signal transduction )"
                }
            ],
            "annotations": [
                {
                    "type": "Species",
                    "id": "TAX:9606",
                    "label": "human"
                }
            ],
            "database": {
                "uri_db": "https://amp.pharm.mssm.edu/Enrichr/"
            },
            "metadata": {
                "project": "BMI593_BEL_NSCLC_Fall2019_pat18_v1",
                "gd_creator": "shradha_pat18_v1",
                "note": "TP53 acts as increases of bp(GO:Ras protein signal transduction ). This relation may or may not hold true in the context of NSCLC."
            }
        }
    },
    {
        "nanopub": {
            "id": "shradha_pat18_v1_enrichR_GO_44",
            "type": {
                "name": "BEL",
                "version": "2.1.0"
            },
            "citation": {
                "uri": "http://geneontology.org/docs/go-enrichment-analysis/"
            },
            "assertions": [
                {
                    "subject": "p(HGNC:TP53)",
                    "relation": "increases",
                    "object": "bp(GO:negative regulation of gene expression )"
                }
            ],
            "annotations": [
                {
                    "type": "Species",
                    "id": "TAX:9606",
                    "label": "human"
                }
            ],
            "database": {
                "uri_db": "https://amp.pharm.mssm.edu/Enrichr/"
            },
            "metadata": {
                "project": "BMI593_BEL_NSCLC_Fall2019_pat18_v1",
                "gd_creator": "shradha_pat18_v1",
                "note": "TP53 acts as increases of bp(GO:negative regulation of gene expression ). This relation may or may not hold true in the context of NSCLC."
            }
        }
    },
    {
        "nanopub": {
            "id": "shradha_pat18_v1_enrichR_GO_45",
            "type": {
                "name": "BEL",
                "version": "2.1.0"
            },
            "citation": {
                "uri": "http://geneontology.org/docs/go-enrichment-analysis/"
            },
            "assertions": [
                {
                    "subject": "p(HGNC:TP53)",
                    "relation": "increases",
                    "object": "bp(GO:signal transduction by p53 class mediator )"
                }
            ],
            "annotations": [
                {
                    "type": "Species",
                    "id": "TAX:9606",
                    "label": "human"
                }
            ],
            "database": {
                "uri_db": "https://amp.pharm.mssm.edu/Enrichr/"
            },
            "metadata": {
                "project": "BMI593_BEL_NSCLC_Fall2019_pat18_v1",
                "gd_creator": "shradha_pat18_v1",
                "note": "TP53 acts as increases of bp(GO:signal transduction by p53 class mediator ). This relation may or may not hold true in the context of NSCLC."
            }
        }
    },
    {
        "nanopub": {
            "id": "shradha_pat18_v1_enrichR_GO_46",
            "type": {
                "name": "BEL",
                "version": "2.1.0"
            },
            "citation": {
                "uri": "http://geneontology.org/docs/go-enrichment-analysis/"
            },
            "assertions": [
                {
                    "subject": "p(HGNC:TP53)",
                    "relation": "increases",
                    "object": "bp(GO:regulation of transcription from RNA polymerase II promoter )"
                }
            ],
            "annotations": [
                {
                    "type": "Species",
                    "id": "TAX:9606",
                    "label": "human"
                }
            ],
            "database": {
                "uri_db": "https://amp.pharm.mssm.edu/Enrichr/"
            },
            "metadata": {
                "project": "BMI593_BEL_NSCLC_Fall2019_pat18_v1",
                "gd_creator": "shradha_pat18_v1",
                "note": "TP53 acts as increases of bp(GO:regulation of transcription from RNA polymerase II promoter ). This relation may or may not hold true in the context of NSCLC."
            }
        }
    },
    {
        "nanopub": {
            "id": "shradha_pat18_v1_enrichR_GO_47",
            "type": {
                "name": "BEL",
                "version": "2.1.0"
            },
            "citation": {
                "uri": "http://geneontology.org/docs/go-enrichment-analysis/"
            },
            "assertions": [
                {
                    "subject": "p(HGNC:EPHA3)",
                    "relation": "increases",
                    "object": "bp(GO:regulation of cell-matrix adhesion )"
                }
            ],
            "annotations": [
                {
                    "type": "Species",
                    "id": "TAX:9606",
                    "label": "human"
                }
            ],
            "database": {
                "uri_db": "https://amp.pharm.mssm.edu/Enrichr/"
            },
            "metadata": {
                "project": "BMI593_BEL_NSCLC_Fall2019_pat18_v1",
                "gd_creator": "shradha_pat18_v1",
                "note": "EPHA3 acts as increases of bp(GO:regulation of cell-matrix adhesion ). This relation may or may not hold true in the context of NSCLC."
            }
        }
    },
    {
        "nanopub": {
            "id": "shradha_pat18_v1_enrichR_GO_48",
            "type": {
                "name": "BEL",
                "version": "2.1.0"
            },
            "citation": {
                "uri": "http://geneontology.org/docs/go-enrichment-analysis/"
            },
            "assertions": [
                {
                    "subject": "p(HGNC:TP53)",
                    "relation": "increases",
                    "object": "bp(GO:regulation of transcription, DNA-templated )"
                }
            ],
            "annotations": [
                {
                    "type": "Species",
                    "id": "TAX:9606",
                    "label": "human"
                }
            ],
            "database": {
                "uri_db": "https://amp.pharm.mssm.edu/Enrichr/"
            },
            "metadata": {
                "project": "BMI593_BEL_NSCLC_Fall2019_pat18_v1",
                "gd_creator": "shradha_pat18_v1",
                "note": "TP53 acts as increases of bp(GO:regulation of transcription, DNA-templated ). This relation may or may not hold true in the context of NSCLC."
            }
        }
    },
    {
        "nanopub": {
            "id": "shradha_pat18_v1_enrichR_GO_49",
            "type": {
                "name": "BEL",
                "version": "2.1.0"
            },
            "citation": {
                "uri": "http://geneontology.org/docs/go-enrichment-analysis/"
            },
            "assertions": [
                {
                    "subject": "p(HGNC:TP53)",
                    "relation": "increases",
                    "object": "bp(GO:response to ionizing radiation )"
                }
            ],
            "annotations": [
                {
                    "type": "Species",
                    "id": "TAX:9606",
                    "label": "human"
                }
            ],
            "database": {
                "uri_db": "https://amp.pharm.mssm.edu/Enrichr/"
            },
            "metadata": {
                "project": "BMI593_BEL_NSCLC_Fall2019_pat18_v1",
                "gd_creator": "shradha_pat18_v1",
                "note": "TP53 acts as increases of bp(GO:response to ionizing radiation ). This relation may or may not hold true in the context of NSCLC."
            }
        }
    },
    {
        "nanopub": {
            "id": "shradha_pat18_v1_enrichR_GO_50",
            "type": {
                "name": "BEL",
                "version": "2.1.0"
            },
            "citation": {
                "uri": "http://geneontology.org/docs/go-enrichment-analysis/"
            },
            "assertions": [
                {
                    "subject": "p(HGNC:TP53)",
                    "relation": "increases",
                    "object": "bp(GO:response to X-ray )"
                }
            ],
            "annotations": [
                {
                    "type": "Species",
                    "id": "TAX:9606",
                    "label": "human"
                }
            ],
            "database": {
                "uri_db": "https://amp.pharm.mssm.edu/Enrichr/"
            },
            "metadata": {
                "project": "BMI593_BEL_NSCLC_Fall2019_pat18_v1",
                "gd_creator": "shradha_pat18_v1",
                "note": "TP53 acts as increases of bp(GO:response to X-ray ). This relation may or may not hold true in the context of NSCLC."
            }
        }
    },
    {
        "nanopub": {
            "id": "shradha_pat18_v1_enrichR_GO_51",
            "type": {
                "name": "BEL",
                "version": "2.1.0"
            },
            "citation": {
                "uri": "http://geneontology.org/docs/go-enrichment-analysis/"
            },
            "assertions": [
                {
                    "subject": "p(HGNC:EPHA3)",
                    "relation": "increases",
                    "object": "bp(GO:regulation of hydrolase activity )"
                }
            ],
            "annotations": [
                {
                    "type": "Species",
                    "id": "TAX:9606",
                    "label": "human"
                }
            ],
            "database": {
                "uri_db": "https://amp.pharm.mssm.edu/Enrichr/"
            },
            "metadata": {
                "project": "BMI593_BEL_NSCLC_Fall2019_pat18_v1",
                "gd_creator": "shradha_pat18_v1",
                "note": "EPHA3 acts as increases of bp(GO:regulation of hydrolase activity ). This relation may or may not hold true in the context of NSCLC."
            }
        }
    },
    {
        "nanopub": {
            "id": "shradha_pat18_v1_enrichR_GO_52",
            "type": {
                "name": "BEL",
                "version": "2.1.0"
            },
            "citation": {
                "uri": "http://geneontology.org/docs/go-enrichment-analysis/"
            },
            "assertions": [
                {
                    "subject": "p(HGNC:TP53)",
                    "relation": "increases",
                    "object": "bp(GO:DNA damage response, signal transduction by p53 class mediator )"
                }
            ],
            "annotations": [
                {
                    "type": "Species",
                    "id": "TAX:9606",
                    "label": "human"
                }
            ],
            "database": {
                "uri_db": "https://amp.pharm.mssm.edu/Enrichr/"
            },
            "metadata": {
                "project": "BMI593_BEL_NSCLC_Fall2019_pat18_v1",
                "gd_creator": "shradha_pat18_v1",
                "note": "TP53 acts as increases of bp(GO:DNA damage response, signal transduction by p53 class mediator ). This relation may or may not hold true in the context of NSCLC."
            }
        }
    },
    {
        "nanopub": {
            "id": "shradha_pat18_v1_enrichR_GO_53",
            "type": {
                "name": "BEL",
                "version": "2.1.0"
            },
            "citation": {
                "uri": "http://geneontology.org/docs/go-enrichment-analysis/"
            },
            "assertions": [
                {
                    "subject": "p(HGNC:TP53)",
                    "relation": "increases",
                    "object": "bp(GO:cellular response to gamma radiation )"
                }
            ],
            "annotations": [
                {
                    "type": "Species",
                    "id": "TAX:9606",
                    "label": "human"
                }
            ],
            "database": {
                "uri_db": "https://amp.pharm.mssm.edu/Enrichr/"
            },
            "metadata": {
                "project": "BMI593_BEL_NSCLC_Fall2019_pat18_v1",
                "gd_creator": "shradha_pat18_v1",
                "note": "TP53 acts as increases of bp(GO:cellular response to gamma radiation ). This relation may or may not hold true in the context of NSCLC."
            }
        }
    },
    {
        "nanopub": {
            "id": "shradha_pat18_v1_enrichR_GO_54",
            "type": {
                "name": "BEL",
                "version": "2.1.0"
            },
            "citation": {
                "uri": "http://geneontology.org/docs/go-enrichment-analysis/"
            },
            "assertions": [
                {
                    "subject": "p(HGNC:TP53)",
                    "relation": "increases",
                    "object": "bp(GO:negative regulation of fibroblast proliferation )"
                }
            ],
            "annotations": [
                {
                    "type": "Species",
                    "id": "TAX:9606",
                    "label": "human"
                }
            ],
            "database": {
                "uri_db": "https://amp.pharm.mssm.edu/Enrichr/"
            },
            "metadata": {
                "project": "BMI593_BEL_NSCLC_Fall2019_pat18_v1",
                "gd_creator": "shradha_pat18_v1",
                "note": "TP53 acts as increases of bp(GO:negative regulation of fibroblast proliferation ). This relation may or may not hold true in the context of NSCLC."
            }
        }
    },
    {
        "nanopub": {
            "id": "shradha_pat18_v1_enrichR_GO_55",
            "type": {
                "name": "BEL",
                "version": "2.1.0"
            },
            "citation": {
                "uri": "http://geneontology.org/docs/go-enrichment-analysis/"
            },
            "assertions": [
                {
                    "subject": "p(HGNC:TP53)",
                    "relation": "increases",
                    "object": "bp(GO:positive regulation of neuron apoptotic process )"
                }
            ],
            "annotations": [
                {
                    "type": "Species",
                    "id": "TAX:9606",
                    "label": "human"
                }
            ],
            "database": {
                "uri_db": "https://amp.pharm.mssm.edu/Enrichr/"
            },
            "metadata": {
                "project": "BMI593_BEL_NSCLC_Fall2019_pat18_v1",
                "gd_creator": "shradha_pat18_v1",
                "note": "TP53 acts as increases of bp(GO:positive regulation of neuron apoptotic process ). This relation may or may not hold true in the context of NSCLC."
            }
        }
    },
    {
        "nanopub": {
            "id": "shradha_pat18_v1_enrichR_GO_56",
            "type": {
                "name": "BEL",
                "version": "2.1.0"
            },
            "citation": {
                "uri": "http://geneontology.org/docs/go-enrichment-analysis/"
            },
            "assertions": [
                {
                    "subject": "p(HGNC:TP53)",
                    "relation": "increases",
                    "object": "bp(GO:positive regulation of protein localization to membrane )"
                }
            ],
            "annotations": [
                {
                    "type": "Species",
                    "id": "TAX:9606",
                    "label": "human"
                }
            ],
            "database": {
                "uri_db": "https://amp.pharm.mssm.edu/Enrichr/"
            },
            "metadata": {
                "project": "BMI593_BEL_NSCLC_Fall2019_pat18_v1",
                "gd_creator": "shradha_pat18_v1",
                "note": "TP53 acts as increases of bp(GO:positive regulation of protein localization to membrane ). This relation may or may not hold true in the context of NSCLC."
            }
        }
    },
    {
        "nanopub": {
            "id": "shradha_pat18_v1_enrichR_GO_57",
            "type": {
                "name": "BEL",
                "version": "2.1.0"
            },
            "citation": {
                "uri": "http://geneontology.org/docs/go-enrichment-analysis/"
            },
            "assertions": [
                {
                    "subject": "p(HGNC:EPHA3)",
                    "relation": "increases",
                    "object": "bp(GO:positive regulation of protein localization to membrane )"
                }
            ],
            "annotations": [
                {
                    "type": "Species",
                    "id": "TAX:9606",
                    "label": "human"
                }
            ],
            "database": {
                "uri_db": "https://amp.pharm.mssm.edu/Enrichr/"
            },
            "metadata": {
                "project": "BMI593_BEL_NSCLC_Fall2019_pat18_v1",
                "gd_creator": "shradha_pat18_v1",
                "note": "EPHA3 acts as increases of bp(GO:positive regulation of protein localization to membrane ). This relation may or may not hold true in the context of NSCLC."
            }
        }
    },
    {
        "nanopub": {
            "id": "shradha_pat18_v1_enrichR_GO_58",
            "type": {
                "name": "BEL",
                "version": "2.1.0"
            },
            "citation": {
                "uri": "http://geneontology.org/docs/go-enrichment-analysis/"
            },
            "assertions": [
                {
                    "subject": "p(HGNC:TP53)",
                    "relation": "increases",
                    "object": "bp(GO:negative regulation of nucleic acid-templated transcription )"
                }
            ],
            "annotations": [
                {
                    "type": "Species",
                    "id": "TAX:9606",
                    "label": "human"
                }
            ],
            "database": {
                "uri_db": "https://amp.pharm.mssm.edu/Enrichr/"
            },
            "metadata": {
                "project": "BMI593_BEL_NSCLC_Fall2019_pat18_v1",
                "gd_creator": "shradha_pat18_v1",
                "note": "TP53 acts as increases of bp(GO:negative regulation of nucleic acid-templated transcription ). This relation may or may not hold true in the context of NSCLC."
            }
        }
    },
    {
        "nanopub": {
            "id": "shradha_pat18_v1_enrichR_GO_59",
            "type": {
                "name": "BEL",
                "version": "2.1.0"
            },
            "citation": {
                "uri": "http://geneontology.org/docs/go-enrichment-analysis/"
            },
            "assertions": [
                {
                    "subject": "p(HGNC:TP53)",
                    "relation": "increases",
                    "object": "bp(GO:protein deubiquitination )"
                }
            ],
            "annotations": [
                {
                    "type": "Species",
                    "id": "TAX:9606",
                    "label": "human"
                }
            ],
            "database": {
                "uri_db": "https://amp.pharm.mssm.edu/Enrichr/"
            },
            "metadata": {
                "project": "BMI593_BEL_NSCLC_Fall2019_pat18_v1",
                "gd_creator": "shradha_pat18_v1",
                "note": "TP53 acts as increases of bp(GO:protein deubiquitination ). This relation may or may not hold true in the context of NSCLC."
            }
        }
    },
    {
        "nanopub": {
            "id": "shradha_pat18_v1_enrichR_GO_60",
            "type": {
                "name": "BEL",
                "version": "2.1.0"
            },
            "citation": {
                "uri": "http://geneontology.org/docs/go-enrichment-analysis/"
            },
            "assertions": [
                {
                    "subject": "p(HGNC:TP53)",
                    "relation": "increases",
                    "object": "bp(GO:positive regulation of programmed cell death )"
                }
            ],
            "annotations": [
                {
                    "type": "Species",
                    "id": "TAX:9606",
                    "label": "human"
                }
            ],
            "database": {
                "uri_db": "https://amp.pharm.mssm.edu/Enrichr/"
            },
            "metadata": {
                "project": "BMI593_BEL_NSCLC_Fall2019_pat18_v1",
                "gd_creator": "shradha_pat18_v1",
                "note": "TP53 acts as increases of bp(GO:positive regulation of programmed cell death ). This relation may or may not hold true in the context of NSCLC."
            }
        }
    },
    {
        "nanopub": {
            "id": "shradha_pat18_v1_enrichR_GO_61",
            "type": {
                "name": "BEL",
                "version": "2.1.0"
            },
            "citation": {
                "uri": "http://geneontology.org/docs/go-enrichment-analysis/"
            },
            "assertions": [
                {
                    "subject": "p(HGNC:TP53)",
                    "relation": "increases",
                    "object": "bp(GO:protein modification by small protein removal )"
                }
            ],
            "annotations": [
                {
                    "type": "Species",
                    "id": "TAX:9606",
                    "label": "human"
                }
            ],
            "database": {
                "uri_db": "https://amp.pharm.mssm.edu/Enrichr/"
            },
            "metadata": {
                "project": "BMI593_BEL_NSCLC_Fall2019_pat18_v1",
                "gd_creator": "shradha_pat18_v1",
                "note": "TP53 acts as increases of bp(GO:protein modification by small protein removal ). This relation may or may not hold true in the context of NSCLC."
            }
        }
    },
    {
        "nanopub": {
            "id": "shradha_pat18_v1_enrichR_GO_62",
            "type": {
                "name": "BEL",
                "version": "2.1.0"
            },
            "citation": {
                "uri": "http://geneontology.org/docs/go-enrichment-analysis/"
            },
            "assertions": [
                {
                    "subject": "p(HGNC:TP53)",
                    "relation": "increases",
                    "object": "bp(GO:signal transduction in response to DNA damage )"
                }
            ],
            "annotations": [
                {
                    "type": "Species",
                    "id": "TAX:9606",
                    "label": "human"
                }
            ],
            "database": {
                "uri_db": "https://amp.pharm.mssm.edu/Enrichr/"
            },
            "metadata": {
                "project": "BMI593_BEL_NSCLC_Fall2019_pat18_v1",
                "gd_creator": "shradha_pat18_v1",
                "note": "TP53 acts as increases of bp(GO:signal transduction in response to DNA damage ). This relation may or may not hold true in the context of NSCLC."
            }
        }
    },
    {
        "nanopub": {
            "id": "shradha_pat18_v1_enrichR_GO_63",
            "type": {
                "name": "BEL",
                "version": "2.1.0"
            },
            "citation": {
                "uri": "http://geneontology.org/docs/go-enrichment-analysis/"
            },
            "assertions": [
                {
                    "subject": "p(HGNC:TP53)",
                    "relation": "increases",
                    "object": "bp(GO:positive regulation of macromolecule metabolic process )"
                }
            ],
            "annotations": [
                {
                    "type": "Species",
                    "id": "TAX:9606",
                    "label": "human"
                }
            ],
            "database": {
                "uri_db": "https://amp.pharm.mssm.edu/Enrichr/"
            },
            "metadata": {
                "project": "BMI593_BEL_NSCLC_Fall2019_pat18_v1",
                "gd_creator": "shradha_pat18_v1",
                "note": "TP53 acts as increases of bp(GO:positive regulation of macromolecule metabolic process ). This relation may or may not hold true in the context of NSCLC."
            }
        }
    },
    {
        "nanopub": {
            "id": "shradha_pat18_v1_enrichR_GO_64",
            "type": {
                "name": "BEL",
                "version": "2.1.0"
            },
            "citation": {
                "uri": "http://geneontology.org/docs/go-enrichment-analysis/"
            },
            "assertions": [
                {
                    "subject": "p(HGNC:EPHA3)",
                    "relation": "increases",
                    "object": "bp(GO:regulation of microtubule-based process )"
                }
            ],
            "annotations": [
                {
                    "type": "Species",
                    "id": "TAX:9606",
                    "label": "human"
                }
            ],
            "database": {
                "uri_db": "https://amp.pharm.mssm.edu/Enrichr/"
            },
            "metadata": {
                "project": "BMI593_BEL_NSCLC_Fall2019_pat18_v1",
                "gd_creator": "shradha_pat18_v1",
                "note": "EPHA3 acts as increases of bp(GO:regulation of microtubule-based process ). This relation may or may not hold true in the context of NSCLC."
            }
        }
    },
    {
        "nanopub": {
            "id": "shradha_pat18_v1_enrichR_GO_65",
            "type": {
                "name": "BEL",
                "version": "2.1.0"
            },
            "citation": {
                "uri": "http://geneontology.org/docs/go-enrichment-analysis/"
            },
            "assertions": [
                {
                    "subject": "p(HGNC:TP53)",
                    "relation": "increases",
                    "object": "bp(GO:response to gamma radiation )"
                }
            ],
            "annotations": [
                {
                    "type": "Species",
                    "id": "TAX:9606",
                    "label": "human"
                }
            ],
            "database": {
                "uri_db": "https://amp.pharm.mssm.edu/Enrichr/"
            },
            "metadata": {
                "project": "BMI593_BEL_NSCLC_Fall2019_pat18_v1",
                "gd_creator": "shradha_pat18_v1",
                "note": "TP53 acts as increases of bp(GO:response to gamma radiation ). This relation may or may not hold true in the context of NSCLC."
            }
        }
    },
    {
        "nanopub": {
            "id": "shradha_pat18_v1_enrichR_GO_66",
            "type": {
                "name": "BEL",
                "version": "2.1.0"
            },
            "citation": {
                "uri": "http://geneontology.org/docs/go-enrichment-analysis/"
            },
            "assertions": [
                {
                    "subject": "p(HGNC:TP53)",
                    "relation": "increases",
                    "object": "bp(GO:negative regulation of cellular macromolecule biosynthetic process )"
                }
            ],
            "annotations": [
                {
                    "type": "Species",
                    "id": "TAX:9606",
                    "label": "human"
                }
            ],
            "database": {
                "uri_db": "https://amp.pharm.mssm.edu/Enrichr/"
            },
            "metadata": {
                "project": "BMI593_BEL_NSCLC_Fall2019_pat18_v1",
                "gd_creator": "shradha_pat18_v1",
                "note": "TP53 acts as increases of bp(GO:negative regulation of cellular macromolecule biosynthetic process ). This relation may or may not hold true in the context of NSCLC."
            }
        }
    },
    {
        "nanopub": {
            "id": "shradha_pat18_v1_enrichR_GO_67",
            "type": {
                "name": "BEL",
                "version": "2.1.0"
            },
            "citation": {
                "uri": "http://geneontology.org/docs/go-enrichment-analysis/"
            },
            "assertions": [
                {
                    "subject": "p(HGNC:TP53)",
                    "relation": "increases",
                    "object": "bp(GO:regulation of protein export from nucleus )"
                }
            ],
            "annotations": [
                {
                    "type": "Species",
                    "id": "TAX:9606",
                    "label": "human"
                }
            ],
            "database": {
                "uri_db": "https://amp.pharm.mssm.edu/Enrichr/"
            },
            "metadata": {
                "project": "BMI593_BEL_NSCLC_Fall2019_pat18_v1",
                "gd_creator": "shradha_pat18_v1",
                "note": "TP53 acts as increases of bp(GO:regulation of protein export from nucleus ). This relation may or may not hold true in the context of NSCLC."
            }
        }
    },
    {
        "nanopub": {
            "id": "shradha_pat18_v1_enrichR_GO_68",
            "type": {
                "name": "BEL",
                "version": "2.1.0"
            },
            "citation": {
                "uri": "http://geneontology.org/docs/go-enrichment-analysis/"
            },
            "assertions": [
                {
                    "subject": "p(HGNC:TP53)",
                    "relation": "increases",
                    "object": "bp(GO:positive regulation of apoptotic process )"
                }
            ],
            "annotations": [
                {
                    "type": "Species",
                    "id": "TAX:9606",
                    "label": "human"
                }
            ],
            "database": {
                "uri_db": "https://amp.pharm.mssm.edu/Enrichr/"
            },
            "metadata": {
                "project": "BMI593_BEL_NSCLC_Fall2019_pat18_v1",
                "gd_creator": "shradha_pat18_v1",
                "note": "TP53 acts as increases of bp(GO:positive regulation of apoptotic process ). This relation may or may not hold true in the context of NSCLC."
            }
        }
    },
    {
        "nanopub": {
            "id": "shradha_pat18_v1_enrichR_GO_69",
            "type": {
                "name": "BEL",
                "version": "2.1.0"
            },
            "citation": {
                "uri": "http://geneontology.org/docs/go-enrichment-analysis/"
            },
            "assertions": [
                {
                    "subject": "p(HGNC:TP53)",
                    "relation": "increases",
                    "object": "bp(GO:regulation of signal transduction by p53 class mediator )"
                }
            ],
            "annotations": [
                {
                    "type": "Species",
                    "id": "TAX:9606",
                    "label": "human"
                }
            ],
            "database": {
                "uri_db": "https://amp.pharm.mssm.edu/Enrichr/"
            },
            "metadata": {
                "project": "BMI593_BEL_NSCLC_Fall2019_pat18_v1",
                "gd_creator": "shradha_pat18_v1",
                "note": "TP53 acts as increases of bp(GO:regulation of signal transduction by p53 class mediator ). This relation may or may not hold true in the context of NSCLC."
            }
        }
    },
    {
        "nanopub": {
            "id": "shradha_pat18_v1_enrichR_GO_70",
            "type": {
                "name": "BEL",
                "version": "2.1.0"
            },
            "citation": {
                "uri": "http://geneontology.org/docs/go-enrichment-analysis/"
            },
            "assertions": [
                {
                    "subject": "p(HGNC:TP53)",
                    "relation": "increases",
                    "object": "bp(GO:DNA metabolic process )"
                }
            ],
            "annotations": [
                {
                    "type": "Species",
                    "id": "TAX:9606",
                    "label": "human"
                }
            ],
            "database": {
                "uri_db": "https://amp.pharm.mssm.edu/Enrichr/"
            },
            "metadata": {
                "project": "BMI593_BEL_NSCLC_Fall2019_pat18_v1",
                "gd_creator": "shradha_pat18_v1",
                "note": "TP53 acts as increases of bp(GO:DNA metabolic process ). This relation may or may not hold true in the context of NSCLC."
            }
        }
    }
]