,subject,relation,obj,citations,db_url
195,DLG2,controls-state-change-of,KRAS,https://www.ncbi.nlm.nih.gov/pubmed,https://www.ncbi.nlm.nih.gov/pubmed
245,EPHA3,controls-state-change-of,PIK3CA,https://www.ncbi.nlm.nih.gov/pubmed,https://www.ncbi.nlm.nih.gov/pubmed
454,MOV10,controls-expression-of,CDKN2A,https://www.ncbi.nlm.nih.gov/pubmed,https://www.ncbi.nlm.nih.gov/pubmed
637,TP53,controls-expression-of,APC,https://www.ncbi.nlm.nih.gov/pubmed,https://www.ncbi.nlm.nih.gov/pubmed
638,TP53,controls-expression-of,BRAF,https://www.ncbi.nlm.nih.gov/pubmed,https://www.ncbi.nlm.nih.gov/pubmed
639,TP53,controls-expression-of,CDKN2A,https://www.ncbi.nlm.nih.gov/pubmed,https://www.ncbi.nlm.nih.gov/pubmed
640,TP53,controls-expression-of,EGFR,https://www.ncbi.nlm.nih.gov/pubmed,https://www.ncbi.nlm.nih.gov/pubmed
641,TP53,controls-expression-of,MET,https://www.ncbi.nlm.nih.gov/pubmed,https://www.ncbi.nlm.nih.gov/pubmed
642,TP53,controls-expression-of,NTRK3,https://www.ncbi.nlm.nih.gov/pubmed,https://www.ncbi.nlm.nih.gov/pubmed
643,TP53,controls-expression-of,RB1,https://www.ncbi.nlm.nih.gov/pubmed,https://www.ncbi.nlm.nih.gov/pubmed
644,TP53,controls-expression-of,STK11,https://www.ncbi.nlm.nih.gov/pubmed,https://www.ncbi.nlm.nih.gov/pubmed
645,TP53,controls-expression-of,TERT,https://www.ncbi.nlm.nih.gov/pubmed,https://www.ncbi.nlm.nih.gov/pubmed
