[
    {
        "nanopub": {
            "id": "shradha_pat10_v1_clinvar_1",
            "type": {
                "name": "BEL",
                "version": "2.1.0"
            },
            "citation": {
                "uri": "https://www.ncbi.nlm.nih.gov/clinvar/variation/12579"
            },
            "assertions": [
                {
                    "subject": "p(REFSEQ:NM_033360.3, var(p.Gly12Arg))",
                    "relation": "increases",
                    "object": "path(MESH:\"Carcinoma, Non-Small-Cell Lung\")"
                }
            ],
            "annotations": [
                {
                    "type": "Species",
                    "id": "TAX:9606",
                    "label": "human"
                }
            ],
            "metadata": {
                "project": "BMI593_BEL_NSCLC_Fall2019_pat10_v1",
                "gd_creator": "shradha_pat10_v1",
                "note": "KRAS mutation increases non-small cell lung cancer"
            }
        }
    },
    {
        "nanopub": {
            "id": "shradha_pat10_v1_clinvar_2",
            "type": {
                "name": "BEL",
                "version": "2.1.0"
            },
            "citation": {
                "uri": "https://www.ncbi.nlm.nih.gov/clinvar/variation/12580"
            },
            "assertions": [
                {
                    "subject": "p(REFSEQ:NM_033360.3, var(p.Gly13Asp))",
                    "relation": "increases",
                    "object": "path(MESH:\"Carcinoma, Non-Small-Cell Lung\")"
                }
            ],
            "annotations": [
                {
                    "type": "Species",
                    "id": "TAX:9606",
                    "label": "human"
                }
            ],
            "metadata": {
                "project": "BMI593_BEL_NSCLC_Fall2019_pat10_v1",
                "gd_creator": "shradha_pat10_v1",
                "note": "KRAS mutation increases non-small cell lung cancer"
            }
        }
    },
    {
        "nanopub": {
            "id": "shradha_pat10_v1_clinvar_3",
            "type": {
                "name": "BEL",
                "version": "2.1.0"
            },
            "citation": {
                "uri": "https://www.ncbi.nlm.nih.gov/clinvar/variation/12593"
            },
            "assertions": [
                {
                    "subject": "p(REFSEQ:NM_033360.3, var(p.Gly13Arg))",
                    "relation": "increases",
                    "object": "path(MESH:\"Carcinoma, Non-Small-Cell Lung\")"
                }
            ],
            "annotations": [
                {
                    "type": "Species",
                    "id": "TAX:9606",
                    "label": "human"
                }
            ],
            "metadata": {
                "project": "BMI593_BEL_NSCLC_Fall2019_pat10_v1",
                "gd_creator": "shradha_pat10_v1",
                "note": "KRAS mutation increases non-small cell lung cancer"
            }
        }
    },
    {
        "nanopub": {
            "id": "shradha_pat10_v1_clinvar_4",
            "type": {
                "name": "BEL",
                "version": "2.1.0"
            },
            "citation": {
                "uri": "https://www.ncbi.nlm.nih.gov/clinvar/variation/12582"
            },
            "assertions": [
                {
                    "subject": "p(REFSEQ:NM_004985.4, var(p.Gly12Asp))",
                    "relation": "increases",
                    "object": "path(MESH:\"Carcinoma, Non-Small-Cell Lung\")"
                }
            ],
            "annotations": [
                {
                    "type": "Species",
                    "id": "TAX:9606",
                    "label": "human"
                }
            ],
            "metadata": {
                "project": "BMI593_BEL_NSCLC_Fall2019_pat10_v1",
                "gd_creator": "shradha_pat10_v1",
                "note": "KRAS mutation increases non-small cell lung cancer"
            }
        }
    },
    {
        "nanopub": {
            "id": "shradha_pat10_v1_clinvar_5",
            "type": {
                "name": "BEL",
                "version": "2.1.0"
            },
            "citation": {
                "uri": "https://www.ncbi.nlm.nih.gov/clinvar/variation/12583"
            },
            "assertions": [
                {
                    "subject": "p(REFSEQ:NM_004985.4, var(p.Gly12Val))",
                    "relation": "increases",
                    "object": "path(MESH:\"Carcinoma, Non-Small-Cell Lung\")"
                }
            ],
            "annotations": [
                {
                    "type": "Species",
                    "id": "TAX:9606",
                    "label": "human"
                }
            ],
            "metadata": {
                "project": "BMI593_BEL_NSCLC_Fall2019_pat10_v1",
                "gd_creator": "shradha_pat10_v1",
                "note": "KRAS mutation increases non-small cell lung cancer"
            }
        }
    },
    {
        "nanopub": {
            "id": "shradha_pat10_v1_clinvar_6",
            "type": {
                "name": "BEL",
                "version": "2.1.0"
            },
            "citation": {
                "uri": "https://www.ncbi.nlm.nih.gov/clinvar/variation/12584"
            },
            "assertions": [
                {
                    "subject": "p(REFSEQ:NM_033360.3, var(p.Gly12Ser))",
                    "relation": "increases",
                    "object": "path(MESH:\"Carcinoma, Non-Small-Cell Lung\")"
                }
            ],
            "annotations": [
                {
                    "type": "Species",
                    "id": "TAX:9606",
                    "label": "human"
                }
            ],
            "metadata": {
                "project": "BMI593_BEL_NSCLC_Fall2019_pat10_v1",
                "gd_creator": "shradha_pat10_v1",
                "note": "KRAS mutation increases non-small cell lung cancer"
            }
        }
    },
    {
        "nanopub": {
            "id": "shradha_pat10_v1_clinvar_7",
            "type": {
                "name": "BEL",
                "version": "2.1.0"
            },
            "citation": {
                "uri": "https://www.ncbi.nlm.nih.gov/clinvar/variation/45115"
            },
            "assertions": [
                {
                    "subject": "p(REFSEQ:NM_033360.3, var(p.Gln61Arg))",
                    "relation": "increases",
                    "object": "path(MESH:\"Carcinoma, Non-Small-Cell Lung\")"
                }
            ],
            "annotations": [
                {
                    "type": "Species",
                    "id": "TAX:9606",
                    "label": "human"
                }
            ],
            "metadata": {
                "project": "BMI593_BEL_NSCLC_Fall2019_pat10_v1",
                "gd_creator": "shradha_pat10_v1",
                "note": "KRAS mutation increases non-small cell lung cancer"
            }
        }
    },
    {
        "nanopub": {
            "id": "shradha_pat10_v1_clinvar_8",
            "type": {
                "name": "BEL",
                "version": "2.1.0"
            },
            "citation": {
                "uri": "https://www.ncbi.nlm.nih.gov/clinvar/variation/45116"
            },
            "assertions": [
                {
                    "subject": "p(REFSEQ:NM_033360.3, var(p.Gln61Leu))",
                    "relation": "increases",
                    "object": "path(MESH:\"Carcinoma, Non-Small-Cell Lung\")"
                }
            ],
            "annotations": [
                {
                    "type": "Species",
                    "id": "TAX:9606",
                    "label": "human"
                }
            ],
            "metadata": {
                "project": "BMI593_BEL_NSCLC_Fall2019_pat10_v1",
                "gd_creator": "shradha_pat10_v1",
                "note": "KRAS mutation increases non-small cell lung cancer"
            }
        }
    },
    {
        "nanopub": {
            "id": "shradha_pat10_v1_clinvar_9",
            "type": {
                "name": "BEL",
                "version": "2.1.0"
            },
            "citation": {
                "uri": "https://www.ncbi.nlm.nih.gov/clinvar/variation/45123"
            },
            "assertions": [
                {
                    "subject": "p(REFSEQ:NM_004985.4, var(p.Gly13Cys))",
                    "relation": "increases",
                    "object": "path(MESH:\"Carcinoma, Non-Small-Cell Lung\")"
                }
            ],
            "annotations": [
                {
                    "type": "Species",
                    "id": "TAX:9606",
                    "label": "human"
                }
            ],
            "metadata": {
                "project": "BMI593_BEL_NSCLC_Fall2019_pat10_v1",
                "gd_creator": "shradha_pat10_v1",
                "note": "KRAS mutation increases non-small cell lung cancer"
            }
        }
    },
    {
        "nanopub": {
            "id": "shradha_pat10_v1_clinvar_10",
            "type": {
                "name": "BEL",
                "version": "2.1.0"
            },
            "citation": {
                "uri": "https://www.ncbi.nlm.nih.gov/clinvar/variation/177777"
            },
            "assertions": [
                {
                    "subject": "p(REFSEQ:NM_004985.4, var(p.Gln61Lys))",
                    "relation": "increases",
                    "object": "path(MESH:\"Carcinoma, Non-Small-Cell Lung\")"
                }
            ],
            "annotations": [
                {
                    "type": "Species",
                    "id": "TAX:9606",
                    "label": "human"
                }
            ],
            "metadata": {
                "project": "BMI593_BEL_NSCLC_Fall2019_pat10_v1",
                "gd_creator": "shradha_pat10_v1",
                "note": "KRAS mutation increases non-small cell lung cancer"
            }
        }
    },
    {
        "nanopub": {
            "id": "shradha_pat10_v1_clinvar_11",
            "type": {
                "name": "BEL",
                "version": "2.1.0"
            },
            "citation": {
                "uri": "https://www.ncbi.nlm.nih.gov/clinvar/variation/375962"
            },
            "assertions": [
                {
                    "subject": "p(REFSEQ:NM_004985.4, var(p.Ala146Val))",
                    "relation": "increases",
                    "object": "path(MESH:\"Carcinoma, Non-Small-Cell Lung\")"
                }
            ],
            "annotations": [
                {
                    "type": "Species",
                    "id": "TAX:9606",
                    "label": "human"
                }
            ],
            "metadata": {
                "project": "BMI593_BEL_NSCLC_Fall2019_pat10_v1",
                "gd_creator": "shradha_pat10_v1",
                "note": "KRAS mutation increases non-small cell lung cancer"
            }
        }
    },
    {
        "nanopub": {
            "id": "shradha_pat10_v1_clinvar_12",
            "type": {
                "name": "BEL",
                "version": "2.1.0"
            },
            "citation": {
                "uri": "https://www.ncbi.nlm.nih.gov/clinvar/variation/375967"
            },
            "assertions": [
                {
                    "subject": "p(REFSEQ:NM_033360.3, var(p.Gly13Ala))",
                    "relation": "increases",
                    "object": "path(MESH:\"Carcinoma, Non-Small-Cell Lung\")"
                }
            ],
            "annotations": [
                {
                    "type": "Species",
                    "id": "TAX:9606",
                    "label": "human"
                }
            ],
            "metadata": {
                "project": "BMI593_BEL_NSCLC_Fall2019_pat10_v1",
                "gd_creator": "shradha_pat10_v1",
                "note": "KRAS mutation increases non-small cell lung cancer"
            }
        }
    },
    {
        "nanopub": {
            "id": "shradha_pat10_v1_clinvar_13",
            "type": {
                "name": "BEL",
                "version": "2.1.0"
            },
            "citation": {
                "uri": "https://www.ncbi.nlm.nih.gov/clinvar/variation/375968"
            },
            "assertions": [
                {
                    "subject": "p(REFSEQ:NM_033360.3, var(p.Gly13Ser))",
                    "relation": "increases",
                    "object": "path(MESH:\"Carcinoma, Non-Small-Cell Lung\")"
                }
            ],
            "annotations": [
                {
                    "type": "Species",
                    "id": "TAX:9606",
                    "label": "human"
                }
            ],
            "metadata": {
                "project": "BMI593_BEL_NSCLC_Fall2019_pat10_v1",
                "gd_creator": "shradha_pat10_v1",
                "note": "KRAS mutation increases non-small cell lung cancer"
            }
        }
    }
]