[
    {
        "nanopub": {
            "id": "shradha_pat2_v1_clinvar_1",
            "type": {
                "name": "BEL",
                "version": "2.1.0"
            },
            "citation": {
                "uri": "https://www.ncbi.nlm.nih.gov/clinvar/variation/13961"
            },
            "assertions": [
                {
                    "subject": "p(REFSEQ:NM_004333.5, var(p.Val600Glu))",
                    "relation": "increases",
                    "object": "path(MESH:\"Carcinoma, Non-Small-Cell Lung\")"
                }
            ],
            "annotations": [
                {
                    "type": "Species",
                    "id": "TAX:9606",
                    "label": "human"
                }
            ],
            "metadata": {
                "project": "BMI593_BEL_NSCLC_Fall2019_pat2_v1",
                "gd_creator": "shradha_pat2_v1",
                "note": "BRAF mutation increases non-small cell lung cancer"
            }
        }
    },
    {
        "nanopub": {
            "id": "shradha_pat2_v1_clinvar_2",
            "type": {
                "name": "BEL",
                "version": "2.1.0"
            },
            "citation": {
                "uri": "https://www.ncbi.nlm.nih.gov/clinvar/variation/13966"
            },
            "assertions": [
                {
                    "subject": "p(REFSEQ:NM_004333.5, var(p.Lys601Glu))",
                    "relation": "increases",
                    "object": "path(MESH:\"Carcinoma, Non-Small-Cell Lung\")"
                }
            ],
            "annotations": [
                {
                    "type": "Species",
                    "id": "TAX:9606",
                    "label": "human"
                }
            ],
            "metadata": {
                "project": "BMI593_BEL_NSCLC_Fall2019_pat2_v1",
                "gd_creator": "shradha_pat2_v1",
                "note": "BRAF mutation increases non-small cell lung cancer"
            }
        }
    },
    {
        "nanopub": {
            "id": "shradha_pat2_v1_clinvar_3",
            "type": {
                "name": "BEL",
                "version": "2.1.0"
            },
            "citation": {
                "uri": "https://www.ncbi.nlm.nih.gov/clinvar/variation/13969"
            },
            "assertions": [
                {
                    "subject": "p(REFSEQ:NM_004333.5, var(p.Leu597Val))",
                    "relation": "increases",
                    "object": "path(MESH:\"Carcinoma, Non-Small-Cell Lung\")"
                }
            ],
            "annotations": [
                {
                    "type": "Species",
                    "id": "TAX:9606",
                    "label": "human"
                }
            ],
            "metadata": {
                "project": "BMI593_BEL_NSCLC_Fall2019_pat2_v1",
                "gd_creator": "shradha_pat2_v1",
                "note": "BRAF mutation increases non-small cell lung cancer"
            }
        }
    },
    {
        "nanopub": {
            "id": "shradha_pat2_v1_clinvar_4",
            "type": {
                "name": "BEL",
                "version": "2.1.0"
            },
            "citation": {
                "uri": "https://www.ncbi.nlm.nih.gov/clinvar/variation/13971"
            },
            "assertions": [
                {
                    "subject": "p(REFSEQ:NM_004333.4, var(p.Gly469Ala))",
                    "relation": "increases",
                    "object": "path(MESH:\"Carcinoma, Non-Small-Cell Lung\")"
                }
            ],
            "annotations": [
                {
                    "type": "Species",
                    "id": "TAX:9606",
                    "label": "human"
                }
            ],
            "metadata": {
                "project": "BMI593_BEL_NSCLC_Fall2019_pat2_v1",
                "gd_creator": "shradha_pat2_v1",
                "note": "BRAF mutation increases non-small cell lung cancer"
            }
        }
    },
    {
        "nanopub": {
            "id": "shradha_pat2_v1_clinvar_5",
            "type": {
                "name": "BEL",
                "version": "2.1.0"
            },
            "citation": {
                "uri": "https://www.ncbi.nlm.nih.gov/clinvar/variation/13972"
            },
            "assertions": [
                {
                    "subject": "p(REFSEQ:NM_004333.4, var(p.Asp594Gly))",
                    "relation": "increases",
                    "object": "path(MESH:\"Carcinoma, Non-Small-Cell Lung\")"
                }
            ],
            "annotations": [
                {
                    "type": "Species",
                    "id": "TAX:9606",
                    "label": "human"
                }
            ],
            "metadata": {
                "project": "BMI593_BEL_NSCLC_Fall2019_pat2_v1",
                "gd_creator": "shradha_pat2_v1",
                "note": "BRAF mutation increases non-small cell lung cancer"
            }
        }
    },
    {
        "nanopub": {
            "id": "shradha_pat2_v1_clinvar_6",
            "type": {
                "name": "BEL",
                "version": "2.1.0"
            },
            "citation": {
                "uri": "https://www.ncbi.nlm.nih.gov/clinvar/variation/44803"
            },
            "assertions": [
                {
                    "subject": "p(REFSEQ:NM_004333.4, var(p.Gly469Val))",
                    "relation": "increases",
                    "object": "path(MESH:\"Carcinoma, Non-Small-Cell Lung\")"
                }
            ],
            "annotations": [
                {
                    "type": "Species",
                    "id": "TAX:9606",
                    "label": "human"
                }
            ],
            "metadata": {
                "project": "BMI593_BEL_NSCLC_Fall2019_pat2_v1",
                "gd_creator": "shradha_pat2_v1",
                "note": "BRAF mutation increases non-small cell lung cancer"
            }
        }
    },
    {
        "nanopub": {
            "id": "shradha_pat2_v1_clinvar_7",
            "type": {
                "name": "BEL",
                "version": "2.1.0"
            },
            "citation": {
                "uri": "https://www.ncbi.nlm.nih.gov/clinvar/variation/44802"
            },
            "assertions": [
                {
                    "subject": "p(REFSEQ:NM_004333.4, var(p.Gly469del))",
                    "relation": "increases",
                    "object": "path(MESH:\"Carcinoma, Non-Small-Cell Lung\")"
                }
            ],
            "annotations": [
                {
                    "type": "Species",
                    "id": "TAX:9606",
                    "label": "human"
                }
            ],
            "metadata": {
                "project": "BMI593_BEL_NSCLC_Fall2019_pat2_v1",
                "gd_creator": "shradha_pat2_v1",
                "note": "BRAF mutation increases non-small cell lung cancer"
            }
        }
    },
    {
        "nanopub": {
            "id": "shradha_pat2_v1_clinvar_8",
            "type": {
                "name": "BEL",
                "version": "2.1.0"
            },
            "citation": {
                "uri": "https://www.ncbi.nlm.nih.gov/clinvar/variation/162793"
            },
            "assertions": [
                {
                    "subject": "p(REFSEQ:NM_004333.5, var(p.Thr599_Val600insThr))",
                    "relation": "increases",
                    "object": "path(MESH:\"Carcinoma, Non-Small-Cell Lung\")"
                }
            ],
            "annotations": [
                {
                    "type": "Species",
                    "id": "TAX:9606",
                    "label": "human"
                }
            ],
            "metadata": {
                "project": "BMI593_BEL_NSCLC_Fall2019_pat2_v1",
                "gd_creator": "shradha_pat2_v1",
                "note": "BRAF mutation increases non-small cell lung cancer"
            }
        }
    }
]