,subject,relation,obj,citations,db_url
49,ATM,controls-phosphorylation-of,SMARCA4,https://www.ncbi.nlm.nih.gov/pubmed,https://www.ncbi.nlm.nih.gov/pubmed
50,ATM,controls-state-change-of,SMARCA4,https://www.ncbi.nlm.nih.gov/pubmed,https://www.ncbi.nlm.nih.gov/pubmed
51,ATM,controls-expression-of,TP53,https://www.ncbi.nlm.nih.gov/pubmed,https://www.ncbi.nlm.nih.gov/pubmed
52,ATM,controls-phosphorylation-of,TP53,https://www.ncbi.nlm.nih.gov/pubmed,https://www.ncbi.nlm.nih.gov/pubmed
53,ATM,controls-state-change-of,TP53,https://www.ncbi.nlm.nih.gov/pubmed,https://www.ncbi.nlm.nih.gov/pubmed
261,ERBB4,controls-phosphorylation-of,FAT1,https://www.ncbi.nlm.nih.gov/pubmed,https://www.ncbi.nlm.nih.gov/pubmed
262,ERBB4,controls-state-change-of,FAT1,https://www.ncbi.nlm.nih.gov/pubmed,https://www.ncbi.nlm.nih.gov/pubmed
263,ERBB4,controls-state-change-of,KRAS,https://www.ncbi.nlm.nih.gov/pubmed,https://www.ncbi.nlm.nih.gov/pubmed
264,ERBB4,in-complex-with,NF1,https://www.ncbi.nlm.nih.gov/pubmed,https://www.ncbi.nlm.nih.gov/pubmed
265,ERBB4,controls-state-change-of,PIK3CA,https://www.ncbi.nlm.nih.gov/pubmed,https://www.ncbi.nlm.nih.gov/pubmed
266,ERBB4,in-complex-with,PIK3CA,https://www.ncbi.nlm.nih.gov/pubmed,https://www.ncbi.nlm.nih.gov/pubmed
343,GDNF,controls-state-change-of,KRAS,https://www.ncbi.nlm.nih.gov/pubmed,https://www.ncbi.nlm.nih.gov/pubmed
365,HDAC2,in-complex-with,SMARCA4,https://www.ncbi.nlm.nih.gov/pubmed,https://www.ncbi.nlm.nih.gov/pubmed
367,HGF,controls-state-change-of,KRAS,https://www.ncbi.nlm.nih.gov/pubmed,https://www.ncbi.nlm.nih.gov/pubmed
368,HGF,in-complex-with,MET,https://www.ncbi.nlm.nih.gov/pubmed,https://www.ncbi.nlm.nih.gov/pubmed
369,HGF,controls-state-change-of,PIK3CA,https://www.ncbi.nlm.nih.gov/pubmed,https://www.ncbi.nlm.nih.gov/pubmed
370,HGF,in-complex-with,PIK3CA,https://www.ncbi.nlm.nih.gov/pubmed,https://www.ncbi.nlm.nih.gov/pubmed
419,KRAS,controls-phosphorylation-of,BRAF,https://www.ncbi.nlm.nih.gov/pubmed,https://www.ncbi.nlm.nih.gov/pubmed
420,KRAS,controls-state-change-of,BRAF,https://www.ncbi.nlm.nih.gov/pubmed,https://www.ncbi.nlm.nih.gov/pubmed
421,KRAS,controls-transport-of,BRAF,https://www.ncbi.nlm.nih.gov/pubmed,https://www.ncbi.nlm.nih.gov/pubmed
422,KRAS,in-complex-with,NF1,https://www.ncbi.nlm.nih.gov/pubmed,https://www.ncbi.nlm.nih.gov/pubmed
423,KRAS,controls-state-change-of,PIK3CA,https://www.ncbi.nlm.nih.gov/pubmed,https://www.ncbi.nlm.nih.gov/pubmed
424,KRAS,in-complex-with,PIK3CA,https://www.ncbi.nlm.nih.gov/pubmed,https://www.ncbi.nlm.nih.gov/pubmed
425,KRAS,controls-state-change-of,TP53,https://www.ncbi.nlm.nih.gov/pubmed,https://www.ncbi.nlm.nih.gov/pubmed
606,SPTA1,controls-state-change-of,KRAS,https://www.ncbi.nlm.nih.gov/pubmed,https://www.ncbi.nlm.nih.gov/pubmed
